{
  "Recipe name": "aam ka panna recipe", 
  "Cuisine": "Indian", 
  "Image ID": "9d2f691a-c024-4294-9ef2-6c99f96a3cd6", 
  "Ingredients": [
    "565 grams unripe mangoes or 3 large unripe mangoes (kacchi kairi)", 
    "200 grams sugar or 1 cup sugar", 
    "1/4 cup mint leaves (pudina leaves)", 
    "1 teaspoon roasted cumin powder (bhuna jeera powder)", 
    "1/2 teaspoon black salt", 
    "2 to 3 tablespoons aam panna concentrate or as required", 
    "1 glass water or as required", 
    "3 to 4 ice cubes or as required"
  ], 
  "Summary": "aam ka panna recipe made with roasted mangoes.", 
  "Preparation time": {
    "Prep Time": "3 mins", 
    "Cook Time": "7 mins", 
    "Total Time": "10 mins"
  }, 
  "Instructions": [
    "rinse and then wipe dry the mangoes. keep a roti rack or papad rack on a gas stove top. place the mangoes on it.", 
    "keep on turning them at intervals so that they are charred and cooked evenly.", 
    "the peels should get charred. to check doneness, slid a knife on one of the sides and the knife should slid easily without any resistance.", 
    "keep the roasted mangoes aside and let them cool at room temperature. you can also keep them in water for some minutes and then peel them. once they cool down, then remove the charred peels.", 
    "remove the peels well.slice the mangoes.", 
    "add the sliced mango pulp to a blender or mixer jar. then add 1/4 cup mint leaves.", 
    "add 1 teaspoon roasted cumin powder and 1/2 teaspoon black salt.", 
    "next add 1 cup sugar.", 
    "for aam panna, the sugar is added twice of the mango pulp", 
    ". i had got slightly more than 1/2 cup of mango pulp. hence i added 1 cup sugar. depending on the type and quality of mangoes the amount of pulp will vary. so do measure the pulp before you add sugar. so if you get lets say, 1 cup mango pulp, then add 2 cups sugar.", 
    "without adding any water, blend till smooth.", 
    "the aam panna concentrate should have a smooth consistency. if there are fibres in the pulp, then do strain it. remove in a clean small jar or bowl. cover and refrigerate.", 
    "add 2 to 3 tablespoons of the aam panna concentrate in a glass.", 
    "then add water and mix very well.", 
    "add ice cubes.", 
    "serve aam panna immediately. you can garnish with mint leaves if you want."
  ]
}