{
  "Recipe name": "aloo kofta gravy recipe", 
  "Cuisine": "north indian, Punjabi", 
  "Image ID": "0db555c1-e1c5-4b7f-bc83-8905987062c1", 
  "Ingredients": [
    "250 grams potatoes or 2 large potatoes or 3 medium potatoes or 1.25 cups tightly packed mashed potatoes", 
    "20 grams processed cheese or 1/4 cup grated cheese substitute paneer instead of cheese", 
    "1.5 to 2 tablespoon corn starch (substitutes are bread crumbs or rice flour - add accordingly.)", 
    "1/4 teaspoon black pepper (sabut kali mirch) - crushed", 
    "salt as required", 
    "4 to 5 tablespoon oil for shallow frying koftas", 
    "100 grams onion or 1 large onion or 2 medium onion - quartered", 
    "200 grams tomatoes or 2 large tomatoes or 3 medium tomatoes", 
    "15 almonds (badam) or 14-15 cashews (kaju)", 
    "2 small tej patta (indian bay leaf) or 1 medium to large tej patta", 
    "1 teaspoon ginger-garlic paste (adrak lahsun ka paste) Or 1/2 inch ginger and 3 to 4 garlic - crushed to a paste in mortar-pestle", 
    "1/2 teaspoon cumin seeds (jeera)", 
    "1/4 teaspoon turmeric powder (haldi)", 
    "1/2 teaspoon kashmiri chili powder or deghi mirch", 
    "1 teaspoon coriander powder (dhania powder)", 
    "1 to 1.25 cups water", 
    "1/4 to 1/2 teaspoon garam masala powder", 
    "1/2 teaspoon kasuri methi (dry fenugreek leaves) - crushed", 
    "3 tablespoon low fat cream or 2 tablespoon whipping cream", 
    "1/4 to 1/2 teaspoon sugar or add as required", 
    "salt as required"
  ], 
  "Summary": "aloo kofta curry recipe - potato patties or koftas in a creamy, rich makhani style gravy.", 
  "Preparation time": {
    "Prep Time": "45 mins", 
    "Cook Time": "20 mins", 
    "Total Time": "1 hrs 5 mins"
  }, 
  "Instructions": [
    "first boil or steam 2 large potatoes (250 grams) till they are thoroughly cooked. allow them to become warm.", 
    "in another pan or bowl, heat water till it boils and add 2 large tomatoes (200 grams), 1 large onion (100 grams) and 15 almonds.", 
    "you can heat the water in a pan, electric heater or microwave. cover and keep aside for 20 minutes.", 
    "roughly chop the onions, tomatoes and add to the grinder and blender. also peel the almonds and add to the grinder. instead of almonds, you can use cashews.", 
    "grind to a smooth paste. keep aside.", 
    "when the potatoes, become warm, peel them. mash very well with a potato masher.", 
    "grate 20 grams cheese. you should get 1/4 cup grated cheese. here i used processed cheese. you can also use paneer.", 
    "now add the grated cheese, 1.5 tbsp corn starch, salt and 1/2 tsp crushed black pepper to the mashed potatoes.", 
    "instead of black pepper, you can add chopped green chilies or red chili powder in the koftas. mix very well.", 
    "shape in medium sized patties.", 
    "heat 4 tbsp oil in a tawa or griddle. first place a small portion of the mixture to check if it breaks or not.", 
    "if the tiny kofta does not break, then you can safely place the koftas in the hot oil.", 
    "if breaking, then add more corn starch to bind the mixture. if you use grated paneer, then you will need to add more corn starch as paneer will leave moisture.", 
    "turn over when one side gets golden.", 
    "fry the other side and flip again to get an even golden color. you can also deep fry instead of shallow frying.", 
    "place the aloo koftas which are done on kitchen paper towels. continue frying the ones which are not done. keep the koftas aside.", 
    "take the same oil in which the koftas were fried in a pan or kadai. you can also take 2 tbsp fresh oil. add 1/2 cumin seeds and 2 small tej patta or 1 medium to large tej patta.", 
    "add the ground tomato-onion-almond paste.", 
    "stir very well. add 1 tsp ginger-garlic paste. stir.", 
    "then add the spice powders - 1/4 tsp turmeric powder, 1/2 tsp kashmiri chili powder or deghi mirch, 1 tsp coriander powder.", 
    "stir and saute till the mixture thickens and you see oil specks releasing from the sides and top of the mixture.", 
    "add water. stir very well bring the gravy to a simmer for 3 to 4 minutes.", 
    "add salt. add sugar.", 
    "stir and then add 3 tbsp cream, 1/4 tsp garam masala powder and 1/2 tsp kasuri methi, crushed. add 1/4 tsp garam masala powder if homemade. if store brought than you can add 1/2 tsp garam masala powder.", 
    "stir very and switch off the stove top.", 
    "pour the gravy in a serving plate or bowl. place the aloo kofta on the gravy.", 
    "garnish with chopped coriander leaves and serve aloo kofta with rotis, naan or jeera rice."
  ]
}