{
  "Recipe name": "aloo paratha recipe | punjabi aloo ka paratha recipe", 
  "Cuisine": "Indian, Punjabi", 
  "Image ID": "ebb49732-b8cd-4dd6-999d-4f4615cfc5bb", 
  "Ingredients": [
    "3 to 4 medium potatoes or aloo, boiled and mashed", 
    "1 to 2 green chilies, chopped finely", 
    "1/4 to 1/2 teaspoon kashmiri chilli powder or deghi mirch, optional", 
    "1/4 to 1/2 teaspoon punjabi garam masala powder or garam masala powder", 
    "1/2 to 1 teaspoon amchur (dry mango powder)", 
    "2 to 3 teaspoons finely chopped coriander leaves, optional", 
    "salt as required", 
    "oil or ghee, as required for roasting parathas", 
    "2 cups whole wheat flour (atta)", 
    "1/2 teaspoon salt or add as required", 
    "1 to 2 teaspoons oil or ghee", 
    "water as required for kneading", 
    "white butter or yogurt to serve with the aloo parathas", 
    "mango pickle or lemon pickle"
  ], 
  "Notes": "tips for making aloo paratha recipe:", 
  "Summary": "aloo paratha recipe - popular indian breakfast of unleavened whole wheat flat bread stuffed with a spiced potato stuffing.nutrition info is per parathaNutrition Factsaloo paratha recipe | punjabi aloo ka paratha recipe Amount Per Serving Calories 164 Calories from Fat 37 % Daily Value* Total Fat 4.1g 6% Saturated Fat 2g 10% Polyunsaturated Fat 0.6g Monounsaturated Fat 1.1g Cholesterol 7.3mg 2% Sodium 264.9mg 11% Potassium 345.8mg 10% Total Carbohydrates 29.4g 10% Dietary Fiber 4.2g 17% Sugars 0.7g Protein 4.7g 9% Vitamin A 3% Vitamin C 21% Calcium 2% Iron 8%* Percent Daily Values are based on a 2000 calorie diet.", 
  "Preparation time": {
    "Prep Time": "20 mins", 
    "Cook Time": "30 mins", 
    "Total Time": "50 mins"
  }, 
  "Instructions": [
    "first boil the potatoes and peel them. you can boil or steam the potatoes in a pressure cooker, steamer or electric cooker.", 
    "chop and then mash the potatoes with a potato masher.", 
    "the potatoes should be mashed very well. there should be no lumps or small pieces in it.", 
    "now add the chopped green chilies, garam masala powder, red chili powder, dry mango powder and salt.", 
    "mix the spice powders and green chilies with the mashed potatoes very well. check the taste and add more salt or red chili powder or dry mango powder as per your taste.", 
    "in another bowl or pan, take whole wheat flour (atta).", 
    "make a well in the center. add salt, oil and about half of the water.", 
    "bring the mixture together and knead into a smooth soft dough.", 
    "cover and keep the dough aside for 20 to 30 minutes.", 
    "pinch two small balls from the dough. flatten them and dust with whole wheat flour.", 
    "with a rolling pin, roll them into about 4 to 5 inches diameter rounds . try making both the rounds of the same size.", 
    "on of the rolled dough circle, place the potato stuffing in the center and keep about 1 inch empty space from the sides.", 
    "gently place the second circle on top.", 
    "press and seal the edges with your fingertips.", 
    "dust some flour on the stuffed paratha and roll into a round of about 7 to 8 inches in diameter or about the size of a normal roti or chapati.", 
    "pinch a medium ball dough. roll and flatten it. dust with some flour and roll it in a circle of about 5 to 5.5 inches in diameter.", 
    "place the potato stuffing in the center, keeping about 2 to 2.5 inches space from the sides.", 
    "take the edge and start pleating as well as bringing the pleats in the center.", 
    "join the pleats together. the pleats have to be joined well, as otherwise there will be gaps while rolling and the filling comes out.", 
    "in case you do see the filling, then just take a small piece of dough and cover the gap. roll to smoothen out the small piece of dough.", 
    "press the pleats from center.", 
    "sprinkle some flour and roll this version of aloo paratha to about the same size as that of a chapati or roti.", 
    "on a hot tava (tawa or skillet or griddle) place the rolled paratha.", 
    "the", 
    "tava shoud be hot", 
    "and not at a low temperaure. cooking parathas at a low flame will harden them. parathas ideally are crisp as well as soft.", 
    "when the base is partly cooked, flip the paratha.", 
    "spread some ghee on the partly cooked part.", 
    "flip again and this time this side has to be cooked more than the previous side. you will see brown spots on the aloo paratha.", 
    "spread some ghee on this side too. a well made and well roasted paratha will puff up.", 
    "flip again once or twice till both the sides of aloo paratha are cooked properly. you should see crisp brown spots on the paratha.", 
    "you can also", 
    "press the paratha edges with a spatula or spoon", 
    ", so that they are fried well. as some time, the paratha edges are not cooked well.", 
    "make all aloo parathas this way and stack them up in a roti basket or casserole.", 
    "you can also serve the aloo parathas directly from the tava (skillet) straight in the serving plate. serve some extra butter on the side, along with mango pickle or lemon pickle or some yogurt."
  ]
}