{
  "Recipe name": "aloo makhana recipe", 
  "Cuisine": "north indian", 
  "Image ID": "ed219d30-6fb5-4ecd-b117-8c05256dff67", 
  "Ingredients": [
    "300 grams potatoes (aloo) or 4 medium potatoes - boiled, peeled and chopped", 
    "1.5 cups makhana (foxnuts or phool makhana)", 
    "1 teaspoon roasted anardana (dry pomegranate seeds) - crushed to a powder in a mortar-pestle or 1 teaspoon dry pomegranate powder", 
    "1 teaspoon cumin powder (jeera powder)", 
    "1 green chili (hari mirch) - chopped", 
    "1 tablespoon chopped mint leaves (pudina patta)", 
    "1/2 tablespoon oil or ghee", 
    "rock salt or sendha namak as required"
  ], 
  "Summary": "aloo makhana recipe - easy snack recipe for navratri made with boiled potatoes, phool makhana (foxnuts) and spices.", 
  "Preparation time": {
    "Prep Time": "15 mins", 
    "Cook Time": "8 mins", 
    "Total Time": "23 mins"
  }, 
  "Instructions": [
    "first boil the potatoes in a pressure cooker or steamer. when they become warm or cool down, peel and chop them.", 
    "heat a pan and add 1.5 cups phool makhana.", 
    "on a low flame, stir and roast the makhana till they become crunchy.", 
    "remove the roasted makhana and keep aside.", 
    "heat 1/2 tbsp peanut oil or ghee in a pan.", 
    "add the chopped potatoes. then add 1 tsp roasted anardana powder or crushed anardana, cumin powder and rock salt. you can also add dry mango powder, instead of anardana powder.", 
    "mix the spices with the rest of the potatoes.", 
    "on a low to medium flame, saute the potatoes till they start to become light golden or golden.", 
    "switch off the flame. add the roasted makhana. don't saute the makhana as then they become chewy.", 
    "add 1 tbsp chopped mint leaves or coriander leaves.", 
    "give a quick stir and serve immediately."
  ]
}