{
  "Recipe name": "aloo rasedar recipe", 
  "Cuisine": "north indian", 
  "Image ID": "d0f46848-af0b-4460-b6a9-9b2fe2616140", 
  "Ingredients": [
    "4 medium potatoes (aloo) Or 300 grams potatoes Or 10.5 oz potatoes", 
    "1 large tomato - about 3/4 cup finely chopped tomatoes", 
    "1 inch ginger, finely chopped Or 1.5 teaspoon finely chopped ginger (adrak)", 
    "1/4 teaspoon fenugreek seeds (methi seeds)", 
    "1/4 teaspoon turmeric powder (haldi)", 
    "1/2 teaspoon red chili powder (lal mirch powder)", 
    "1 teaspoon cumin powder (jeera powder)", 
    "1 teaspoon fennel powder (saunf) - if you don't have ground fennel then lightly roast 1 teaspoon fennel seeds in a small pan till fragrant and then coarsely powder in a mortar-pestle)", 
    "1 teaspoon coriander powder (dhania powder)", 
    "1 teaspoon amchur powder (dry mango powder)", 
    "1/2 teaspoon garam masala powder", 
    "teaspoon asafoetida (hing)", 
    "1 to 1.5 cups water or add as required", 
    "1 tablespoon oil or ghee", 
    "salt as required"
  ], 
  "Summary": "aloo rasedar curry - spiced, thin potato curry made with tomatoes, ginger & spices. no onion no garlic recipe from uttar pradesh cuisine. best served with khasta kachoris, pooris or luchi.", 
  "Preparation time": {
    "Prep Time": "15 mins", 
    "Cook Time": "15 mins", 
    "Total Time": "30 mins"
  }, 
  "Instructions": [
    "boil the potatoes till they are very well cooked and can be easily crumbled.", 
    "peel and crumble the potatoes. keep aside.", 
    "heat oil. on a low flame add all the spice powders - coriander powder, cumin powder, fennel powder, asafoetida, methi seeds, red chili powder, turmeric powder. stir.", 
    "add finely chopped ginger and saute for a half a minute on low flame.", 
    "add chopped tomatoes and stir.", 
    "saute the tomatoes till they soften and you see oil releasing from the sides.", 
    "add the crumbled potatoes and stir well. saute for a minute.", 
    "add water and stir again. you can adjust the consistency as you want by adding less or more water.", 
    "add salt & dry mango powder/amchur powder.", 
    "stir and mix well. bring the potato curry to a simmer for 10 to 12 minutes. to thicken the curry slightly, you can also mash a few potatoes with the back of a spoon.", 
    "lastly add chopped coriander leaves and garam masala powder.", 
    "stir & serve aloo rasedar curry with rotis or parathas or pooris. you can also garnish with a bit of chopped coriander leaves and then serve."
  ]
}