{
  "Recipe name": "appam recipe kerala style", 
  "Cuisine": "Indian, kerala", 
  "Image ID": "6a9a0bb0-eb41-4ba6-8374-12dd233d05c4", 
  "Ingredients": [
    "2 cups regular rice (sona masoori, basmati, kolam or any variety)", 
    "1 cup parboiled rice or boiled rice or idli rice", 
    "a fistful of poha (aval or parched rice) or cooked rice", 
    "1 or 1.5 cups grated coconut Or 1 cup thick coconut milk * check notes", 
    "1/2 teaspoon dry active yeast", 
    "2 tablespoon sugar", 
    "1 teaspoon salt or add as required", 
    "water or as required for grinding", 
    "oil as required"
  ], 
  "Notes": "*if using coconut milk for grinding the rice, then keep a check on water. you may not need to add water or add very less amounts. * if using a yeast proofed solution, then add it to the batter once its ground finely. stir and mix very well.* if the batter become too thin, then add some rice flour to it.", 
  "Summary": "appam recipe - lacy, soft appams from the kerala cuisine. gluten free and vegan.", 
  "Preparation time": {
    "Prep Time": "10 hr", 
    "Cook Time": "30 mins", 
    "Total Time": "10 hr 30 mins"
  }, 
  "Instructions": [
    "rinse both the rice varieties together for a couple of times.", 
    "soak both the regular rice, parboiled rice in water for 4 to 5 hours.", 
    "drain and then add them to the grinder. also add the grated coconut, cooked rice or poha/aval, dry active yeast, salt and sugar.", 
    "you can also proof the yeast separately and then add. just take about 2 to 3 tbsp warm water. add a pinch of sugar and dissolve it. then add the yeast and stir. let this solution sit at room temperature for 10 to 15 mins till it becomes bubbly and frothy. * check notes", 
    "add required amount of water and grind all the ingredients to a smooth flowing batter", 
    "pour the batter in a large bowl or pan. cover and keep aside for fermenting for 8 to 12 hours, depending on the temperature conditions.", 
    "the batter will rise and increase in volume the next day.", 
    "heat a kadai or an appam pan with handles. smear some oil on the kadai. if using non stick kadai, then skip smearing the oil.", 
    "spread a ladle full of the batter. turn and tilt the pan so as to spread the batter.", 
    "cover the pan and let the appam cook. the base would become nicely light golden.", 
    "make all appams this way.", 
    "serve the appams hot", 
    "or warm with vegetable stew or sweetened coconut milk."
  ]
}