{
  "Recipe name": "ash gourd halwa recipe | kashi halwa recipe | dumroot halwa recipe", 
  "Cuisine": "karnataka, udipi", 
  "Image ID": "a91189f3-93db-4f99-9ad9-3621c5a55745", 
  "Ingredients": [
    "2 to 3 tablespoons ghee", 
    "12 to 15 cashews (kaju)", 
    "1/2 tablespoon raisins (kishmish)", 
    "315 grams ash gourd OR 1 cup grated ash gourd", 
    "1/4 cup water (optional)", 
    "225 grams sugar OR 1/2 cup sugar", 
    "a generous pinch of saffron (kesar)"
  ], 
  "Notes": "- you can add less cashews and raisins if you want. - the recipe can be doubled too.", 
  "Summary": "ash gourd halwa recipe - delicious halwa made with ash gourd or white pumpkin.", 
  "Preparation time": {
    "Prep Time": "10 mins", 
    "Cook Time": "30 mins", 
    "Total Time": "40 mins"
  }, 
  "Instructions": [
    "firstly rinse and then peel 315 grams ash gourd. remove the seeds and the white pith. then chop it in large pieces, so that you can easily grate.", 
    "grate the ash gourd. keep aside. you will need 1 cup grated ash gourd.", 
    "heat 1 tablespoons ghee in a thick bottomed pan. add 12 to 15 cashews. you can even add less cashews.", 
    "saute till the cashews turn light golden.", 
    "then add 1/2 tablespoons raisins. you can add less raisins or skip them.", 
    "stirring often, saute the raisins till they swell and puff up.", 
    "remove both the cashews and raisins with a slotted spoon. keep aside.", 
    "lower the flame and in the same pan, add the grated ash gourd. mix very well.", 
    "cover the pan with its lid and cook the grated ash gourd till its raw aroma goes away.", 
    "do check after every 4 to 5 minutes. usually ash gourd has enough water to cook in its own juices. but if the ash gourd starting sticking to the pan or getting lightly browned and the mixture looks dry, then add water.", 
    "i did add water as all the mixture had become dry. i added 1/4 cup water and cooked the ash gourd with the lid on the pan.", 
    "you have to cook the ash gourd till all its raw aroma goes away. it took me around 15 minutes on a low flame. time will vary depending on the pan thickness, size, dimensions and the flame intensity. so keep around 10 to 15 minutes time for cooking ash gourd.", 
    "now add sugar and mix it very well.", 
    "then add a generous pinch of saffron strands. saffron strands are used to give a nice orange-yellow color to the halwa and also for aroma. if you do not have saffron strands, then skip it or use an orange natural coloring extract.", 
    "mix saffron with the mixture.", 
    "keep on stirring and sauteing the halwa mixture on a low flame.", 
    "once the mixture starts thickening, you will feel a bit heavy while stirring the mixture. the lightness that was there before won't be there.", 
    "the halwa mixture has to be stirred often and sauteed on a low flame till it thickens and starts to leave the sides of the pan.", 
    "once the halwa mixture thickens and starts separating from the pan, then add 1 to 2 tablespoons ghee.", 
    "mix the ghee very well.", 
    "after adding ghee continue to saute on a low flame till the halwa starts separating from the pan. this will take 2 to 4 minutes.", 
    "then switch off the flame and add 1/4 teaspoon cardamom powder.", 
    "also add the cashews and raisins.", 
    "mix very well.", 
    "let the kashi halwa cool down a bit and then serve. avoid serving hot as its very hot due to the sugar syrup consistency. you can even serve ash gourd halwa warm or at room temperature."
  ]
}