{
  "Recipe name": "baingan pakora recipe", 
  "Cuisine": "Indian", 
  "Image ID": "f06e0bb0-7ad7-47be-bb9e-f9f1a143c572", 
  "Ingredients": [
    "5 to 6 small baingan (brinjals or eggplant or aubergine)", 
    "1 cup besan (gram flour)", 
    "cup water or add as required", 
    "1 pinch asafoetida (hing)", 
    "1/4 teaspoon turmeric powder (haldi)", 
    "1/4 teaspoon red chili powder (lal mirch powder)", 
    "1/2 teaspoon coriander powder (dhania powder)", 
    "1/2 teaspoon cumin powder (jeera powder)", 
    "1 pinch baking soda", 
    "salt as required", 
    "oil for deep frying"
  ], 
  "Summary": "baingan pakora recipe - fried crisp fritters made with eggplant and gram flour.", 
  "Preparation time": {
    "Prep Time": "5 mins", 
    "Cook Time": "25 mins", 
    "Total Time": "30 mins"
  }, 
  "Instructions": [
    "in a mixing bowl take take the dry ingredients - 1 cup besan/gram flour, 1/4 tsp turmeric powder, 1/4 tsp red chili powder, 1/2 tsp coriander powder, 1/2 tsp cumin powder and a generous pinch of asafoetida. also add salt.", 
    "add 2/3 cup water or as required.", 
    "whisk to a smooth batter without lumps. add water as required to make a medium consistency batter.", 
    "rinse and slice the baingan/brinjals thinly.", 
    "dip the baingan slices in the batter evenly.", 
    "gently place them in medium hot oil for frying.", 
    "turn over when one side is cooked partly.", 
    "after a minute or so, flip again and fry the baingan pakoras till crisp and evenly golden.", 
    "with a slotted spoon remove the pakoras and drain as much oil as possible.", 
    "place the pakoras on a paper kitchen towel to remove excess oil. fry the pakoras in batches this way.", 
    "serve the baingan pakoras hot or warm with coriander chutney or tamarind chutney or tomato ketchup."
  ]
}