{
  "Recipe name": "bajra roti recipe | bajra bhakri recipe", 
  "Cuisine": "Indian", 
  "Image ID": "0cba6e01-285a-49c1-9043-d7ba75d59ccf", 
  "Ingredients": [
    "2 to 2.5 cups bajra flour (millet flour)", 
    "1 teaspoon oil or ghee", 
    "water as required", 
    "salt as required", 
    "some bajra flour or whole wheat flour for dusting", 
    "sunflower oil or ghee for applying on the rotis or for frying them"
  ], 
  "Summary": "bajra roti recipe - gluten free flat bread made from millet flour - bajra flour.", 
  "Preparation time": {
    "Prep Time": "20 mins", 
    "Cook Time": "30 mins", 
    "Total Time": "50 mins"
  }, 
  "Instructions": [
    "heat or warm the water. add salt and oil. stir.", 
    "add the bajra flour. stir with a spoon. knead into a smooth dough.", 
    "if the dough becomes sticky, then add more flour. if the dough is dry, then add some water.", 
    "meanwhile heat a tava or flat fry pan.", 
    "make medium sized balls. dust with flour and use a ziplock bag for rolling.", 
    "remove gently from the ziplock bag and place on the hot tava.", 
    "cook till both sides have brown spots and done.", 
    "apply oil or ghee on one side.", 
    "you can also fry the bajra rotis like parathas with oil or ghee directly in the tava/frying pan.", 
    "serve bajra roti hot or warm with a vegetable side dish or curry."
  ]
}