{
  "Recipe name": "banana bread recipe - eggless and vegan recipe", 
  "Cuisine": "world", 
  "Image ID": "a48433cc-6526-4f9b-9504-232020e4fdb4", 
  "Ingredients": [
    "4 medium sized ripe bananas OR over ripe bananas OR 300 grams ripe bananas OR 10.5 ounce ripe bananas", 
    "1.5 cups whole wheat flour (atta) OR 180 grams whole wheat flour", 
    "1/2 cup coconut oil OR sunflower oil OR any vegetable oil OR 125 ml coconut oil", 
    "1/2 cup brown sugar OR unrefined cane sugar OR regular granulated sugar", 
    "1/2 teaspoon vanilla powder OR 1 teaspoon vanilla extract", 
    "1/4 teaspoon cinnamon powder (dalchini powder) - optional", 
    "2 to 3 pinches nutmeg powder OR teaspoon nutmeg powder (jaiphal powder) - optional", 
    "1 to 2 tablespoon sunflower seeds - optional", 
    "1.5 teaspoon baking powder", 
    "1/2 teaspoon baking soda", 
    "1 pinch salt - optional"
  ], 
  "Notes": "tips for making eggless banana bread recipe:", 
  "Summary": "banana bread recipe - delicious, light and soft vegan banana bread recipenutrition info for 1 loaf of banana breadNutrition Factsbanana bread recipe - eggless and vegan recipe Amount Per Serving Calories 2102 Calories from Fat 1031 % Daily Value* Total Fat 114.5g 176% Saturated Fat 95.4g 477% Polyunsaturated Fat 4.3g Monounsaturated Fat 6.9g Sodium 1201mg 50% Potassium 1827.3mg 52% Total Carbohydrates 271.1g 90% Dietary Fiber 27.1g 108% Sugars 108g Protein 27.1g 54% Vitamin A 1% Vitamin C 44% Calcium 64% Iron 48%* Percent Daily Values are based on a 2000 calorie diet.", 
  "Preparation time": {
    "Prep Time": "5 mins", 
    "Cook Time": "40 mins", 
    "Total Time": "45 mins"
  }, 
  "Instructions": [
    "preheat the oven to 180 degree celsius.", 
    "grease a bread tin or a rectangular cake pan with some coconut oil. you can use the rectangular cake pan of size ( 7.5 x 4 x 2.5 inches) or round cake pan (7.5 x 2 inches).", 
    "take sliced bananas and sugar in a mixing bowl.", 
    "mash the bananas well or puree them with a hand blender.", 
    "now add the oil, vanilla, cinnamon powder, nutmeg powder to the banana and mix well.", 
    "sieve the flour with the baking soda, baking powder, salt directly in the bowl containing the mashed bananas.", 
    "fold the sieved flour really well.", 
    "this folding step is important as you want the whole bread mixture to be one and mixed evenly.", 
    "lastly add the sunflower seeds and fold these.", 
    "pour the bread mixture into the loaf pan.", 
    "bake at 180 degree C for 30-40 minutes or till a toothpick inserted in the bread comes out clean.", 
    "the timing varies from oven to oven", 
    ". depending on the temperature in your oven and the size of your pan, the cake might take less or more time than mentioned here.", 
    "so take your call and keep an eye on the bread. however don't open the oven untill the bread is 3/4th done.", 
    "the benchmark is that a tooth pick inserted in the bread should come out clean.", 
    "when the bread cools down, remove the banana bread from the pan.", 
    "slice and serve banana bread warm.", 
    "the remaining banana loaf, you can wrap in a cling film or keep in a box in the fridge. warm the banana bread before serving."
  ]
}