{
  "Recipe name": "basundi recipe", 
  "Cuisine": "Indian", 
  "Image ID": "049dd973-e616-4342-99b4-b620cd6941b8", 
  "Ingredients": [
    "400 grams sweetened condensed milk OR 1 tin ( i used amul mithai mate)", 
    "4 to 5 cups full fat milk OR 1 to 1.25 litres full fat milk ( you can adjust the amount of milk from 4 cups to 5 cups or more depending on the sweetness of the condensed milk. add the amount of milk as per your taste.)", 
    "5 green cardamoms (choti elaichi) - powdered in a mortar-pestle,", 
    "12 to 15 cashews, chopped (kaju)", 
    "12 to 15 pistachios, chopped (pista)", 
    "12 to 15 almonds, chopped (badam)", 
    "7 to 8 strands of saffron (kesar)", 
    "a generous pinch of nutmeg powder (jaiphal powder)", 
    "a few strands of saffron for garnish"
  ], 
  "Summary": "basundi - quick and easy recipe of sweet thicknened milk flavored with cardamom and dry fruits.", 
  "Preparation time": {
    "Prep Time": "5 mins", 
    "Cook Time": "20 mins", 
    "Total Time": "25 mins"
  }, 
  "Instructions": [
    "add milk and condensed milk in a thick bottomed saucepan or kadai. stir and mix well.", 
    "the amount of milk to be added depends on the sweetness of the condensed milk. so for one tin of condensed milk, you can add up to 4 to 5 cups of milk or more. add the amount of milk as per your taste. taste this mixture and if its too sweet, then add more milk. also keep in mind the mixture thickens while cooking, so add the milk accordingly.", 
    "heat this mixture on a low flame and bring to a gentle boil. keep on stirring at intervals so that the mixture does not get browned or burnt from bottom.", 
    "the basundi mixture would begin to thicken.", 
    "scrape the milk solids from the sides and the cream collected on the top and add it back to the basundi mixture. overall cooking takes about 20 to 25 minutes on a low flame.", 
    "add nutmeg powder, chopped dry fruits, cardamom powder and saffron.", 
    "chopped dry fruits, cardamom powder and saffron.", 
    "stir and simmer for a minute.", 
    "serve basundi hot, warm or chilled garnished with some saffron strands."
  ]
}