{
  "Recipe name": "beetroot bhaji recipe | beetroot sabzi recipe", 
  "Cuisine": "south indian", 
  "Image ID": "c0d2e251-7b8b-4a7c-b689-0f0eea8f180c", 
  "Ingredients": [
    "2 medium to large beetroot or 1.5 cups chopped beetroot", 
    "1/4 teaspoon salt", 
    "2.5 cups of water for pressure cooking the beetroots", 
    "1.5 tablespoons oil", 
    "1/4 teaspoon mustard seed (rai)", 
    "1/2 teaspoon cumin seed (jeera)", 
    "1 pinch asafoetida hing", 
    "1 to 2 dry red chilies, broken into two and seeds removed (sookhi lal mirch)", 
    "1 to 2 green chilies, chopped finely (hari mirch)", 
    "10 to 12 curry leaves (kadi patta)", 
    "1/4 teaspoon turmeric (haldi)", 
    "1/4 cup of finely chopped onion or 1 small onion finely chopped", 
    "1/4 cup fresh grated coconut", 
    "salt as per taste"
  ], 
  "Notes": "1. you could use raw beetroot also for this recipe. but it will take a longer time to cook. 2. if using raw beets, then finely chop or grate them. add some water to them while cooking. cover and cook them. 3. if you don't have fresh coconut then use desiccated coconut. desiccated coconut also tastes good in the bhaji.", 
  "Summary": "beetroot bhaji recipe - easy and healthy beetroot bhaji recipe prepared in south indian style.", 
  "Preparation time": {
    "Prep Time": "20 mins", 
    "Cook Time": "10 mins", 
    "Total Time": "30 mins"
  }, 
  "Instructions": [
    "rinse the beetroot first very well in water.", 
    "then add 2.5 cups of water in the pressure cooker. add the beetroot.", 
    "sprinkle 1/4 teaspoon of salt.", 
    "pressure cook the beetroot for 3 to 4 whistles or for 7 to 8 minutes.", 
    "once the pressure drops down in the cooker on its own, remove the beetroot. you can use the water in soups, dals, rasams or to knead chapati dough.", 
    "when the beetroot, become warm, peel and chop them finely.", 
    "heat a pan and then add 1.5 tablespoons oil.", 
    "when the oil becomes hot, reduce the flame to a low. then add 1/4 teaspoon mustard seeds, 1/2 teaspoon cumin seeds, a generous pinch of asafoetida, 2 broken dry red chilies, 10 to 12 curry leaves and 1/4 teaspoon turmeric.", 
    "saute until the mustard seeds and cumin seeds crackle on low flame.", 
    "then add 1/4 cup of finely chopped onions and 1 to 2 finely chopped green chilies.", 
    "saute the onions until they become translucent.", 
    "sprinkle salt as required. stir well.", 
    "add the boiled, chopped beetroot. mix and stir well.", 
    "cover with a lid and cook for 2 to 3 mins on a low flame.", 
    "since the beetroot is boiled, no need to cook the bhaji for a longer time.", 
    "remove the lid, stir the bhaji.", 
    "finally add 1/4 cup of fresh grated coconut.", 
    "stir well. after 1 to 2 mins switch off the flame.", 
    "serve beetroot bhaji as a side dish with your meals."
  ]
}