{
  "Recipe name": "bengali style veg chops recipe", 
  "Cuisine": "Bengali, Indian Street Food", 
  "Image ID": "606040e1-844b-443d-a498-a31f842df771", 
  "Ingredients": [
    "180 grams beetroot OR 1 large beetroot", 
    "250 grams potatoes OR 2 large potatoes", 
    "120 grams carrots OR 2 small to medium carrots", 
    "3 tablespoons roasted peanuts", 
    "1 green chili - finely chopped OR 1 teaspoon finely chopped green chili", 
    "1 inch ginger - finely chopped OR 1 teaspoon finely chopped ginger (adrak)", 
    "1/2 teaspoon garam masala powder OR bengali bhaja masala", 
    "1/4 teaspoon kashmiri red chili powder or red chilli powder", 
    "1/4 teaspoon sugar - OPTIONAL", 
    "salt as required", 
    "cup breadcrumbs OR 1/4 cup sooji (rava or cream of wheat)", 
    "oil for deep frying", 
    "3 tablespoons maida or all purpose flour", 
    "6 tablespoons water"
  ], 
  "Summary": "veg chops recipe - popular street food recipe of veg cutlet from bengal.", 
  "Preparation time": {
    "Prep Time": "30 mins", 
    "Cook Time": "20 mins", 
    "Total Time": "50 mins"
  }, 
  "Instructions": [
    "rinse the veggies and then pressure cook them with1/4 teaspoon salt and enough water just about covering veggies.", 
    "pressure cook for 15 to 17 minutes or for 6 to 7 whistles on a medium flame. drain the veggies very well and keep aside.", 
    "meanwhile heat a small pan and add 3 tablespoons roasted peanuts.", 
    "on a low flame, stirring often roast the peanuts till their skins chars a bit and they become crunchy. let the peanuts cool down.", 
    "remove the skins of the peanuts by rubbing them between your palms. keep aside.", 
    "now peel and grate the veggies in a mixing bowl or pan.", 
    "add all the herbs, spice powders, roasted peanuts, sugar and salt.", 
    "a point to be noted is that saunf powder (fennel powder) is also added. but since the homemade garam masala powder i have used has saunf in it, i have not added saunf powder. if your garam masala does not have saunf, then you can add 1/2 teaspoon saunf powder.", 
    "mix very well. i have not used any binding agent in the chop mixture. but if the mixture looks loose and very moist, then add some breadcrumbs. moisture content of the beetroot can be more or less depending on its quality.", 
    "in a small bowl mix 3 tablespoons maida or all purpose flour and 6 tablespoons water to a smooth batter.", 
    "now take a portion of the mixture. shape into a cylindrical shaped cutlet.", 
    "coat the veggie chop with the batter. these cutlets are light, so be gentle when coating with the batter. do not coat too much as then the veg chop will break.", 
    "now coat the batter coated veg chop in breadcrumbs. you can use both breadcrumbs or sooji (rava).", 
    "crumb coat all the veg chops this way. keep aside. if you do not plan to crumb coat, then add breadcrumbs in the mixture. you can add 2 to 3 tablespoons breadcrumbs or as required.", 
    "heat oil for deep frying in a pan or kadai.", 
    "when the oil becomes hot, test a small piece of the chop mixture. if it does not break, then you can easily fry the remaining veggie chops.", 
    "place the veg chops gently in the hot oil and fry at medium temperature. do not over crowd the pan.", 
    "when one side is golden and crisp, then with a butter knife, turn the veg chops. its easier to turn them with a butter knife than with a slotted spoon.", 
    "flip a couple of times more and fry till the outer coating becomes crisp.", 
    "remove with a slotted spoon anddrain on paper kitchen towels.", 
    "prepare all the veg chops this way.", 
    "serve veg chops hot with tomato ketchup or coriander chutney or kasundi and some onion salad."
  ]
}