{
  "Recipe name": "besan toast recipe", 
  "Cuisine": "Indian", 
  "Image ID": "032636d8-b485-428a-bcce-91c9b20a23fa", 
  "Ingredients": [
    "1 cup besan (gram flour)", 
    "4 to 5 slices of bread (white or brown or whole wheat bread)", 
    "2 to 2.5 tablespoon finely chopped onions", 
    "2 tablespoon finely chopped tomatoes", 
    "1 or 2 green chilies (hari mirch) - finely chopped (skip if making for kids)", 
    "3/4 teaspoon finely chopped ginger (adrak)", 
    "1.5 to 2 teaspoon finely chopped coriander leaves (dhania patta)", 
    "1 pinch asafoetida (hing)", 
    "1/8 teaspoon turmeric powder (haldi)", 
    "1/4 teaspoon red chili powder (lal mirch powder)", 
    "5 to 6 tablespoon water or add as required to make a batter of medium consistency", 
    "1 or 2 tablespoon oil for frying or as required", 
    "salt as required"
  ], 
  "Notes": "the recipe can be doubled or tripled.", 
  "Summary": "bread besan toast recipe - quick breakfast recipe of toasts made with gram flour.", 
  "Preparation time": {
    "Prep Time": "5 mins", 
    "Cook Time": "15 mins", 
    "Total Time": "20 mins"
  }, 
  "Instructions": [
    "in a bowl or small pan, take finely chopped onions, tomatoes, ginger, green chilies and coriander leaves.", 
    "everything has to be finely chopped", 
    ". otherwise its difficult to manage medium chopped pieces of onions and tomatoes while frying the toast.", 
    "add besan (gram flour), turmeric powder, red chili powder, asafoetida and salt.", 
    "add water. whisk to a medium consistency batter. there should be no lumps in the batter. don't make thin batter.", 
    "slice the bread in two triangular or rectangular slices.", 
    "heat 1 tbsp oil for frying in a tava or frying pan.", 
    "dip the bread in the batter. with your hands, coat the bread evenly with the batter.", 
    "also place the chopped onions & tomatoes on the bread slices with your hands. don't keep the bread too long in the batter as then the slice breaks.", 
    "place the batter coated bread slices on the tava.", 
    "when the base is cooked and browned, flip and fry the other side of besan toast.", 
    "flip and fry a couple of times to get even browning and cooking.", 
    "remove and serve the besan toasts immediately.", 
    "fry the remaining bread slices in the same way. you can add more oil if required while frying the remaining batch.", 
    "serve these bread besan toast plain or with tomato ketchup or coriander chutney."
  ]
}