{
  "Recipe name": "bhindi stir fry recipe", 
  "Cuisine": "north indian", 
  "Image ID": "d74c70d8-d7da-4177-9adf-d539c3d2fddb", 
  "Ingredients": [
    "250 grams bhindi (okra)", 
    "2 tablespoon oil", 
    "1 medium onion, chopped or cup chopped onion", 
    "1 inch ginger, chopped or 1 heaped teaspoon ginger", 
    "1 green chili (hari mirch) - chopped or sliced", 
    "1/4 teaspoon turmeric powder (haldi)", 
    "1/2 teaspoon kashmiri red chili powder", 
    "1 teaspoon coriander powder (dhania powder)", 
    "1/2 teaspoon garam masala powder", 
    "2 tablespoon chopped coriander leaves (dhania patta)", 
    "salt as required"
  ], 
  "Summary": "bhindi stir fry recipe - simple, easy north indian style okra stir fry.", 
  "Preparation time": {
    "Prep Time": "10 mins", 
    "Cook Time": "25 mins", 
    "Total Time": "35 mins"
  }, 
  "Instructions": [
    "first rinse 250 grams bhindi in water. wipe them dry. there should be no trace of water or moisture on the bhindi as then the okra becomes slimy while cooking.", 
    "then chop them in 1 to 1.5 cm roundels. keep aside.", 
    "in a shallow kadai or pan, heat 2 tbsp oil and add 1/3 cup chopped onion.", 
    "on a low to medium flame, saute the onions till they turn translucent.", 
    "then add 1 tsp heaped chopped ginger and 1 green chili (chopped or sliced). stir and saute for half a minute.", 
    "reduce the flame and add 1/4 tsp turmeric powder, 1/2 tsp kashmiri red chili powder and 1 tsp coriander powder.", 
    "mix the spice powders very well.", 
    "then add the chopped bhindi.", 
    "stir and mix very well with the rest of the masala.", 
    "add salt as per taste.", 
    "mix the salt very well with the bhindi.", 
    "cover the pan with a lid and cook the bhindi on a low flame. do not add any water in the pan.", 
    "after every 3 to 4 minutes, do check the bhindi and stir again, so that the bhindi does not get browned or burnt and are uniformly cooked.", 
    "cook till the bhindi is tender and done. cooking bhindi takes about 14 to 15 minutes on a low flame.", 
    "then add 1/2 tsp garam masala powder. mix very well. switch off the flame.", 
    "lastly add 2 tbsp chopped coriander leaves. mix again.", 
    "serve bhindi stir fry hot or warm with phulkas or chapatis."
  ]
}