{
  "Recipe name": "bisi bele bath masala powder recipe", 
  "Cuisine": "karnataka, south indian", 
  "Image ID": "3a183ce5-a59e-4743-9383-21491f030c70", 
  "Ingredients": [
    "1/2 cup coriander seeds (sabut dhania)", 
    "1/4 cup chana dal (husked and split bengal gram)", 
    "1 tablespoon urad dal (husked and split black gram)", 
    "10 to 12 byadagi or bedgi red chilies - less hot dry red chilies", 
    "5 to 7 guntur red chilies - hot dry red chilies", 
    "1 teaspoon cumin seeds (jeera)", 
    "1/2 teaspoon whole black pepper (sabut kalimirch)", 
    "3 green cardamom (choti elaichi)", 
    "1.5 inch cinnamon (dalchini)", 
    "3 to 4 cloves (lavang)", 
    "4 marathi moggu (kapok buds)", 
    "4 tablespoon unsweetened desiccated coconut (sukha nariyal ka boora)", 
    "2 teaspoon poppy seeds (khus khus)", 
    "1/2 of a whole mace OR 1 small mace (javitri)", 
    "1/2 teaspoon fenugreek seeds (methi dana)", 
    "12 to 14 curry leaves (kadi patta)", 
    "1 teaspoon asafoetida (hing) - optional"
  ], 
  "Summary": "bisi bele bath masala powder recipe - a homemade spice blend to make bisi bele bath.", 
  "Preparation time": {
    "Prep Time": "30 mins", 
    "Total Time": "30 mins"
  }, 
  "Instructions": [
    "heat a frying pan or a small kadai and first dry roast the coriander, cumin and fenugreek until they are crisp and fragrant. roast on a slow flame and make sure you don't burn the spices. remove and keep aside in a plate or tray.", 
    "in the same pan, now dry roast the cinnamon, cloves, black pepper, cardamom, mace and marathi moggu till become aromatic. remove and keep aside in the same plate and tray.", 
    "now add chana dal and urad dal. these take a longer to roast than the spices.", 
    "roast them till you get a nice lentil aroma and the lentils have become browned. keep aside.", 
    "now dry roast the dry red chilies till they become crisp.", 
    "dry roast the curry leaves till they crisp.", 
    "now roast the poppy seeds till they become light golden.", 
    "dry roast the asafoetida if you plan to add it in the masala powder.", 
    "lastly roast the dessicated coconut till the flakes become golden.", 
    "now let the roasted spices cool. mix all the spices very well. break the red chilies in small pieces. deseed them if you prefer. add the ingredients in batches in a dry grinder or coffee grinder.", 
    "grind to a fine powder. remove from the jar and store the bisi bele bath powder in an air-tight jar or container. keep the bisi bele bath powder jar in the refrigerator."
  ]
}