{
  "Recipe name": "bitter gourd pickle recipe - makes 1 small jar", 
  "Cuisine": "Indian", 
  "Image ID": "bae293f9-4db6-48a4-abb3-16e9b1394701", 
  "Ingredients": [
    "250 grams bitter gourd (karela or bitter melon)", 
    "1 teaspoon mustard (rai)", 
    "1 teaspoon fenugreek seeds (methi seeds)", 
    "150 ml white vinegar, a little more than half cup or about 10 tablespoon of white vinegar or apple cider vinegar", 
    "60 ml - about 1/4 cup or 4 tablespoon mustard oil or sesame oil - regular sesame oil and not the asian one", 
    "1/2 teaspoon red chili powder (lal mirch powder)", 
    "8 to 9 garlic, thinly sliced (lahsun)", 
    "5 to 6 green chilies, slit", 
    "salt as required"
  ], 
  "Summary": "bitter gourd pickle or karela pickle recipe - an easy and quick bitter gourd pickle cooked on stove top with vinegar and spices.", 
  "Preparation time": {
    "Prep Time": "40 mins", 
    "Cook Time": "15 mins", 
    "Total Time": "55 mins"
  }, 
  "Instructions": [
    "first rinse the bitter gourd well. if there are bruises on the skin, then you can slightly peel of that part. no need to peel the entire bitter gourd.", 
    "slice the bitter gourd vertically and remove the seeds. chop the bitter gourd into small pieces.", 
    "sprinkle salt on the chopped bitter gourd and mix well. keep this bitter gourd salt mixture aside for 30 minutes.", 
    "after 30 mins, squeeze the salted bitter gourd and discard the juices. rinse once again. drain well and keep aside.", 
    "heat the mustard oil till it starts smoking. add mustard seeds, fenugreek seeds and fry till the mustard crackles.", 
    "add garlic and fry for 10-12 seconds. then add green chilies and fry for 30 seconds.", 
    "then add bitter gourd/karela. saute for 7-8 minutes.", 
    "add vinegar and salt. stir and bring the pickle mixture to a boil - about 3 to 4 minutes", 
    "add red chili powder. stir well again. let the mixture cool.", 
    "just cover the pan with a cotton napkin instead of lid as we don't want condensation droplets on the lid.", 
    "when completely cooled, pour the bitter gourd pickle in a clean sterilized jar.", 
    "close the jar with its lid and keep the bitter gourd pickle in the refrigerator.", 
    "serve the bitter gourd or karela pickle with an indian meal like dal-rice, sambar-rice or curd-rice or kadhi-rice."
  ]
}