{
  "Recipe name": "bread pizza recipe", 
  "Cuisine": "world", 
  "Image ID": "5b78f207-ecd4-4769-9799-346aef214a5d", 
  "Ingredients": [
    "8 to 10 bread slices - brown or whole wheat or white bread", 
    "3 to 4 medium garlic cloves (lahsun) - finely chopped", 
    "1 medium to large capsicum (bell pepper or shimla mirch) - sliced or chopped (red or green or yellow bell pepper)", 
    "1 medium onion, sliced or chopped", 
    "1/3 cup steamed corn kernels or tinned corn", 
    "1 teaspoon dry oregano", 
    "1 teaspoon dry basil", 
    "1/4 to 1/2 teaspoon black pepper powder (kali mirch powder) or add as per your taste", 
    "1 tablespoon olive oil", 
    "1 large tomato, finely chopped Or 1/2 cup finely chopped tomato", 
    "salt as required", 
    "regular cheese or cheddar cheese or mozzarella cheese as required", 
    "chili flakes as required for sprinkling", 
    "oregano as required for sprinkling"
  ], 
  "Summary": "bread pizza recipe - easy to make bread pizza with veggies and cheese.", 
  "Preparation time": {
    "Prep Time": "20 mins", 
    "Cook Time": "20 mins", 
    "Total Time": "40 mins"
  }, 
  "Instructions": [
    "slice the bread into two and place them in a baking tray. you can also cover the tray with aluminium foil and place the bread slices on it. toast the bread in a preheated oven at 200 degrees celsius for 8 to 12 minutes or more, till they are lightly toasted and golden. you can also easily toast the bread slices in an electric toaster or on a tava/griddle. when the bread slices are lightly toasted, remove them from the oven.", 
    "heat 1 tbsp olive in a pan.", 
    "add finely chopped garlic and saute for half a minute on a low flame. no need to brown the garlic.", 
    "add tomatoes and saute till the tomatoes soften on a low flame.", 
    "when the tomatoes are softened and you see oil releasing from the mixture, add black pepper, dry oregano and basil. also add salt stir well.", 
    "then add sliced onions. steamed corn kernels and bell peppers. here you can also add veggies like sauteed mushrooms, baby corn, steamed potatoes, cherry tomatoes, olives.", 
    "stir and saute for 3 to 4 minutes on a low flame. we don't need to cook the veggies. just a light sauteing.", 
    "keep the veggies aside.", 
    "top the veggies on the lightly toasted bread slices. if you want you can also spread some butter/olive oil on the bread first and then top the prepared veggies. you can also dot the veggies with tomato sauce.", 
    "sprinkle grated cheese. here i used the regular indian cheese like amul cheese. this cheese does not melt. but will get golden and browned. for a melted and gooey option, better to add cheddar cheese. for a stringy melted option, add mozzarella cheese", 
    "place the tray back in the oven and bake at 200 degrees celsius for 8 to 12 minutes or till the cheese melts or gets light browned.", 
    "serve veg bread pizza with red chili flakes, oregano and tomato ketchup."
  ]
}