{
  "Recipe name": "Buttered Corn Recipe", 
  "Cuisine": "world", 
  "Image ID": "9371a23c-0fa2-4721-91b3-f7372768f37d", 
  "Ingredients": [
    "2 cup corn kernels", 
    "1 tablespoon butter or 2 teaspoon olive oil", 
    "1/2 teaspoon black pepper powder or freshly crushed black pepper", 
    "1 teaspoon mixed herbs or any herb of your choice or italian herbs (optional)", 
    "1 to 2 tablespoon grated cheese (optional)", 
    "salt as required"
  ], 
  "Notes": "measuring cup used for ingredients is: 1 cup = 250 ml", 
  "Summary": "easy buttered corn made with corn kernels and seasoned with herbs.", 
  "Preparation time": {
    "Prep Time": "20 mins", 
    "Cook Time": "5 mins", 
    "Total Time": "25 mins"
  }, 
  "Instructions": [
    "Cook the american corn kernels in pressure cooker with little salt and enough water for 3 to 4 whistles. You could also boil in a pan. Though, this will take longer.", 
    "If using corn cobs then pressure cook or steam them in enough water. If pressure cooking, then cook for 3 to 4 whistles.", 
    "Drain and keep the corn kernels aside.", 
    "If using corn cobs, then let them become warm or cool.", 
    "Remove the corn from the cobs with a knife.", 
    "In another pan or you could use the same pressure cooker, melt the butter, add the corn kernels, salt, herbs and pepper. Mix well. Remove and serve buttered corn hot.", 
    "I did not add cheese, but you could add grated cheese to the above mixture and keep on the heat, till the cheese melts."
  ]
}