{
  "Recipe name": "cabbage vada recipe", 
  "Cuisine": "south indian", 
  "Image ID": "2403f11f-3b84-4b7c-93c5-13e90fe4a3e7", 
  "Ingredients": [
    "1/2 cup chana dal (spilt and husked bengal gram)", 
    "1/2 cup urad dal (spilt and husked black gram)", 
    "2 cups finely chopped cabbage (patta gobi - red or green)", 
    "1 or 2 green chili - chopped (hari mirch)", 
    "1/2 or 3/4 inch ginger, finely chopped or grated (adrak)", 
    "3 teaspoon chopped coriander leaves (dhania patta) - optional", 
    "2 teaspoon chopped curry leaves (kadi patta) - optional", 
    "1/2 teaspoon fennel seeds (saunf)", 
    "1/2 teaspoon cumin seeds (jeera)", 
    "1/2 teaspoon whole black pepper (sabut kali mirch) - crushed", 
    "1 pinch asafoetida (hing)", 
    "salt as required", 
    "oil for shallow frying or deep frying the vadas"
  ], 
  "Summary": "cabbage vada recipe - deep fried snacks made from ground lentils and finely chopped cabbage.", 
  "Preparation time": {
    "Prep Time": "9 hr", 
    "Cook Time": "25 mins", 
    "Total Time": "9 hr 25 mins"
  }, 
  "Instructions": [
    "rinse and soak the urad dal and chana dal in enough water overnight or for at least 4-5 hours.drain the lentils.", 
    "then add the lentils in the grinder jar along with black pepper, fennel, cumin and asafoetida.", 
    "you can also add these spices whole to the vada batter, instead of grinding them.", 
    "grind to a smooth batter using very less water. i added approx 4 tbsp of water.", 
    "add the chopped cabbage, coriander leaves, curry leaves, ginger, garlic and salt to the batter.", 
    "mix very well and keep aside.", 
    "heat oil in a kadai till its medium hot.", 
    "drop spoonfuls of the batter in the medium hot oil.", 
    "when one side is partly cooked and pale golden, turn over and continue frying.", 
    "fry the vadas till golden brown and crisp.", 
    "drain cabbage vadas on paper towels to remove excess oil.", 
    "serve cabbage vadas hot or warm with green chutney or coconut chutney or sambar and rasam."
  ]
}