{
  "Recipe name": "capsicum besan sabzi recipe", 
  "Cuisine": "Maharashtrian", 
  "Image ID": "fd74212a-9455-4d40-84ce-fc3f79ba80db", 
  "Ingredients": [
    "1/4 cup besan (gram flour)", 
    "300 grams green capsicum or 2 large capsicum or 2 heaped cups chopped capsicum (shimla mirch)", 
    "50 grams onion or 1 medium onion or cup chopped onion", 
    "3 to 4 garlic or 1 teaspoon chopped garlic (lahsun)", 
    "1 or 2 green chilli, chopped (hari mirch)", 
    "2 tablespoons peanut oil (you can also use sunflower oil)", 
    "1/2 teaspoon mustard seeds (rai)", 
    "1/2 teaspoon cumin seeds (jeera)", 
    "1 sprig curry leaves or 8 to 10 curry leaves (kadi patta)", 
    "1 pinch asafoetida (hing)", 
    "1/4 teaspoon turmeric powder (haldi)", 
    "1/4 teaspoon red chilli powder (lal mirch powder)", 
    "salt as required", 
    "1/4 cup water", 
    "2 tablespoon coriander leaves (dhania patta)", 
    "1/2 to 1 teaspoon lemon juice (optional), can be sprinkled while serving or added when adding coriander leaves", 
    "if you want you can also add some sugar."
  ], 
  "Notes": "1. cut capsicum in 1.5 cm cubes. don't cut too large or they will take lot of time to cook.", 
  "Summary": "capsicum besan sabzi recipe- simple yet tasty recipe of a sabzi or bhaji made with capsicum (green bell peppers) and besan (gram flour).", 
  "Preparation time": {
    "Prep Time": "10 mins", 
    "Cook Time": "20 mins", 
    "Total Time": "30 mins"
  }, 
  "Instructions": [
    "first rinse, halve, remove the seeds and then chop 2 large capsicum (300 grams) in 1.5 cm cubes or squares. also chop 1 medium onion, 3 to 4 medium garlic cloves and 1 to 2 green chilies. keep aside.", 
    "heat a thick bottomed shallow frying pan or kadai. keep the flame to a low and add 1/4 cup besan.", 
    "roast the besan stirring often till it becomes aromatic and changes color.", 
    "the besan has to be roasted well and should not be raw as we are not going to cook it much further.", 
    "roasting besan will take about 5 to 6 minutes on a low flame.", 
    "once the besan has got roasted well, remove it in a separate plate.", 
    "in the same pan, add 2 tablespoons peanut oil (can also use sunflower oil). when the oil becomes hot, add 1/2 teaspoon mustard seeds. lower the flame.", 
    "when the mustard seeds crackle, add 1/2 teaspoon cumin seeds. saute till the cumin seeds also splutter and change color.", 
    "next add cup chopped onions, 1 teaspoon chopped garlic, chopped green chilies and 8 to 10 curry leaves.", 
    "stir well and saute till the onions turn translucent.", 
    "then add 1/4 teaspoon turmeric powder and 1/4 teaspoon red chilli powder.", 
    "on a low flame, mix both the spice powders very well ensuring that they do not get burnt.", 
    "now add the capsicum cubes.", 
    "mix very well with the rest of the ingredients.", 
    "add salt as required. mix again.", 
    "pour 1/4 cup water and stir.", 
    "cover the pan with a lid and cook the capsicum on a low flame.", 
    "do check the capsicum a couple of times when its cooking and stir. if the water dries up, you can add more water.", 
    "the capsicum have to be tender and done. some water will also be there when the capsicum gets cooked.", 
    "then add the roasted besan in batches. first sprinkle add 1 tablespoon besan all over the capsicum sabzi. mix very well.", 
    "this way keep on adding roasted besan in batches and mixing.", 
    "mix the besan very well with the capsicum bhaji. if the bhaji looks very dry, then you can sprinkle some water.", 
    "lastly switch off the flame and add 2 tablespoons chopped coriander leaves. also drizzle 1/2 to 1 teaspoon of lemon juice. adding lemon juice is optional. you can also serve lemon wedges while serving the bhaji, instead of adding lemon juice at this step.", 
    "mix very well.", 
    "serve capsicum besan bhaji hot or warm with some chapatis or as a side dish with dal-rice or varan-bhaat."
  ]
}