{
  "Recipe name": "carrot salad recipe - gujarati style", 
  "Cuisine": "gujarati, Indian", 
  "Image ID": "5a4cb0d1-d0f1-4772-88a2-164c501ad102", 
  "Ingredients": [
    "4 medium sized carrots (gajar) - rinsed, peeled and grated", 
    "3/4 or 1 teaspoon mustard seeds (rai)", 
    "1 teaspoon sesame seeds (til) - optional", 
    "2 to 3 teaspoon oil", 
    "1 green chili (hari mirch), chopped", 
    "1 to 2 pinch turmeric powder (haldi)", 
    "1 pinch asafoetida (hing)", 
    "few drops of lemon juice or as required", 
    "salt as required"
  ], 
  "Notes": "if making for children then don't add chilies.", 
  "Summary": "carrot sambharo recipe - spiced carrot salad with green chilies from gujarat.", 
  "Preparation time": {
    "Prep Time": "10 mins", 
    "Cook Time": "5 mins", 
    "Total Time": "15 mins"
  }, 
  "Instructions": [
    "heat oil. splutter the mustard.", 
    "add the sesame seeds and fry for some seconds.", 
    "add the chopped green chili and fry for few seconds.", 
    "spinkle the turmeric powder & asafoetida and stir.", 
    "now add the grated carrots. season with salt.", 
    "stir and saute for 3-4 minutes on a low flame.", 
    "the carrots should have crunch and crispiness in them and not be cooked completely."
  ]
}