{
  "Recipe name": "carrot payasam or carrot kheer recipe", 
  "Cuisine": "south indian", 
  "Image ID": "d5f9b5c6-764c-4d65-8dc6-a3fe5ee8a614", 
  "Ingredients": [
    "3 medium to large carrots (gajar), peeled and chopped roughly", 
    "3 to 4 green cardamoms (choti elaichi), powdered and crushed or 1/2 teaspoon cardamom powder", 
    "1 cup thin coconut milk", 
    "1 cup thick coconut milk", 
    "1/2 to 3/4 cup powdered or grated jaggery or as required (depending on the sweetness of the carrots)", 
    "1/2 cup water for dissolving the powdered jaggery", 
    "a handful of cashews (kaju), halved or whole", 
    "a handful of raisins (kishmish)", 
    "1 pinch rock salt", 
    "2 to 3 tablespoon oil or ghee"
  ], 
  "Notes": "use good quality coconut milk if using store bought. best is to make homemade coconut milk from scratch and use in this recipe.to make thin coconut milk from store bought coconut milk - dissolve 1 part of coconut milk in 3 parts of water.if using dairy milk, then just substitute 2 cups milk and simmer the carrot puree, jaggery and salt with milk till the payasam mixture thickens a bit.", 
  "Summary": "carrot payasam recipe - creamy and smooth payasam made with carrots, jaggery and coconut milk.", 
  "Preparation time": {
    "Prep Time": "15 mins", 
    "Cook Time": "25 mins", 
    "Total Time": "40 mins"
  }, 
  "Instructions": [
    "boil the carrots in enough water till they become soft and completely cooked.", 
    "stir jaggery in 1/2 cup water and mix till the jaggery is dissolved.", 
    "if there are impurities, then strain the jaggery solution.", 
    "when the carrots are warm or cooled, blend them adding 1/4 cup water in a blender.", 
    "mix the carrot puree, thin coconut milk, jaggery solution, salt in a pot or kadai and keep on low flame.", 
    "gently heat through and occasionally stir.", 
    "don't bring the mixture to a boil.", 
    "just let it get heated.", 
    "when you see steam vapours floating on top above the payasam, switch off the fire.", 
    "stir in the thick coconut milk.", 
    "in a small pan, heat oil or ghee.", 
    "first add the cashews and when they start to change color, add the raisins and cardamom powder.", 
    "on a low flame, fry the cashew till they turn light golden or golden and the raisins swell and become golden.", 
    "pour this whole mixture into the carrot kheer and stir.", 
    "serve the carrot payasam hot or warm or cold."
  ]
}