{
  "Recipe name": "chickoo milkshake recipe", 
  "Cuisine": "Indian", 
  "Image ID": "fd39eaa5-5eb8-467d-a4ed-a0f4667b6d30", 
  "Ingredients": [
    "2 to 2.5 cups chickoo, rinsed, peeled, chopped and deseeded chickoo (sapota)", 
    "2.5 to 3 cups milk. you can also use soy milk or almond milk or cashew milk. i used cashew milk.", 
    "coconut sugar or unrefined organic cane sugar as required.", 
    "few ice cubes (optional)"
  ], 
  "Summary": "chickoo milkshake recipe - refreshing and healthy vegan chickoo milkshake recipe", 
  "Preparation time": {
    "Prep Time": "10 mins", 
    "Total Time": "10 mins"
  }, 
  "Instructions": [
    "add chopped chickoo pieces in the blender", 
    "pour the milk.", 
    "add the sugar or jaggery as required", 
    "blend everything till smooth.", 
    "you can add ice cubes if you want while serving.", 
    "serve the chickoo milkshake immediately.", 
    "chickoo milkshake should ideally be taken fresh."
  ]
}