{
  "Recipe name": "chocolate cake recipe in pressure cooker", 
  "Cuisine": "world", 
  "Image ID": "dfdd83d1-96bc-421a-9e12-de3257440037", 
  "Ingredients": [
    "1 cup all purpose flour (maida) OR 125 grams maida", 
    "1/4 teaspoon salt", 
    "1/2 cup sugar OR 100 grams sugar", 
    "1/4 cup cocoa powder OR 20 grams cocoa powder", 
    "1/4 cup unsalted butter OR 30 grams butter, if using salted butter then skip adding salt", 
    "1/4 cup oil", 
    "1/2 cup water", 
    "1/4 cup curd (yogurt or dahi)", 
    "1/4 cup water", 
    "1 teaspoon vinegar", 
    "1 teaspoon vanilla extract OR 1/2 teaspoon vanilla essence", 
    "1/2 teaspoon baking soda", 
    "1/4 cup cocoa powder OR 20 grams cocoa powder", 
    "1/4 cup butter OR 30 grams butter, salted or unsalted", 
    "10 tablespoons brown sugar - regular sugar can also be used", 
    "1/4 cup milk you can also use cream", 
    "1 teaspoon vanilla extract OR 1/2 teaspoon vanilla essence"
  ], 
  "Summary": "eggless chocolate cake recipe in pressure cooker - soft and moist chocolate cake made in a pressure cooker.", 
  "Preparation time": {
    "Prep Time": "20 mins", 
    "Cook Time": "35 mins", 
    "Total Time": "55 mins"
  }, 
  "Instructions": [
    "grease a baking pan or baking bowl with butter.", 
    "in a bowl, take the flour, salt and sugar.", 
    "mix everything very well with a spoon or wired whisk.", 
    "then in a pan, take butter, oil, cocoa and water.", 
    "keep the pan on a low flame and with a wired whisk, continuously stir so that all the cocoa powder dissolves and the mixture becomes uniform. there should be no lumps.", 
    "bring just to a boil over medium heat, stirring continuously with the whisk.", 
    "as soon as the chocolate mixture comes to a boil, immediately pour it into the flour mixture.", 
    "just light mix. if you don't mix then also its fine.", 
    "in a 5 or 6 litre pressure cooker, spread 1 cup salt evenly. place the cooker on a low flame.", 
    "in another bowl, take curd, water, vinegar and vanilla extract.", 
    "mix very well.", 
    "lastly add baking soda.", 
    "mix very well. this mixture will begin to froth.", 
    "immediately add this mixture to the flour+chocolate mixture.", 
    "with a wired whisk mix very well. however do not over do the mixing.", 
    "pour into the greased baking tin.", 
    "gently shake the pan.", 
    "place a rack or stand on the salt layer.", 
    "place the cake pan on the stand.", 
    "cover with a lid. the rubber gasket and the whistle should be removed.", 
    "bake for 40 to 45 minutes on a low flame. if baking in an oven, then bake in a preheated oven at 350 degree F (approx 177 degree C) for 35 to 40 minutes.", 
    "check with a tooth pick to see if the cake is done or not. the tooth pick should come out clean.", 
    "remove the cake pan carefully from the pressure cooker. While the cake is still hot poke a lot of holes in it using a fork or a tooth pick or a wooden skewer. make a lot of holes as this is where the icing seeps into and they cannot be seen once the icing has been cooled.", 
    "in a saucepan, take butter, vanilla extract,brown sugar, milk and cocoa powder.", 
    "keep the pan on a low flame and with a wired whisk stir very well. the sugar should melt and the cocoa powder should dissolve. keep on stirring continuously to get an even mixture.", 
    "bring this mixture to a boil.", 
    "once this icing mixture comes to a boil, then immediately pour it all over the cake. you don't need to spread it as the icing seeps down inside the cake.", 
    "this chocolate cake tastes good warm also, but you cannot slice them and you can just have them directly from the pan. you can also cool the cake in the fridge and then have it. cover the pan with a lid or foil when keeping in the fridge.", 
    "slice and then serve pressure cooker chocolate cake as a sweet dessert."
  ]
}