{
  "Recipe name": "coconut ladoo recipe with condensed milk", 
  "Cuisine": "Maharashtrian", 
  "Image ID": "af1e43e9-05c2-418d-94d9-b1dc95a56bf1", 
  "Ingredients": [
    "1.5 cups tightly packed fresh grated coconut", 
    "1 teaspoon ghee", 
    "1/2 teaspoon cardamom powder (choti elaichi powder) Or 4 to 5 green cardamoms crushed in a mortar-pestle", 
    "3/4 cup condensed milk Or 220 grams sweetened condensed milk Or about 1/2 tin of sweetened condensed milk", 
    "1/3 cup desiccated or fresh coconut for rolling", 
    "chopped dry fruits of your choice (optional)"
  ], 
  "Summary": "coconut ladoos recipe - three ingredient coconut ladoos made with fresh coconut, condensed milk and cardamom powder.", 
  "Preparation time": {
    "Prep Time": "1 min", 
    "Cook Time": "14 mins", 
    "Total Time": "15 mins"
  }, 
  "Instructions": [
    "heat 1 tsp ghee in a frying pan or kadai.", 
    "add 1.5 cups tightly packed coconut.", 
    "stir and saute the coconut on a low flame for 3 to 4 minutes. the sauteing is to just get rid of some moisture. don't brown them. if using desiccated coconut, then no need to saute it in ghee. just mix the desiccated coconut with condensed milk and heat the mixture.", 
    "now add 3/4 cup sweetened condensed milk. here i used amul mithai mate.", 
    "add 1/2 tsp cardamom powder.", 
    "stir very well and cook this mixture on a low flame.", 
    "when you see that the mixture has begun to thicken, then keep stirring regularly.", 
    "when the mixture begins to leave the sides of the pan and when you see some coconut fat from the sides, switch off the flame.", 
    "pour the coconut ladoo mixture in another bowl or pan. allow it to cool.", 
    "when the mixture has cooled completely, pinch small to medium balls from the mixture and form ladoos.", 
    "roll the coconut ladoos in desiccated coconut (nariyal ka burada) or in fresh coconut evenly.", 
    "you can also make all the ladoos at once and then roll in the desiccated coconut.", 
    "place the coconut ladoos in small muffin liners or just place them in a tray.", 
    "serve coconut ladoos straight away or refrigerate and serve them later.", 
    "these coconut ladoo stay good for 4 to 5 days in the fridge."
  ]
}