{
  "Recipe name": "coconut tamarind chutney recipe for idli, dosa and uttapam", 
  "Cuisine": "kerala, south indian", 
  "Image ID": "7a065038-55f4-4704-8749-165e6feb7da9", 
  "Ingredients": [
    "1 cup fresh coconut", 
    "1 green chili, chopped or 1 dry red chili, broken and deseeded", 
    "1 tsp tamarind without seeds (imli)", 
    "1/2 inch ginger, chopped", 
    "4 to 5 tbsp water", 
    "salt as required", 
    "1 sprig curry leaves/kadi patta", 
    "1/2 or 3/4 tsp mustard seeds/rai", 
    "1/2 or 3/4 tsp cumin seeds/jeera", 
    "1 tbsp coconut oil or sesame oil or any oil", 
    "1 or 2 red chilies (optional)"
  ], 
  "Notes": "for a more sour taste, you can add overall 1.5 to 2 tsp tamarind.", 
  "Summary": "coconut tamarind chutney recipe - slightly sour tasting chutney made with tamarind, coconut and spices.", 
  "Preparation time": {
    "Prep Time": "10 mins", 
    "Cook Time": "5 mins", 
    "Total Time": "15 mins"
  }, 
  "Instructions": [
    "in a chutney grinder jar, take all the ingredients mentioned under the list \"for grinding\".", 
    "add 4 to 5 tbsp water and grind all the chutney ingredients very well. make a smooth paste.", 
    "if required you can add 1/2 to 1 tbsp more water while grinding.", 
    "pour the chutney in a small bowl.", 
    "heat 1 tbsp oil in a tadka pan or small frying pan. lower the flame.", 
    "first add mustard seeds and allow them to crackle.", 
    "then add cumin seeds. let the cumin seeds also crackle and then add 1 red dry chili and curry leaves.", 
    "fry till the red chilli changes color.", 
    "pour the hot tempering on the chutney.", 
    "mix well and serve coconut tamarind chutney with idli, dosa or vadai."
  ]
}