{
  "Recipe name": "corn patties recipe | corn cutlet recipe", 
  "Cuisine": "Indian", 
  "Image ID": "a918ecdd-e629-4902-bc5d-aeba13b39a1c", 
  "Ingredients": [
    "1 medium corn cob, steamed", 
    "1/2 teaspoon red chili powder or 1 to 2 green chilies, chopped (you can also add both, about 1 green chili and 1/4 teaspoon red chili powder)", 
    "1/2 teaspoon chaat masala", 
    "4 teaspoon coriander leaves (dhania patta), chopped", 
    "1 teaspoon ginger (adrak), finely chopped", 
    "1 teaspoon lime juice", 
    "salt as required", 
    "3 medium potatoes or 2 large potatoes, steamed or boiled", 
    "1 to 1.5 tablespoon rice flour or corn starch or arrow root flour or gram flour or bread pulp", 
    "1/4 teaspoon red chili powder (lal mirch powder)", 
    "1/4 teaspoon cumin powder (jeera powder)", 
    "1/4 teaspoon coriander powder (dhania powder)", 
    "salt as required", 
    "oil for shallow frying or pan frying"
  ], 
  "Notes": "1. if there is any leftover corn stuffing, you can just have it plain.2. if making for kids, then skip the green chilies and red chili powder.", 
  "Summary": "corn Patties or corn cutlet recipe - crisp melt in the mouth corn patties made with mashed potatoes and stuffed with a spicy corn filling.", 
  "Preparation time": {
    "Prep Time": "20 mins", 
    "Cook Time": "30 mins", 
    "Total Time": "50 mins"
  }, 
  "Instructions": [
    "first steam or cook the corn cob till the kernels are tender and cooked well. remove the corn kernels with a knife and keep aside.", 
    "you can steam or pressure cook both the corn cob and potatoes together. the potatoes have to be cooked completely till they fall apart.", 
    "in a bowl or a small pan, take the corn kernels. add chopped ginger, chopped green chilies, coriander leaves, chaat masala, red chili powder, lime juice & salt.", 
    "mix well and check the taste. add more of the spices or salt if required.", 
    "i have not minced the corn. but if you want you can coarsely grind the corn in a mixer-grinder without the spices, coriander leaves etc.", 
    "in another bowl, peel and then grate the boiled potatoes. mash them with your hands or a potato masher.", 
    "add rice flour, cumin powder, coriander powder, red chili powder and salt. i have used rice flour to bind the patties. you can also use corn starch (called corn flour in india) to bind. other options to bind are bread pulp (soaked and squeezed bread slices), arrow root flour and even gram flour (besan). gram flour will give its taste in the patties. you can also add add buckwheat flour (kutttu ka atta), water chestnut flour (singhare ka atta). but remember the taste will change.", 
    "mix and then form equal sized balls from the mixture.", 
    "take each ball and flatten it on your palm. place a few teaspoons of the corn stuffing in the center.", 
    "bring the edges in the center and cover the stuffing. shape with your palms into medium or large patties/tikkis. before stuffing & shaping the patties, apply some oil on your palms. the oil gets rid of the stickiness if any from the potato mixture.", 
    "make all the patties this way.", 
    "heat oil in a tava/griddle or frying pan till medium hot. you can either shallow fry or fry with less oil.", 
    "place the stuffed corn patties in the medium hot oil.", 
    "turn over gently with a spatula and fry the other side.", 
    "flip a couple of times to get an even golden color and crisp texture.", 
    "remove corn patties on a paper kitchen napkin.", 
    "serve corn patties hot with coriander chutney or tomato sauce."
  ]
}