{
  "Recipe name": "creamy mushroom pasta recipe", 
  "Cuisine": "continental, world", 
  "Image ID": "a05044f2-5a04-42e3-9ea6-5c24462f68c7", 
  "Ingredients": [
    "1 cup shell pasta OR macaroni", 
    "200 to 250 grams button mushroom, 1 packet button mushroom", 
    "1 medium to large yellow or red bell pepper (capsicum or shimla mirch) - optional", 
    "1 small onion, finely chopped", 
    "2 garlic cloves, finely chopped (lahsun)", 
    "1 teaspoon chopped parsley or coriander leaves", 
    "1 teaspoon chopped basil", 
    "2 tablespoon all purpose flour (maida)", 
    "1.5 cups milk", 
    "2 tablespoon butter", 
    "2 to 3 tablespoon grated cheddar OR mozzarella cheese", 
    "salt as required", 
    "black pepper as required"
  ], 
  "Summary": "creamy mushroom pasta recipe - one pot recipe to make a delicious creamy mushroom pasta recipe.", 
  "Preparation time": {
    "Prep Time": "15 mins", 
    "Cook Time": "15 mins", 
    "Total Time": "30 mins"
  }, 
  "Instructions": [
    "heat enough water with salt & a few drops of oil till it begins to boil.", 
    "add the pasta and cook the pasta till they are completely cooked.", 
    "once cooked, strain them in a colander or strainer.", 
    "run fresh or cold water on the pasta.", 
    "drain and keep them aside.", 
    "rinse the mushrooms well in water in a strainer or colander. drain them.", 
    "trim the stalks and slice them. keep aside. chop the bell pepper and keep aside.", 
    "peel and finely chop the onions and garlic.", 
    "melt butter in a pan. add the garlic and saute for about 10-12 seconds on a low flame.", 
    "add the chopped onions and saute till the onions become translucent.", 
    "add the sliced mushrooms and saute on a low to medium flame till the mushrooms have shrunk in size.", 
    "there should be no moisture in the pan.", 
    "the mushrooms will release their juices initially and after continuous sauting, the juices will evaporate.", 
    "keep on stirring in breaks while sauting the mushrooms.", 
    "after the liquids have evaporated and the mushrooms have cooked, add the chopped bell pepper and saute for 4-5 mins on a low flame.", 
    "add the 2 tbsp flour.", 
    "stir well and saute for 3-4 mins on a low flame.", 
    "the flour will coat itself to the mushrooms and bell pepper.", 
    "add milk in a gentle stream to the pan and keep on stirring.", 
    "the flour will combine with the milk and you will see the sauce getting thickened slowly.", 
    "cook for about 2 minutes and add the pasta.", 
    "stir well and simmer for 1-2 minutes more.", 
    "then add the chopped parsley and basil and simmer for a minute", 
    "season with salt and pepper.", 
    "if the sauce becomes too thick, add some hot water or milk and thin the sauce.", 
    "you can garnish with grated cheese and serve the creamy mushroom pasta right here or proceed as follows, if you have an oven.", 
    "pour the creamy mushroom pasta in a baking pan or bowl.", 
    "top with grated cheese and bake in a pre heated oven at 180 degrees C till the cheese melt.", 
    "serve this creamy mushroom pasta with a vegetable soup and with some warm toasted brown bread or white bread.", 
    "you can have this creamy mushroom pasta without any accompaniment also."
  ]
}