{
  "Recipe name": "cucumber sandwich recipe", 
  "Cuisine": "world", 
  "Image ID": "750b9faa-858c-4c62-861b-12627b110d5e", 
  "Ingredients": [
    "1 medium sized cucumber", 
    "10 to 12 bread slices", 
    "1/2 teaspoon crushed black pepper or add as per taste", 
    "salted butter as required, can also use unsalted butter", 
    "salt as required, optional"
  ], 
  "Summary": "cucumber sandwich recipe - quick to prepare cucumber sandwiches make for a nice finger food snack for kid parties or tea parties.", 
  "Preparation time": {
    "Prep Time": "10 mins"
  }, 
  "Instructions": [
    "rinse and peel 1 medium cucumber. slice the cucumber thinly and keep aside.", 
    "slice of the edges from the bread. these slice bread edges can be pulsed or ground to bread crumbs. you can skip this step of slicing the edges of the bread also.", 
    "spread salted butter evenly on the sandwiches. spread butter generously, so that the sandwiches do not get soggy.", 
    "place 6 to 8 cucumber slices.", 
    "sprinkle freshly crushed black pepper. also sprinkle a pinch of salt.", 
    "cover with the remaining buttered slices. then slice the sandwich in rectangles or triangles.", 
    "serve cucumber sandwich immediately. if you want you can accompany a mayo dip or a cheesy dip or tomato ketchup with these cucumber sandwiches."
  ]
}