{
  "Recipe name": "dal fry recipe - restaurant style dal fry recipe", 
  "Cuisine": "Indian", 
  "Image ID": "26f4c102-bd32-4c7a-a21d-8cd78f7ce9fc", 
  "Ingredients": [
    "1/2 cup tuvar dal (arhar dal, pigeon pea lentils) or half-half of tuvar dal and masoor dal", 
    "1.5 cups water for pressure cooking the dal", 
    "1 medium sized onion, finely chopped or cup finely chopped onions", 
    "1 medium sized tomato, finely chopped or cup finely chopped tomatoes", 
    "2 green chilies, slit or chopped", 
    "2 to 3 dry red chilies, kept whole or halved and deseeded", 
    "10 to 12 curry leaves (kadi patta)", 
    "1/2 inch ginger (adrak) + 3 to 4 garlic (lahsun) crushed or made into a paste in a mortar & pestle or 1 to 1.5 teaspoons ginger-garlic paste", 
    "1/2 to 3/4 teaspoon black mustard seeds (rai)", 
    "1 teaspoon cumin seeds (jeera)", 
    "1 to 2 pinches asafoetida powder (hing) - if using a strong asafoetida, then just one pinch is enough", 
    "1/2 teaspoon turmeric powder (haldi)", 
    "1/2 teaspoon red chili powder (lal mirch powder)", 
    "1 teaspoon kasuri methi (dry fenugreek leaves)", 
    "1/4 to 1/2 teaspoon garam masala powder", 
    "2 to 3 tablespoons oil or ghee or unsalted butter", 
    "1/2 to 1 teaspoon lemon juice, optional", 
    "1 to 2 tablespoon chopped coriander leaves (dhania patta) for garnish", 
    "1 to 1.5 cups water or add as required", 
    "salt as required"
  ], 
  "Summary": "dal fry recipe - popular indian dal recipe made with pigeon pea lentils. this dal fry recipe gives a delicious restaurant style taste.", 
  "Preparation time": {
    "Prep Time": "15 mins", 
    "Cook Time": "10 mins", 
    "Total Time": "25 mins"
  }, 
  "Instructions": [
    "take 1/2 cup tuvar dal (arhar dal or pigeon pea lentils) OR half-half of tuvar dal and masoor dal (pink or orange lentils).", 
    "rinse the lentils in water for a couple of times.", 
    "then add the lentils in a pressure cooker. also add a pinch of turmeric powder (haldi) and 1.5 cups water.", 
    "pressure cook the lentils for 8-9 whistles on a medium flame till they are cooked completely.", 
    "once the dal is cooked, then mash the dal lightly with a wired whisk or with a spoon and keep aside.", 
    "in another pan heat oil or ghee or unsalted butter. add the mustard and let them splutter.", 
    "when you hear the spluttering sound of the mustard seeds, add the cumin and fry them.", 
    "add the onions and fry till they become transparent or light brown.", 
    "now add the ginger-garlic paste and fry for some seconds till their raw aroma disappears.", 
    "add the green chilies, red chilies, curry leaves and stir.", 
    "add all the spice powders - turmeric powder, red chili powder, asafoetida powder. and fry for some seconds.", 
    "add the tomatoes and cook till they soften and you see oil releasing from the sides.", 
    "now add the mashed dal. stir well. add water + salt.", 
    "stir and simmer the dal for 4-5 minutes more or till you get a smooth and slightly thick consistency.", 
    "dal fry is not thin and is usually has a medium to thick consistency. so you can adjust the amount of water you want.", 
    "keep the dal medium consistency if you prefer. making it thin will spoil the taste.", 
    "lastly crush the kasuri methi on the palms of your hands and add them to the dal. then add garam masala powder. simmer for a minute. switch off the fire and add chopped coriander leaves. add lemon juice if you want, at this stage and stir well.", 
    "now you can garnish the dal fry with some more coriander leaves while serving.", 
    "while serving top the dal fry with some ghee or butter if required.", 
    "serve dal fry hot with steamed basmati rice, biryani rice, jeera rice or saffron pulao. dal fry also goes well with rotis or naan."
  ]
}