{
  "Recipe name": "dal kachori recipe", 
  "Cuisine": "north indian, uttar pradesh", 
  "Image ID": "17609147-9d4a-4900-a95b-370322eb8327", 
  "Ingredients": [
    "2 cups all purpose flour (maida)", 
    "1/2 teaspoon salt", 
    "1/4 cup ghee or oil", 
    "1/2 cup water or add as required", 
    "1/2 cup cup", 
    "1/2 tablespoon ghee", 
    "1/4 teaspoon turmeric powder (haldi)", 
    "1/2 teaspoon red chilli powder (lal mirch powder)", 
    "1/2 teaspoon cumin powder (jeera powder)", 
    "1/2 teaspoon dry ginger powder (saunth powder)", 
    "1 teaspoon coriander powder (dhania powder)", 
    "1 teaspoon crushed fennel seeds", 
    "1 teaspoon dry mango powder (amchur powder)", 
    "salt as required", 
    "oil for deep frying"
  ], 
  "Notes": "few tips for makingdal kachori recipe:", 
  "Summary": "dal kachori recipe with step by step photos - flaky and tasty kachoris made with spiced moong lentils stuffing.", 
  "Preparation time": {
    "Prep Time": "2 hr", 
    "Cook Time": "45 mins", 
    "Total Time": "2 hr 45 mins"
  }, 
  "Instructions": [
    "take 2 cups all purpose flour (maida) and salt in a bowl or pan.mix very well.", 
    "add 1/4 cup ghee.", 
    "with your fingertips mix the ghee with the flour for a few minutes till you get a breadcrumb like texture in the mixture.", 
    "add water in parts and knead the dough till soft.", 
    "cover the dough with a moist muslin or kitchen towel and let it rest for 30 minutes.", 
    "rinse 1/2 cup moong dal in a bowl. soak moong dal with enough water for 2 hours.", 
    "later drain all the water very well and add the soaked moong lentils in a grinder jar.", 
    "grind to a roughly coarse mixture.", 
    "then heat a pan. add 1/2 tablespoon ghee.", 
    "once the ghee melts, keep the flame to the lowest or switch off the flame.", 
    "add all the spice powders one by one.", 
    "keep the flame to its lowest and mix very well.do make sure that the spices do not burn.", 
    "then add the coarsely ground moong dal. also add salt and 1 pinch of asafoetida.", 
    "on a low flame mix very well.", 
    "saute with non-stop stirring for 3 to 4 minutes on a low flame. check the taste and if required you can add more spice powders like red chili powder and mango powder or salt. let the mixture become warm or cool down.", 
    "now make small balls from this moong dal mixture. you can also spread some oil on your palms while making the balls. keep aside.", 
    "after 30 minutes, lightly knead the dough.", 
    "roll the dough into a log. now cut the dough in equal portions. this will depend on the number of moong dal mixture balls that were made.take a portion of the cut dough and flatten it with your fingers. keep the edges thin while flattening. you can also use a rolling pin (belan) to flatten.", 
    "now place the moong dal stuffing ball on the dough. flatten the moong dal stuffing ball.", 
    "bring the edges of the dough together and join them at the center. excess dough can be pinched off and removed.", 
    "flatten the top and then gently roll the kachori with a rolling pin to get a medium thickness kachori. stuff and prepare all kachoris this way. keep them covered under a moist muslin or cotton cloth, so that they do not dry up.", 
    "heat oil for frying and keep the flame to a low. when the oil is just hot enough, you can add the kachoris.", 
    "when the kachoris start puffing up, then gently nudge each kachori with a spoon, so that they puff up well.", 
    "when the base becomes light golden, then gently turn them over. the frying takes about 7 to 9 minutes. so one has to be patient.", 
    "continue to fry on a low to low-medium flame till the dal kachoris become golden. while frying you can turn them often to get an even color. regulate the temperature from low to low-medium as required.", 
    "fry the kachoris till they become golden and nicely crisp from outside.", 
    "place moong dal kachori on kitchen paper towels so that excess oil is absorbed. fry all kachoris this way.", 
    "serve dal kachoris warm accompanied with some fried & salted green chilies, tamarind dates chutney and green chutney. you can also serve with chili garlic chutney or curd."
  ]
}