{
  "Recipe name": "dal makhani recipe dhaba style", 
  "Cuisine": "north indian, Punjabi", 
  "Image ID": "10438ec0-b468-486c-8300-a5dd4cc08b1a", 
  "Ingredients": [
    "3/4 cup sabut urad dal (black gram)", 
    "3 tablespoons rajma (kidney beans) - optional", 
    "1 inch ginger chopped", 
    "3 cups water, for pressure cooking", 
    "2.5 tablespoon oil OR 3 tablespoon butter", 
    "1 cup water, added later", 
    "1/4 cup cream, 25% to 35% fat", 
    "1/2 teaspoon punjabi garam masala powder or garam masala powder", 
    "1 generous pinch nutmeg powder", 
    "1/2 teaspoon crushed kasuri methi leaves (dried fenugreek leaves)", 
    "salt as required", 
    "1 small piece of charcoal", 
    "1/2 to teaspoon oil", 
    "1 outer covering of onion or onion shell", 
    "200 grams tomatoes, chopped OR 2 large tomatoes OR 1 cup roughly chopped tomatoes", 
    "2 to 3 dry kashmiri red chilies", 
    "cup hot water for soaking dry red chilies", 
    "7 to 8 small to medium garlic, chopped OR 1/2 tablespoon roughly chopped garlic", 
    "1 inch ginger, chopped OR 1/2 tablespoon roughly chopped ginger"
  ], 
  "Notes": "1. the consistency of dal makhani can be easily adjusted by adding more or less water. 2. if in the third stage of cooking the consistency becomes thick, add some water. 3. if the consistency is thin, then simmer dal makhani for a longer period of time till you get the desired consistency.", 
  "Summary": "dhaba style dal makhani - a delicious creamy lentil preparation as made in the dhabas.", 
  "Preparation time": {
    "Prep Time": "9 hr", 
    "Cook Time": "50 mins", 
    "Total Time": "9 hr 50 mins"
  }, 
  "Instructions": [
    "rinse and soak the lentils in enough water overnight or for 8 to 9 hours.", 
    "drain and then add them in a pressure cooker.", 
    "add 3 cups water and pressure cook on high or medium flame for 18 to 20 whistles.", 
    "meanwhile, add 2 dry red chilies in hot water. soak the red chilies in cup hot water for 15 minutes.", 
    "add 2 medium sized chopped tomatoes, dry soaked red chilies, chopped garlic and ginger into the grinder jar.", 
    "grind till smooth puree is formed. there is no need to add water while grinding. place this puree aside.", 
    "when the pressure settles down on its own, remove the lid and check if the lentils are cooked.", 
    "add 1 cup fresh water, tomato-chili puree, butter or oil, garlic, cream and salt to the cooked lentils in pressure cooker.", 
    "stir and mix well.", 
    "simmer for 30 to 40 minutes on low flame without any lid. keep stirring at intervals.", 
    "mash some lentils with the back of a spoon to thicken the dal.", 
    "the lentils should become so soft, that they should melt in your mouth.", 
    "check the seasoning and add more salt or red chili powder if required.", 
    "simmer till you get a creamy smooth consistency like the way you see in the dhabas and restaurants.", 
    "then add garam masala powder, nutmeg powder and kasuri methi leaves which have been crushed. mix very well. switch off the flame.", 
    "serve the dal makhani hot plain or topped with some butter or cream along with rotis, naan, paratha or plain or jeera rice."
  ]
}