{
  "Recipe name": "Dal Makhani Recipe - Punjabi Dal Makhani Recipe", 
  "Cuisine": "north indian, Punjabi", 
  "Image ID": "1ffa9105-9e03-4481-99b8-d4f3651748c4", 
  "Ingredients": [
    "1 cup whole black gram (whole urad dal)", 
    "1/2 cup kidney beans (rajma)", 
    "4 cups water", 
    "1 teaspoon cumin or 1/2 teaspoon cumin powder", 
    "1/2 teaspoon red chili powder (lal mirch powder)", 
    "1/2 teaspoon turmeric powder (haldi)", 
    "1 medium sized onion, finely chopped", 
    "2 medium sized tomatoes, finely chopped", 
    "1 inch ginger (adrak), finely chopped", 
    "4 to 5 medium garlic cloves (lahsun), finely chopped", 
    "1 teaspoon punjabi garam masala or garam masala powder", 
    "2 to 3 tablespoons butter or ghee or oil", 
    "2 to 3 tablespoons low fat cream, optional", 
    "salt as required", 
    "few coriander leaves for garnishing, optional"
  ], 
  "Summary": "Dal Makhani Recipe - One of the most popular punjabi lentil recipe.", 
  "Preparation time": {
    "Prep Time": "15 mins", 
    "Cook Time": "45 mins", 
    "Total Time": "1 hrs"
  }, 
  "Instructions": [
    "Soak the both the rajma and urad dal overnight if you are making this in the morning.", 
    "If you are making dal makhani in the evening, then soak the dals in the morning.", 
    "Drain the lentils well and rinse them in fresh water. keep aside.", 
    "In a pressure cooker, add all the ingredients including the dals/lentils and white butter.", 
    "Add water. Pressure cook for some 12-15 whistles.", 
    "Open and check if the lentils are cooked.", 
    "You should be able to mash the both the urad dal and rajma with spoon if they are cooked completely.", 
    "If they are not cooked thoroughly, then pressure cook for 2-3 whistles more.", 
    "Add water if required.", 
    "Now again open the cooker and let the dal makhani simmer in the cooker itself without the lid for 10-15 minutes or more till you get a smooth and creamy consistency and texture.", 
    "If you wish to add cream, you can add cream now and let the dal makhani simmer for 1 to 2 minutes more.", 
    "If you like then you can Garnish Dal Makhani with coriander-cilantro leaves (optional).", 
    "Serve dal makhani hot with hot rotis, naan, or jeera rice."
  ]
}