{
  "Recipe name": "dry kala chana recipe", 
  "Cuisine": "Indian", 
  "Image ID": "1a7b1ff7-f294-4132-8c6d-a34b369abc33", 
  "Ingredients": [
    "2 cups black chickpeas (kala chana)", 
    "1 inch ginger julienned (adrak)", 
    "1 teaspoon cumin seeds (jeera)", 
    "1 green chili (hari mirch), chopped or slit", 
    "1/4 teaspoon red chili powder (lal mirch powder)", 
    "1/4 teaspoon black pepper powder", 
    "1/4 teaspoon garam masala powder", 
    "1/2 teaspoon turmeric powder (haldi)", 
    "2 teaspoon coriander powder (dhania powder)", 
    "2 teaspoon cumin seeds powder jeera powder", 
    "1 teaspoon chaat masala", 
    "1 teaspoon dry mango powder (amchur powder) or powdered pomegranate seeds", 
    "1/2 cup coriander leaves (dhania patta), chopped", 
    "1 lemon sliced", 
    "6 cups water", 
    "1 teaspoon salt", 
    "3 tablespoon oil", 
    "rock salt or black salt as required"
  ], 
  "Notes": "few points for kala chana recipe1. when making kala chana for navratri festival, use rock salt. 2. you could alter the spice powders as per your taste.3. to make kala chana more hot and spicy add more of green chillies and red chili powder.4. to increase the sourness increase the amount of dry mango powder and chaat masala.5. make sure you have the kala chana with lemon. we did not have any lemons in the house and had to do without these 6. you may use white chickpeas or even black eyed beans to make this recipe.", 
  "Summary": "", 
  "Preparation time": {
    "Prep Time": "5 mins", 
    "Cook Time": "45 mins", 
    "Total Time": "50 mins"
  }, 
  "Instructions": [
    "pick the kala chana to remove any stones. wash them in running water for 3-4 times and then soak the kala chana overnight. they become plump and all the wrinkles on them disappear after they are completely soaked.", 
    "the next day add water to the chana.", 
    "and boil the chana in a pressure cooker with 1 tsp salt for 20-25 minutes till the chana is cooked completely. strain the chana.", 
    "in a pan heat 3 tbsp oil. splutter the cumin seeds.", 
    "now add chana and mix well.", 
    "add the ginger julienne and chopped green chili. i added some 1/2 cup of the chana stock to the chanas so that they do not stick to the pan. you may or may reserve some stock if you want. in case you dont add any water, then saute the chana on a low flame so as to avoid burning.", 
    "add all the dry masalas and black salt to the chana.", 
    "mix it well and let the kala chana cook in the masala for a couple of minutes. remember to keep on stirring so that the dry chana masala do not stick to the bottom of the pan. garnish kala chana with chopped coriander leaves.", 
    "and serve kala chana hot with wedges of lemon."
  ]
}