{
  "Recipe name": "eggless cheese biscuits recipe", 
  "Cuisine": "world", 
  "Image ID": "bfb0604b-b7d6-41b4-af3d-916bf8e7c6e5", 
  "Ingredients": [
    "1 cup whole wheat flour (atta) or 120 grams atta", 
    "1/2 cup all purpose flour (maida) or about 60 grams maida", 
    "40 grams chilled butter - about 3 tablespoon chopped chilled butter, salted or unsalted", 
    "80 grams plain regular cheese or cheddar cheese - about 1/2 cup tightly packed grated cheese", 
    "8 tablespoon milk", 
    "1/2 teaspoon salt or add as required (if using salted butter, then do keep a check on the salt)", 
    "1/2 teaspoon black pepper or add as required", 
    "1/4 teaspoon baking soda", 
    "1/2 teaspoon baking powder", 
    "1 teaspoon corn starch optional", 
    "2 to 3 tablespoon olive oil", 
    "some whole wheat flour for dusting"
  ], 
  "Summary": "eggless cheese biscuits recipe - soft bread like cheese biscuits made stove top, on a tawa or skillet.", 
  "Preparation time": {
    "Prep Time": "40 mins", 
    "Cook Time": "15 mins", 
    "Total Time": "55 mins"
  }, 
  "Instructions": [
    "take 1 cup whole wheat flour (120 grams), 1/2 cup all purpose flour/maida (60 grams), 1/2 tsp salt, 1/2 tsp black pepper powder, 1/4 tsp baking soda and 1/2 tsp baking powder in a mixing bowl.", 
    "with a spoon or spatula mix everything very well. you can also seive the above ingredients together.", 
    "add 40 grams chilled butter. better to chop the chilled butter in cubes or sticks. you can add either salted butter or unsalted butter.", 
    "mix the butter with the flour. you can cut the butter with two knives and mix in the flour or do with both your hands. meaning just break the butter with your fingers in the flour and mix. this can also be achieved with a food processor or a stand mixer. if the butter melts while mixing with your hands, keep the mixture in the fridge for some minutes and then start again.", 
    "the mixture should get a bread crumb like texture.", 
    "add grated cheese. lightly mix everything.", 
    "add a few tbsp of milk in parts and start bringing the whole mixture together.", 
    "add the remaining milk and continue to bring the mixture together. don't knead. overall 7 to 8 tbsp of milk is added.", 
    "mix and gather and bring the whole mixture together in a dough. but don't knead like we do for chapati dough. cover and keep this cheese biscuit dough in the fridge for 30 minutes.", 
    "next sprinkle some flour on the work surface and roll the dough to get about 0.50 cm to 0.75 cm thickness.", 
    "with a biscuit cutter or a small bowl, cut the rolled dough. gather the remaining dough and again roll and get the biscuits with a biscuit cutter.", 
    "heat 1 tbsp olive oil in a tava or griddle. you can also heat butter. keep on a low flame.", 
    "place the cheese biscuits. keep the flame to the lowest, so that the biscuits don't burn.", 
    "within a minute, flip the biscuits. you will see the bases have got browned.", 
    "flip again and a couple of times more till they are evenly golden and crisp. these biscuits cook quickly. takes about 3 to 5 minutes on a low flame.", 
    "once done keep them on a wired rack and let them cool. make all cheese biscuits this way. add about 1/2 to 1 tbsp olive oil while frying the biscuits in batches.", 
    "you can serve cheese biscuits hot or warm or at room temperature. they taste good as they are. but you can serve a cheesy dip along side."
  ]
}