{
  "Recipe name": "eggless chocolate brownie recipe", 
  "Cuisine": "world", 
  "Image ID": "eeda7984-c9c3-4f9c-8e13-016d507ffb65", 
  "Ingredients": [
    "1/2 cup levelled whole wheat flour (atta) or 60 grams whole wheat flour", 
    "1/2 teaspoon baking powder", 
    "1 pinch salt", 
    "1 cup water or 250 ml water", 
    "cup organic unrefined cane sugar or regular sugar or 70 grams", 
    "cup levelled cocoa powder or 30 grams", 
    "4 tablespoons oil (can use sunflower oil, olive oil or any neutral flavored oil)", 
    "1/2 teaspoon vanilla extract (optional)"
  ], 
  "Summary": "eggless brownie recipe - an easy recipe of chocolate brownie made with whole wheat flour (atta used for making chapatis), sugar, cocoa powder, baking powder and oil.", 
  "Preparation time": {
    "Prep Time": "10 mins", 
    "Cook Time": "30 mins", 
    "Total Time": "40 mins"
  }, 
  "Instructions": [
    "grease a 7 x 2 inches square baking pan with some oil.", 
    "first measure all the ingredients and keep them ready.", 
    "in a mixing bowl or pan, take 1/2 cup whole wheat flour (atta), 1/2 teaspoon baking powder and a pinch of salt.", 
    "with a whisk, mix everything very well. you can even sift this flour mixture if you want. keep aside. preheat the oven at 200 degrees celsius/392 degrees fahrenheit for 15 minutes.", 
    "now take 1 cup water in a pan and heat it on a low to medium flame.", 
    "when the water become hot, lower the flame and then add 1/3 cup sugar, 1/3 cup cocoa powder and then add 4 tablespoons oil.", 
    "with a spatula begin to mix everything very well. the sugar should dissolve and the cocoa powder should mix evenly with water. with the spatula or whisk, break the lumps of cocoa powder if any.", 
    "let this mixture come to a boil.", 
    "switch off the flame and add the bubbling hot cocoa mixture to the dry flour mixture.", 
    "also add vanilla extract.", 
    "with a spatula or wired whisk, begin to mix both the wet and dry ingredients lightly.", 
    "the mixture will be hot, so be careful while mixing and also mix lightly. do not over do. a few tiny flour specks in the batter are fine.", 
    "the brownie batter has a thick consistency and does not flow freely but loose (much like a halwa consistency).", 
    "if the batter looks too much thick, then the one showed in pic 15 below, then please add a few tablespoons of hot water and then mix again.", 
    "the water required depends on the quality of whole wheat flour. so please keep some hot water handy, if you need to add it.", 
    "now place the brownie batter with the spatula in the baking pan.", 
    "shake the pan, so that the batter spreads and evens out. also using a spatula spread and make the batter even.", 
    "bake brownie in the pre heated oven at 200 degrees celsius/392 degrees fahrenheit for 30 to 40 minutes. do not open the oven door till 3/4th of the brownie is done. since oven temperatures vary, do keep a check. in a convection oven, preheat as well as bake at 180 degrees celsius.", 
    "check with a tooth pick and if the tooth pick comes out clean, remove the pan from the oven.", 
    "do not over bake as the the top will get dried out and become crusty.", 
    "once the brownie become warm or cools down, you can remove it from the tray or you can slice in the baking pan itself.", 
    "slice and serve chocolate brownies. if not serving immediately, then store in an air tight container in the fridge. in a cool and cold climate, you can keep these brownies outside at room temperature for 1 to 2 days.", 
    "while serving brownies", 
    ", you can sprinkle some powdered sugar on top.", 
    "you can even serve the brownies with some chocolate or caramel syrup on top. or make a dessert of vanilla ice cream served with the brownies."
  ]
}