{
  "Recipe name": "eggless christmas fruit cake recipe", 
  "Cuisine": "world", 
  "Image ID": "052cf226-76d0-4381-bbad-178487862899", 
  "Ingredients": [
    "1/2 cup raisins", 
    "1/2 cup chopped cashews", 
    "1/4 cup chopped citrus peels", 
    "8 dry apricots", 
    "1/2 cup chopped dates", 
    "1/4 cup tutti frutti", 
    "10 glazed cherries sliced", 
    "1 cup rum or 1 cup fresh orange juice or apple juice", 
    "1.5 cups all purpose flour (maida) or 187 grams", 
    "3/4 cup whole wheat flour (atta), 90 grams", 
    "1.5 cups demerara sugar or brown sugar or powdered sugar or 300 gms demerara or brown sugar or 335 grams powdered sugar", 
    "1 cup oil or melted butter or 250 ml", 
    "1 cup soy milk or any nut milk or dairy milk or 250 ml", 
    "2 tablespoons apple cider or regular vinegar", 
    "1 teaspoon baking soda", 
    "1/2 teaspoon baking powder", 
    "1 teaspoon vanilla extract", 
    "1.5 inches cinnamon", 
    "2 green cardamoms", 
    "2 all spice", 
    "teaspoon grated nutmeg or nutmeg powder, about 2 to 3 pinches of nutmeg powder"
  ], 
  "Notes": "few tips for christmas fruit cake recipe:1. if the top of the cake browns quickly, then cover the top with butter paper or aluminium foil.2. instead of soy milk you can use dairy milk or nut milk.3. instead of oil you can use butter.4. do add the candied peels as they really add some bitter notes to the cake which is otherwise sweet and this is what makes the christmas fruit cake different from a regular fruit cake.5. the dry fruits mixture can be soaked in orange juice instead of rum. you can also use a half half mixture of rum and wine if you want.6. if using orange juice than just soak for 1 day only and keep the the bowl in the fridge. if kept outside even for 1 day in a warm climate like that of india, the orange juice will get spoilt.7. the fruit cake can also be completely made with whole wheat flour or all purpose flour.", 
  "Summary": "light, moist, crumbly christmas fruit cake. eggless and vegan recipe of christmas fruit cake", 
  "Preparation time": {
    "Prep Time": "1 d", 
    "Cook Time": "1 hrs 45 mins", 
    "Total Time": "1 d 1 hrs 45 mins"
  }, 
  "Instructions": [
    "firstly chop all the dry fruits and take them in a bowl or a jar. pour rum in the bowl or jar.", 
    "cover and let the dry fruits soak for 12 or 24 hours.", 
    "in between stir or shake so that all the dry fruits get soaked properly.", 
    "in a dry grinder, grind the whole spices. keep aside.", 
    "prepare a loaf pan or a round cake pan. i used a 6.5 inches round pan.", 
    "grease the cake pan lightly with oil. you can also line the pan with butter paper.", 
    "preheat the oven to 180 degrees celsius.", 
    "sieve the flours, baking powder and the powdered spice mix.", 
    "add oil and demerara sugar and mix well.", 
    "keep some sliced cherries for adding on top of the cake.", 
    "mix some flour with the cherries and keep aside.", 
    "add the soaked dry fruits and rum. stir and mix uniformly.", 
    "in a bowl or mug add soy milk. now add apple cider and stir gently.", 
    "add baking soda and stir. add this frothing mixture to the cake batter.", 
    "add vanilla extract. stir and mix quickly but uniformly. pour in the cake pan.", 
    "shake the pan lightly so that the cake is spread evenly throughout the whole pan.", 
    "place the sliced cherries on the top.", 
    "bake in the preheated oven for 180 degrees celsius for 1:45 minutes or more or less depending on your oven.", 
    "either wrap the christmas fruit cake in a cling film or store in a container."
  ]
}