{
  "Recipe name": "eggless banana pancake recipe", 
  "Cuisine": "world", 
  "Image ID": "86f07dac-b934-4ecb-80ff-89219650ac93", 
  "Ingredients": [
    "3 medium over ripe or ripe bananas or 285 grams ripe bananas", 
    "1 cup whole wheat flour (atta) or 120 grams whole wheat flour", 
    "1/2 teaspoon crushed fennel or whole fennel seeds (saunf)", 
    "3 tablespoons jaggery powder or add as required", 
    "3/4 cup water or add as required", 
    "oil as required"
  ], 
  "Notes": "tips for makingeggless banana pancake recipe:", 
  "Summary": "eggless banana pancake recipe - quick and tasty pancakes made with bananas, whole wheat flour (atta) and jaggery.", 
  "Preparation time": {
    "Prep Time": "5 mins", 
    "Cook Time": "20 mins", 
    "Total Time": "25 mins"
  }, 
  "Instructions": [
    "peel 3 medium to large bananas (285 grams) and place them in a mixing bowl or pan.", 
    "slice them first and then mash with a masher. for over ripe bananas, you can directly mash with a veggie masher.", 
    "now add 3 tablespoons jaggery powder. you can add the amount of jaggery as per the sweetness of the bananas.", 
    "add more or less as required. you can also add sugar instead of jaggery. mix very well.", 
    "then add 1 cup whole wheat flour (atta) and 1/2 teaspoon lightly crushed fennel seeds. you can also add whole fennel seeds.", 
    "add water in parts.", 
    "then begin to mix it with the flour. overall i added 3/4 cup of water. depending on the quality of whole wheat flour you can add more or less water.", 
    "mix very well and make a smooth batter without lumps. the batter has to be like a dosa batter and have a medium consistency.", 
    "now heat a pan. spread a bit of oil on the pan. you can use non stick or a cast iron pan.", 
    "i use non stick pans for these pancakes as they are easier to handle on a non stick pan. instead of oil you can also use ghee or butter.", 
    "keep the flame to a low. pour a spoonful of the batter on the pan and then gently spread it. do not spread too much. just make small pancakes.", 
    "cook the pancake on a low flame.", 
    "drizzle some oil on the sides and top.", 
    "when the base gets golden and slightly crisp, turn over the banana pancake.", 
    "cook this second side till it gets golden. if you want you can flip and cook once or twice.", 
    "remove the banana pancake and stack them up in a warm casserole.", 
    "drizzle with maple syrup and serve eggless banana pancakes hot or warm.", 
    "if using honey, then drizzle it on pancakes, when they have become lukewarm or cooled down."
  ]
}