{
  "Recipe name": "eggless tutti frutti cake recipe", 
  "Cuisine": "world", 
  "Image ID": "4c462c4f-f718-4276-b6b2-4c1d8ff4ec1b", 
  "Ingredients": [
    "1.5 cups all purpose flour (maida)", 
    "5 to 6 tablespoon tutti frutti - approx 100 grams of tutti frutti", 
    "1/4 teaspoon cinnamon powder (dalchini powder)", 
    "1 teaspoon baking powder", 
    "a pinch of salt", 
    "1/2 cup water", 
    "1/2 cup oil", 
    "3/4 cup organic unrefined cane sugar Or regular sugar add as required. * check notes", 
    "3 tablespoon yogurt (curd or dahi) + 1 tablespoon water (dairy or vegan)", 
    "1 tablespoon apple cider vinegar or white vinegar", 
    "1/2 teaspoon baking soda", 
    "1 teaspoon vanilla extract or vanilla powder or half of a vanilla bean, scraped"
  ], 
  "Notes": "* to make the tutti frutti cake less sweet, you can add 1/2 or 2/3 cup of sugar if you prefer.", 
  "Summary": "eggless tutti frutti cake - easy recipe to make a soft, moist eggless tutti frutti cake.", 
  "Preparation time": {
    "Prep Time": "15 mins", 
    "Cook Time": "35 mins", 
    "Total Time": "50 mins"
  }, 
  "Instructions": [
    "first sift the all purposed flour (maida) with the baking powder, cinnamon powder and a pinch of salt in a mixing bowl or pan. then addtutti frutti.", 
    "just keep everything ready as you have to be quick enough to mix the batter.", 
    "preheat the oven to 180 degrees C. grease a 6 or 7 inches pan with butter or oil.", 
    "you can also line the pan with butter paper and then grease the butter paper with oil or butter.", 
    "then mix sugar with oil in a measuring cup or bowl and keep aside.", 
    "now in a measuring cup or in a small bowl, whisk the 3 tbsp yogurt + 1 tbsp water till smooth.", 
    "add 1 tbsp vinegar. then add the baking soda and stir.", 
    "pour the oil+sugar mixture, the frothing yogurt+vinegar+baking soda and 1/2 cup water into the sieved flour.", 
    "add vanilla extract. be quick enough to fold and make a lump free and smooth batter.", 
    "dont over do the folding. pour the batter in the greased baking pan.", 
    "shake and tap the sides of the pan so that air bubbles are released.", 
    "place the pan in the preheated oven in the center rack.", 
    "keep the heating in both the bottom and top elements of the oven on.", 
    "bake at 180 degrees C for 40-45 minutes or more or less till a tooth pick inserted in the cake comes out clean.", 
    "if the tutti frutti cake browns too quickly on the top, then cover the top with an aluminium foil or butter paper.", 
    "once done let the eggless tutti frutti stand at room temperature for 7-8 minutes.", 
    "then with the help of oven mitts, gently remove the cake on a wired tray or rack.", 
    "once the cake cools, slice and serve the tutti frutti cake slices with tea or coffee."
  ]
}