{
  "Recipe name": "fruit salad recipe", 
  "Cuisine": "world", 
  "Image ID": "f8e2ab1a-6763-4df2-8462-13278d41e3bc", 
  "Ingredients": [
    "2 large mangoes", 
    "2 medium sized bananas", 
    "2 to 3 small to medium sized chickoos (sapota)", 
    "1 small papaya or 1/2 of one large papaya", 
    "dry fruits like cashew almonds, walnut or of your choice (optional)", 
    "few mint leaves for garnishing"
  ], 
  "Summary": "fruit salad recipe - a tropical fruit salad with sweet fruits.", 
  "Preparation time": {
    "Prep Time": "15 mins", 
    "Total Time": "15 mins"
  }, 
  "Instructions": [
    "peel and chop mangoes, banana, papaya and chickoo into bite sized pieces.", 
    "add everything in a salad bowl or any large bowl.", 
    "mix the fruits well.", 
    "dry roast the dry fruits in a oven or in pan to make them crisp.", 
    "add dry fruits on top of the fruits.", 
    "add few mint leaves for garnishing.", 
    "serve the fruit salad immediately."
  ]
}