{
  "Recipe name": "fruit lassi recipe", 
  "Cuisine": "north indian", 
  "Image ID": "571ad865-3a96-44a0-85ca-8d17c71fa337", 
  "Ingredients": [
    "1 large mango or 1 cup chopped mango", 
    "2 medium bananas or 3 small or 1 large banana - chopped", 
    "3/4 to 1 cup milk", 
    "2 cups fresh curd (dahi or yogurt)", 
    "1 tablespoon rose water (optional)", 
    "4 to 5 green cardamoms (choti eliachi) - seeds kept and husks removed (optional)", 
    "4 to 5 tablespoon sugar or honey - add as required", 
    "7 to 8 ice cubes (optional)"
  ], 
  "Summary": "fruit lassi recipe - 15 minute lassi made with mix fruits.", 
  "Preparation time": {
    "Prep Time": "15 mins", 
    "Total Time": "15 mins"
  }, 
  "Instructions": [
    "take the chopped mangoes and bananas in a blender. also add seeds of 4 to 5 cardamoms and 1 tbsp rose water. i added about 1 cup chopped mango and 2/3 cup chopped banana. add 1/2 cup milk and blend till smooth.", 
    "then add 4 to 5 tbsp sugar/honey (add sugar or honey as required), 1/2 cup milk and 2 cups yogurt. you can also add ice cubes at this step.", 
    "blend again till smooth.", 
    "pour the lassi in tall glasses.", 
    "serve mix fruit lassi immediatedly."
  ]
}