{
  "Recipe name": "ganga jamuna juice recipe", 
  "Cuisine": "Indian", 
  "Image ID": "84534d79-ef6a-4429-ac88-4e43eec87179", 
  "Ingredients": [
    "600 grams oranges or 3 large oranges", 
    "600 grams sweet lime or 3 large sweet lime, (mosambi)", 
    "2 to 3 tablespoon sugar or add as required", 
    "teaspoon black salt or add as required", 
    "ice cubes or water to thin down the juice if required - optional"
  ], 
  "Summary": "ganga jamuna juice recipe - mix of sweet lime and orange juice. a mumbai street food.", 
  "Preparation time": {
    "Prep Time": "15 mins", 
    "Total Time": "15 mins"
  }, 
  "Instructions": [
    "peel and remove the segments from the 3 large oranges and 3 large sweet limes.", 
    "add them to the feeder tube of the juicer. you can also halve the fruits and manually extract the juice.", 
    "extract the juice and pour it in a bowl or pan.", 
    "add sugar as required.", 
    "then add about 1/8 tsp of black salt. stir and pour the juice in glasses.", 
    "serve ganga jamuna juice immediately as the juice turn bitter if kept even for some minutes. add some ice cubes if you prefer while serving."
  ]
}