{
  "Recipe name": "garlic chives chutney recipe | hara lahsun chutney recipe", 
  "Cuisine": "Indian", 
  "Image ID": "8dc66c66-7003-404b-867c-82cc17b7c641", 
  "Ingredients": [
    "1 cup chopped chives with the garlic buds (hara lahsun)", 
    "1/2 cup chopped coriander leaves (cilantro leaves or dhania patta)", 
    "1 or 2 green chilies, chopped (hari mirch)", 
    "1 teaspoon lemon juice", 
    "1 teaspoon chaat masala powder", 
    "1/2 teaspoon roasted cumin powder (bhuna jeera powder)", 
    "black salt or pink salt as required"
  ], 
  "Notes": "if chives are not available, then add some 6-7 garlic cloves and increase the quantity of coriander leaves to 3/4 cup or 1 cup.", 
  "Summary": "easy and garlicky chutney made from chives and fresh coriander/cilantro.", 
  "Preparation time": {
    "Prep Time": "15 mins", 
    "Total Time": "15 mins"
  }, 
  "Instructions": [
    "blend all the above ingredients till smooth in a blender or chutney grinder.", 
    "add very little water while blending.", 
    "serve the garlic chives chutney with any grilled or tandoori snack or fried snacks.", 
    "the garlic chives chutney stays best for 4-5 days in the refrigerator."
  ]
}