{
  "Recipe name": "ginger tea recipe - indian style", 
  "Cuisine": "Indian", 
  "Image ID": "43d9a73d-89f1-4194-8870-833bb33e4860", 
  "Ingredients": [
    "4 cups water", 
    "3 to 4 teaspoon black tea leaves", 
    "2 inch ginger for a strong taste or 1 inch ginger (adrak) for a milder taste, peeled and either crushed or grated.", 
    "3-4 cardamom crushed or powdered in a mortar-pestle (optional)", 
    "1/2 to 3/4 cup regular milk or cashew milk or soy milk - add more if you want a milky tea", 
    "8 teaspoon unrefined organic cane sugar or add more for more sweetness"
  ], 
  "Summary": "ginger tea recipe - warm, spiced tea made with ginger and cardamom.", 
  "Preparation time": {
    "Prep Time": "1 min", 
    "Cook Time": "15 mins", 
    "Total Time": "16 mins"
  }, 
  "Instructions": [
    "keep all the ingredients ready for the ginger tea.", 
    "crush or powder 3-4 cardamoms in a mortar-pestle.", 
    "in a saucepan or kettle, add 4 cups of water, 2 inch ginger grated and the crushed cardamom with the peel.", 
    "boil this water-ginger-cardamom mixture for a good 6-7 minutes, till the color of the water changes to a mild yellowish hue. the ginger releases its juices & flavors in the water and thus the color of the water changes.", 
    "add 8 teaspoon sugar and simmer for a more of 1-2 minutes.", 
    "now add 3-4 teaspoon of tea leaves and simmer for about 1 to 2 minutes till the water gets a deep hue of red.", 
    "simmering makes the tea strong. if you prefer a light version, then just add the tea leaves to the water. cover and allow the tea leaves to steep in the hot spiced water for 3 to 4 minutes.", 
    "add 1/4-1/2 cup of hot milk.", 
    "if adding cold milk, then simmer for a minute or two. if using cashew milk or almond milk, then just stir the cashew milk with tea and remove from pan as otherwise heating further would cause the cashew or almond milk to become slimy and separate.", 
    "strain the tea through a strainer right into the cups.", 
    "serve the hot ginger tea or chai or adrak chai with indian snacks like pakoras or samosas. you could also serve the ginger tea with biscuits or cookies."
  ]
}