{
  "Recipe name": "goan vegetable curry recipe", 
  "Cuisine": "goan", 
  "Image ID": "9c01c708-71eb-45aa-8210-3c29cc3a496c", 
  "Ingredients": [
    "1 cup grated fresh coconut", 
    "3 to 4 garlic cloves, roughly chopped (lahsun)", 
    "5 to 6 kashmiri red chilies or byadagi or bedgi red chilies", 
    "2 teaspoon coriander seeds (sabut dhania)", 
    "1 teaspoon cumin seeds (jeera)", 
    "8 to 10 whole black pepper (sabut kali mirch) - optional", 
    "1 teaspoon seedless tamarind (imli)", 
    "1/4 cup chopped onion", 
    "1/2 teaspoon turmeric powder (haldi)", 
    "3/4 cup water or as required for grinding", 
    "2.5 to 3 cups chopped mix vegetables (9 to 10 baby corn, 1 medium carrot, 9 to 10 button mushrooms, 9 to 10 french beans, 1 medium potato OR you can add your choice of veggies)", 
    "1/4 cup finely chopped onion", 
    "1 to 2 green chilies, slit (hari mirch)", 
    "2.5 to 3 cups water or as required", 
    "2 tablespoon coconut oil or vegetable oil", 
    "salt as required"
  ], 
  "Summary": "goan vegetable curry recipe - lightly spiced vegetable curry with flavors of coconut and spices, from the land of goa.", 
  "Preparation time": {
    "Prep Time": "20 mins", 
    "Cook Time": "35 mins", 
    "Total Time": "55 mins"
  }, 
  "Instructions": [
    "grind all the ingredients mentioned under the list 'for masala paste' in a wet grinder to a smooth paste. there should be no small chunks or pieces of coconut in the paste. keep the paste aside.", 
    "rinse and chop the veggies into cubes or small bite sized pieces.", 
    "don't chop into bigger pieces as they will take a lot of time to cook.", 
    "heat oil. add onions and saute till they become translucent.", 
    "add the chopped veggies and and saute them for 6 to 7 minutes on a low flame, stirring often.", 
    "add the coconut masala paste to the sauteed veggies and stir.", 
    "then add water, salt and slit green chilies. stir again.", 
    "cover and simmer the curry, till the veggies are cooked tender. stir the curry at intervals. can take about 20 to 30 minutes for all the veggies to cook on a low to medium flame. if you want, you can steam or cook the veggies before hand and then add them to the curry. if the water becomes less while cooking, then add some more water. the consistency of this curry is neither thick nor thin.", 
    "garnish with coriander leaves and serve goan vegetable curry with steamed rice."
  ]
}