{
  "Recipe name": "gobi ke danthal ki sabzi recipe", 
  "Cuisine": "north indian, Punjabi", 
  "Image ID": "361f803a-1800-4c13-a617-3715bb3615d6", 
  "Ingredients": [
    "stalks and leaves from 1 large cauliflower (phool gobi)", 
    "1 medium onion finely chopped - about 1.25 heaped cup of chopped onions", 
    "3/4 inch ginger (adrak) - finely chopped", 
    "2 to 3 garlic cloves (lahsun) - crushed", 
    "1 green chili chopped Or 1/2 teaspoon kashmiri red chili powder or deghi mirch", 
    "1/4 teaspoon turmeric powder (haldi)", 
    "1 pinch asafoetida (hing)", 
    "1/4 teaspoon garam masala", 
    "1/2 to 1 teaspoon dry mango powder (amchur powder) or add as per your taste", 
    "2 to 3 tablespoon water", 
    "2 tablespoon mustard oil (sarson ka tel)", 
    "salt as required"
  ], 
  "Notes": "if making this dish in a pan, then you will have to add some more water than what is mentioned in the recipe. cover the pan tightly and allow the cauliflower stalks to cook till tender. in case the water dries up, then add some more, if the stalks have not cooked through.", 
  "Summary": "punjabi gobi ke danthal ki sabzi recipe - a dry spiced curry made from cauliflower stalks and leaves.", 
  "Preparation time": {
    "Prep Time": "15 mins", 
    "Cook Time": "15 mins", 
    "Total Time": "30 mins"
  }, 
  "Instructions": [
    "remove the leaves from the cauliflower stalks. rinse the stalks thoroughly to remove the mud particles. keep them soaked in hot water for about 5 mins.", 
    "peel of the hard or tough outer layer from the stalks then slice them to one inch pieces. you can also chop them in cubes.", 
    "rinse the leaves well and chop them finely.", 
    "heat oil in a small pressure cooker or a pressure pan.", 
    "add garlic and ginger. stir and saute till their raw aroma goes away.", 
    "then add the onions and saute till translucent.", 
    "now add the turmeric powder, green chilies, asafoetida/hing.", 
    "stir and add the chopped stalks and leaves.", 
    "add salt and saute for 2 to 3 minutes. lastly add 2 to 3 tbsp water.", 
    "cover and pressure cook for 2 to 3 whistles. *check notes if not using a pressure cooker", 
    "the stalks should become tender after cooking", 
    ". if not, then pressure cook for more 1 or 2 whistle.", 
    "once the pressure settles down on its own remove the lid of the cooker.", 
    "if there is moisture or any water in the cooker, then simmer till all the water evaporates.", 
    "add garam masala and 1/2 tsp dry mango powder/amchur. stir well.", 
    "check the taste and add 1/4 to 1/2 tsp more of dry mango powder as per your taste.", 
    "serve gobi danthal sabzi with rotis or phulkas."
  ]
}