{
  "Recipe name": "green chutney recipe", 
  "Cuisine": "Indian", 
  "Image ID": "8dc3224c-b1fb-404b-bd95-c018f3c4e9eb", 
  "Ingredients": [
    "3/4 cup coriander leaves (dhania patta)", 
    "1/4 cup mint leaves (pudina patta)", 
    "1 green chili (hari mirch)", 
    "2-3 garlic (lahsun)", 
    "1/2 tablespoon lemon juice", 
    "1 teaspoon organic unrefined cane sugar or normal sugar as required", 
    "black salt as required"
  ], 
  "Summary": "green chutney recipe - mildly sweet and lightly tangy green chutney made from coriander and mint.", 
  "Preparation time": {
    "Prep Time": "10 mins", 
    "Total Time": "10 mins"
  }, 
  "Instructions": [
    "rinse the coriander leaves and the mint leaves well in water.", 
    "chop the green chilli and the garlic roughly.", 
    "add all the ingredients in a blender or a chutney grinder with some water.", 
    "the quantity of water can be adjusted as per your liking. but don't make the chutney very thin.", 
    "blend everything well till smooth.", 
    "serve the green chutney with indian snacks like samosa, pakora,", 
    "tikki", 
    "or", 
    "dabeli", 
    "you can also apply this green chutney on", 
    "sandwiches", 
    "and burgers.", 
    "it stays well in the fridge for 4-5 days."
  ]
}