{
  "Recipe name": "gutti vankaya kura recipe", 
  "Cuisine": "andhra", 
  "Image ID": "9f5101e2-89bd-46c4-b207-fadcb725395e", 
  "Ingredients": [
    "250 grams small purple or green brinjals (baingan) or 12 to 14 brinjals", 
    "1/2 teaspoon salt added to water for soaking brinjals", 
    "enough water for soaking brinjals", 
    "1 large onion or 1/2 cup finely chopped onion", 
    "1/2 tablespoon ginger-garlic paste or 1 inch ginger + 6 to 7 medium garlic - crushed to a paste", 
    "1 teaspoon mustard seeds (rai)", 
    "1/2 teaspoon urad dal", 
    "1/2 teaspoon cumin seeds (jeera)", 
    "1 sprig curry leaves (kadi patta)", 
    "2 tablespoon oil", 
    "cup water", 
    "salt as required", 
    "2 to 3 tablespoon chopped coriander leaves (dhania patta)", 
    "1/2 tablespoon tamarind (imli)", 
    "1/4 cup warm or hot water", 
    "1/4 cup peanuts (moongphali)", 
    "2 tablespoon desiccated coconut", 
    "1 tablespoon coriander seeds (sabut dhania)", 
    "1/2 teaspoon cumin seeds (jeera)", 
    "1/4 teaspoon methi seeds (fenugreek seeds)", 
    "3 to 4 dry red chilies (sookhi lal mirch)", 
    "1/2 teaspoon turmeric powder (haldi)"
  ], 
  "Notes": "to balance the sourness of the tamarind, you can add 1/2 to 1 tsp of jaggery powder to the gravy.", 
  "Summary": "gutti vankaya kura recipe - stuffed brinjal curry from the andhra cuisine.", 
  "Preparation time": {
    "Prep Time": "20 mins", 
    "Cook Time": "20 mins", 
    "Total Time": "40 mins"
  }, 
  "Instructions": [
    "first soak 1/2 tbsp tamarind in 1/4 cup warm or hot water for 15 to 20 minutes.", 
    "then squeeze and extract the soaked tamarind into the water. keep the tamarind pulp aside.", 
    "heat a small frying pan. add 1/4 cup peanuts and roast them on a low to medium flame, with frequent stirrings.", 
    "the peanuts have to be roasted well and should not have even a slight rawness in them. remove the peanuts and keep aside.", 
    "to the same pan, add 1 tbsp coriander seeds, 1/2 tsp cumin seeds and 1/4 tsp methi seeds. skip methi seeds if you do not have them.", 
    "roast these seeds too till they become fragrant. take care not to over roast or burn them. remove and keep aside.", 
    "in the same pan, now add 2 tbsp desiccated coconut. you can also use fresh coconut instead of desiccated coconut.", 
    "stir continuously and roast the coconut till light golden. remove and keep aside.", 
    "add 3 to 4 dry red chilies.", 
    "roast the chilies till the red color changes a shade. you should also get the aroma while roasting them. once they become aromatic and the color changes, remove and keep aside.", 
    "once cooled, break the red chilies in small pieces and remove the seeds.", 
    "now let the spices cool and then take all of them in a grinder jar.", 
    "add 1/2 tsp turmeric powder.", 
    "now add the tamarind pulp and 3 to 4 tbsp water.", 
    "grind everything to a smooth thick masala. do grind to a thick paste, otherwise stuffing the brinjals will not be easy.", 
    "now rinse and slit each brinjal from the base, keeping the stalks. soak the brinjals in salted water for 15 to 20 minutes. then drain and keep aside. to make the brinjals stand while cooking, just thinly slice a small part from the base.", 
    "later stuff each brinjal very well with the masala paste. keep aside. some masala paste will remain. so keep this aside too.", 
    "heat 2 tbsp oil in a 3 litre pressure cooker. add 1 tsp mustard seeds and allow them to crackle.", 
    "then add 1/2 tsp urad dal and 1/2 tsp cumin seeds.", 
    "saute till the urad dal turns a maroonish red.", 
    "then add 1/2 cup finely chopped onion and 1 sprig of curry leaves.", 
    "saute till the onions turn translucent.", 
    "now add 1/2 tbsp ginger-garlic paste.", 
    "add the remaining masala paste along with 2/3 cup water.", 
    "mix very well.", 
    "now place the stuffed brinjals gently in the cooker.", 
    "sprinkle salt as per taste.", 
    "cover and pressure cook for 5 to 6 minutes. when the pressure settles down, open the lid. check the doneness by sliding a knife through a brinjal. if the knife slids easily, then the brinjals are cooked. if they are not cooked, then add 2 to 3 tbsp water and pressure cook for 2 to 3 minutes more.", 
    "garnish with coriander leaves and serve gutti vankaya kura with chapatis or steamed rice."
  ]
}