{
  "Recipe name": "hummus recipe", 
  "Cuisine": "world", 
  "Image ID": "0a22e485-51b0-4903-885d-65d0c3414644", 
  "Ingredients": [
    "1.5 cups dried white chickpeas, soaked in water for 8 to 9 hours and then cooked till soft", 
    "1/2 cup olive oil, add more if required", 
    "2 to 3 garlic cloves, chopped", 
    "1 tablespoon lemon juice", 
    "1/2 teaspoon red chili powder or cayenne pepper", 
    "1/2 teaspoon black pepper powder", 
    "1 teaspoon cumin powder (jeera powder)", 
    "1/2 cup roasted and powdered white sesame seeds or 1/2 cup tahini", 
    "a few sprigs of parsley or coriander leaves (cilantro)", 
    "salt as required"
  ], 
  "Notes": "in place of olive oil, you can use neutral oil like sunflower oil.", 
  "Summary": "hummus recipe - creamy dip or spread made from white chickpeas.", 
  "Preparation time": {
    "Prep Time": "5 mins", 
    "Cook Time": "25 mins", 
    "Total Time": "30 mins"
  }, 
  "Instructions": [
    "roast the sesame seeds and then powder these finely.", 
    "take the cooked chickpeas, all the spices, parsley, salt and garlic in a blender.", 
    "add the powdered sesame seeds, lemon juice and olive oil.", 
    "blend to a smooth paste.", 
    "serve the hummus with warm pita bread garnished with a few sprigs of parsley"
  ]
}