{
  "Recipe name": "hyderabadi mirchi ka salan recipe", 
  "Cuisine": "hyderabadi, Indian", 
  "Image ID": "b2e40c54-b16d-4e2c-92c0-0c587d55de04", 
  "Ingredients": [
    "10-12 green chilies which are not of the hot variety", 
    "1 tbsp tamarind dissolved in cup hot water", 
    "1.5 to 2 cups water", 
    "1/2 teaspoon mustard", 
    "1/2 teaspoon nigella seeds (kalonji)", 
    "1/2 teaspoon cumin seeds (jeera)", 
    "8 to 10 curry leaves (kadi patta)", 
    "3 to 4 tablespoons oil", 
    "salt as required", 
    "1/4 cup dessciated unsweetened coconut", 
    "1/4 cup peanuts, roasted", 
    "1.5 tablespoon sesame seeds, roasted", 
    "1 medium size onion, sliced", 
    "2-3 garlic cloves (lahsun)", 
    "1/2 inch ginger (adrak)", 
    "1/2 teaspoon red chili powder (lal mirch powder)", 
    "1/2 teaspoon turmeric powder (haldi)", 
    "1/2 teaspoon garam masala powder"
  ], 
  "Notes": "the gravy thickens as it cooks, so add more water if required.to remove the hotness from the chilies, remove the seeds from the chilies.", 
  "Summary": "hyderabadi mirchi ka salan recipe - lightly spiced, creamy & slightly tangy curry", 
  "Preparation time": {
    "Prep Time": "30 mins", 
    "Cook Time": "20 mins", 
    "Total Time": "50 mins"
  }, 
  "Instructions": [
    "in a pan lightly brown the onions", 
    "add the dessicated coconut and brown it.", 
    "later add ground nuts and sesame seeds to this mixture and roast for 1-2 minutes.", 
    "make a smooth paste of the above with garlic, ginger, all the spice powders adding little water.", 
    "remove the chili crowns or you can also keep them intact.", 
    "rinse and wipe dry the green chilies.", 
    "slit the chilies vertically but do not break them.", 
    "heat about 2 tbsp oil in a pan.", 
    "fry the chilies till light brown.", 
    "remove and drain on kitchen tissues.", 
    "now in the same pan add more oil.", 
    "fry the mustard seeds till they pop.", 
    "then add nigella seeds and cumin seeds.", 
    "add curry leaves and fry for a minute.", 
    "add the ground masala paste.", 
    "fry for 3-4 minutes or more till you can see oil floating on the top and sides of the masala.", 
    "now add tamarind pulp and 1.5 or 2 cups water.", 
    "sitir & simmer for 5 minutes", 
    "add fried green chilies plus salt and simmer for 5 to 6 minutes more.", 
    "garnish mirchi ka salan with coriander leaves.", 
    "serve mirchi ka salan hot with", 
    "hyderabadi veg biryani", 
    "or even plain steamed rice."
  ]
}