{
  "Recipe name": "italian herb bread recipe", 
  "Cuisine": "world", 
  "Image ID": "b24531ca-474d-4647-a88e-63e04b936c7f", 
  "Ingredients": [
    "1.5 cups whole wheat flour (atta)", 
    "1/2 cup all purpose flour (maida)", 
    "2 tablespoon olive oil", 
    "1 teaspoon dry active yeast", 
    "1/2 cup water or add as required", 
    "1/4 teaspoon sugar", 
    "3/4 cup chopped fresh herbs or about 1 to 1.5 tablespoon dry herbs - rosemary, basil, parsley", 
    "8-9 sun dried tomatoes, chopped (optional)", 
    "salt as required", 
    "sea salt flakes or rock salt for sprinkling", 
    "fresh rosemary leaves or dry rosemary for sprinkling"
  ], 
  "Summary": "italian herb bread made from a combo of whole wheat flour, all purpose flour and olive oil and the herbs used for making bread are fresh basil, fresh parsley and dry rosemary along with sun dried tomatoes.", 
  "Preparation time": {
    "Prep Time": "1 hrs 30 mins", 
    "Cook Time": "25 mins", 
    "Total Time": "1 hrs 55 mins"
  }, 
  "Instructions": [
    "proof the yeast by adding it to the 1/2 cup warm water & sugar mixture.", 
    "keep in a warm place for 10 to 12 minutes, till the mixture bubbles.", 
    "mix the chopped herbs, sundried tomatoes, olive oil and salt together.", 
    "add the flours and mix well.", 
    "now add the yeast mixture and continue to mix.", 
    "add some 1 or 2 tbsp water if required to bind the dough.", 
    "knead into a smooth and pliable dough. the dough should not be sticky.", 
    "rub olive oil all over the dough and keep it covered in a bowl for 30-40 minutes or for more time, till it doubles in size.", 
    "knead again until smooth and elastic. make round or oval shapes of the dough and arrange them on an oiled sheet. slightly make a criss cross pattern on the top of each loaf with a knife.", 
    "cover loosely with a lid or kitchen towel and keep again in a warm place for 15-20 minutes or until well risen.", 
    "preheat the oven to 200 degrees celsius.", 
    "brush the bread buns with little olive oil, sprinkle some rosemary leaves and salt. bake in the oven for about 20 to 25 minutes. the base should sound hollow when they are tapped.", 
    "serve italian herb bread warm."
  ]
}