{
  "Recipe name": "jam bread rolls recipe - 1 large loaf", 
  "Cuisine": "world", 
  "Image ID": "5c5b77eb-e5ff-471c-b35e-faf8f12a813e", 
  "Ingredients": [
    "2.5 cups whole wheat flour (atta)", 
    "1/2 cup all purpose flour (maida)", 
    "1/2 tablespoon fresh yeast Or 3/4 to 1 teaspoon dry active yeast", 
    "2 tablespoon sunflower oil", 
    "2 tablespoon organic unrefined cane sugar or 1.5 tablespoon regular sugar", 
    "1/4 teaspoon rock salt (sendha namak)", 
    "3/4 cup jam - any fruit jam", 
    "2 to 3 tablespoon unsweetened dessicated coconut or as required", 
    "2.5 cups water or as required"
  ], 
  "Notes": "since different types of flours absorb different amounts of water, add accordingly.", 
  "Summary": "jam bread rolls recipe - easy to make whole wheat bread rolls stuffed with fig jam.", 
  "Preparation time": {
    "Prep Time": "45 mins", 
    "Cook Time": "35 mins", 
    "Total Time": "1 hrs 20 mins"
  }, 
  "Instructions": [
    "dissolve sugar in warm water.", 
    "stir in the fresh yeast and let the solution sit for 10 mins.", 
    "sieve both the flours and salt.", 
    "add the oil, the yeast solution and knead to a soft, smooth and elastic dough.", 
    "keep the dough covered in a greased bowl for 1 hour or more till doubled.", 
    "if using dry yeast, keep the dough for 1:30 minutes to 2 hours.", 
    "once the dough has leavened, lightly punch the dough and on a lightly floured work surface roll into a rectangle till the width of the bread reaches 1/4 to 1/2 inch.", 
    "spread the jam evenly on the rolled dough. roll carefully.", 
    "place the entire log carefully in a greased loaf pan.", 
    "cover and keep aside for 10-15 mins if using fresh yeast... and 35-45 minutes for dry yeast.", 
    "bake the bread roll in a pre heated oven at 180 degrees C for 35-40 minutes or till the bread is browned. remove on a wire rack and cool. slice the jam bread rolls warm or when cooled."
  ]
}