{
  "Recipe name": "jeera paratha recipe | cumin paratha recipe", 
  "Cuisine": "Indian", 
  "Image ID": "3387da1c-8fa7-4626-8b40-70bbc6eca25d", 
  "Ingredients": [
    "2 cups whole wheat flour (atta)", 
    "1 to 2 teaspoons ghee or oil", 
    "salt as required", 
    "water as required", 
    "1 tablespoon cumin seeds (jeera)", 
    "ghee or oil as required"
  ], 
  "Summary": "jeera paratha recipe with step by step photos. a quick paratha made from jeera (cumin), whole wheat flour and ghee (clarified butter).", 
  "Preparation time": {
    "Prep Time": "20 mins", 
    "Cook Time": "30 mins", 
    "Total Time": "50 mins"
  }, 
  "Instructions": [
    "take 2 cups whole wheat flour in a big thali/parat or vessel.", 
    "add salt as required and1 to 2 teaspoons ghee or oil.", 
    "make small hole in the center and pour water as required. i used about 1 cup of water.", 
    "mix everything very well. the mixture will look like bread crumbs.", 
    "start gathering all the mixture. knead into a soft and smooth dough.", 
    "allow the dough to rest for about 20 minutes. you can cover the dough with a linen cloth or a vessel/dish covering the dough.", 
    "later remove the dish or cloth.", 
    "make medium sized balls.", 
    "dust some flour on a medium sized ball.", 
    "on a dusted board or surface make a small disc from a medium sized ball of the dough.", 
    "spread some ghee or oil.", 
    "next sprinkle some cumin seeds on the top.", 
    "fold from one side.", 
    "apply ghee or oil on the folded part.", 
    "fold the other side covering the previous folded side.", 
    "apply ghee or oil to this side also.", 
    "fold vertically now", 
    "and continue to fold once more.", 
    "press lightly. dust some flour and roll with a rolling pin", 
    "to a square paratha.", 
    "place the rolled cumin paratha on a hot tava or griddle.", 
    "when one side is partly cooked (about 1/4th)", 
    "then flip it.", 
    "spread some oil or ghee on the partly cooked side.", 
    "now with the help of tongs or spatula, flip the paratha again. spread some oil or ghee on the side which is facing you.", 
    "flip again a couple of times.", 
    "also press the sides of the jeera paratha, so that the edges are cooked well.", 
    "roast till the paratha is cooked well and you see some golden or brown spots on the paratha. a little extra browning is okay too.", 
    "remove the parathas and place aside.", 
    "similarly make all jeera parathas this way.", 
    "you can serve these jeera parathas hot or stack them up in a roti basket or casserole and later serve warm."
  ]
}