{
  "Recipe name": "kadala curry recipe", 
  "Cuisine": "kerala", 
  "Image ID": "edb0de1a-1135-40f3-bbb8-c2179b6f7b1b", 
  "Ingredients": [
    "3/4 cup black chickpeas (kala chana or desi chana or whole bengal gram or kadala)", 
    "2 cups water for soaking black chickpeas", 
    "2.5 cups water Or the soaked water+fresh water for pressure cooking", 
    "1/2 teaspoon fennel seeds (saunf)", 
    "2 to 3 strands of mace (javitri)", 
    "1 inch cinnamon (dalchini)", 
    "3 cloves (lavang)", 
    "3 pinches of grated nutmeg or nutmeg powder (jaiphal powder)", 
    "1/2 cup grated coconut, tightly packed", 
    "1/4 to 1/3 cup water for grinding coconut", 
    "1/3 cup chopped shallots or pearl onions (sambar onions)", 
    "1/2 inch ginger chopped, about 1 teaspoon chopped ginger (adrak)", 
    "1 or 2 green chilies chopped, about 1 teaspoon chopped green chilies", 
    "10 to 12 curry leaves (kadi patta)", 
    "1/2 teaspoon mustard seeds (rai)", 
    "1/4 teaspoon turmeric powder (haldi)", 
    "1 teaspoon red chili powder (lal mirch powder)", 
    "1 teaspoon coriander powder (dhania powder)", 
    "1/4 teaspoon black pepper powder (kali mirch powder)", 
    "2 tablespoon coconut oil", 
    "1 to 1.25 cups of water or stock", 
    "salt as required"
  ], 
  "Notes": "for cooking chickpeas in a pot. add the soaked chickpeas and 2.5 to 3 cups water in a pot with the salt. cover and bring the water to a boil. later on a medium to high flame, cook the chickpeas till they are tender.", 
  "Summary": "kadala curry recipe - spicy black chickpeas curry from the kerala cuisine. gluten free and vegan recipe.", 
  "Preparation time": {
    "Prep Time": "8 hr 30 mins", 
    "Cook Time": "25 mins", 
    "Total Time": "8 hr 55 mins"
  }, 
  "Instructions": [
    "first rinse and then soak the black chickpeas in 2 cups water for 8 to 9 hours or overnight. here's a pic of the soaked black chickpeas. you can also use white chickpeas instead of black chickpeas.", 
    "take the black chickpeas in the pressure cooker. add 2.5 cups of fresh water or overall 2.5 cups of the soaked water + fresh water. i usually do not throw away the soaked water of black chickpeas. add 1/2 tsp salt.", 
    "stir and pressure cook the chickpeas for 10 to 12 whistles till they are tender and cooked through.", 
    "meanwhile when the chickpeas are cooking, take 1/2 cup tightly packed grated coconut in a grinder jar. add 1/4 to 1/3 cup water and grind to a smooth paste.", 
    "keep the ground coconut paste aside.", 
    "in a small pan, dry roast the following spices till aromatic - 1/2 tsp fennel seeds, 2 to 3 strands of mace, 1 inch cinnamon, 3 cloves, 3 pinches of grated nutmeg or nutmeg powder. just a light roasting. don't over do.", 
    "in a small grinder or coffee grinder or a mortar pestle, grind or pound these five spices to a semi fine or fine powder. keep aside.", 
    "heat 2 tbsp coconut oil in a pan.", 
    "add 1/2 tsp mustard seeds and let them crackle.", 
    "add 1/3 cup chopped shallots. stir and saute for a minute.", 
    "then add 1 tsp chopped ginger, 1 tsp chopped green chilies, 10 to 12 curry leaves and saute till the shallots turn translucent or a light brown.", 
    "then add 1 tsp red chili powder, 1 tsp coriander powder, 1/4 tsp black pepper powder and the ground kerala garam masala. if you already have kerala garam masala, then just add 1 tsp of it. 1 tsp of red chili powder, makes this curry spicy. so reduce to 1/2 for a less spicy version.", 
    "stir the masalas very well and saute for a minute on low flame.", 
    "then add the ground coconut paste.", 
    "stir very well.", 
    "saute for 4 to 5 minutes on a low flame.", 
    "then add the cooked black chana or kadala. stir very well.", 
    "then add 1 to 1.25 cups water and stir.", 
    "season with the required amount of salt and stir again.", 
    "let the kadala curry come to a boil and the gravy reduces a bit. the flavors and chickpeas should also be well blended.", 
    "serve kadala curry hot with puttu or appams or steamed rice."
  ]
}