{
  "Recipe name": "kaddu pakoras or pumpkin fritters recipe", 
  "Cuisine": "Indian", 
  "Image ID": "1be65a3f-944f-41d0-853a-7f63c58c9406", 
  "Ingredients": [
    "3/4 cup finely chopped pumpkin (kaddu or petha)", 
    "3/4 cup chopped boiled potato OR 1 medium sized potato (aloo)", 
    "1/2 teaspoon cumin powder (jeera powder)", 
    "1/4 teaspoon black pepper powder (kali mirch powder)", 
    "1 green chilli, chopped (hari mirch)", 
    "1/2 cup singhare ka atta (water chestnut flour)", 
    "3/4 cup amaranth flour (rajgira ke atta)", 
    "sendha namak or sock salt as required", 
    "water as required", 
    "oil for deep frying"
  ], 
  "Summary": "kaddu pakoras recipe - pumpkin fritters made for fasting or religious vrat.", 
  "Preparation time": {
    "Prep Time": "15 mins", 
    "Cook Time": "25 mins", 
    "Total Time": "40 mins"
  }, 
  "Instructions": [
    "chop kaddu or pumpkin finely.", 
    "also mash the boiled potatoes. take both of them in a mixing bowl.", 
    "add the other the ingredients - singhare ka atta (water chestnut flour), rajgire ka atta (amaranth flour), green chilies and rock salt.", 
    "make a thick batter for making pakoras and season with some cumin powder and black pepper powder.", 
    "in a non-stick kadai or pan, heat oil.", 
    "when the oil is sufficiently hot then drop spoonful of the batter and fry the kaddu pakoras till they become crisp and golden.", 
    "drain kaddu pakoras on paper napkins to remove extra oil.", 
    "serve kaddu pakoras with yogurt which has been sweetened with sugar."
  ]
}