{
  "Recipe name": "kaddu ki sabzi recipe", 
  "Cuisine": "Indian", 
  "Image ID": "7c4e5112-bf76-4e02-8c8e-30bdff605383", 
  "Ingredients": [
    "1 small pumpkin (kaddu)", 
    "1/4 teaspoon fenugreek seeds (methi seeds)", 
    "1 teaspoon cumin seeds (jeera)", 
    "1 or 2 dry red chilies (optional)", 
    "1/2 teaspoon red chili powder (lal mirch powder)", 
    "1/2 teaspoon turmeric powder (haldi)", 
    "1/4 teaspoon garam masala powder", 
    "1 teaspoon dry mango powder (amchur)", 
    "1 teaspoon sugar or 2 teaspoon crushed jaggery", 
    "2 tablespoon oil", 
    "3/4 cup water or 1 cup water", 
    "a few chopped coriander leaves for garnishing (optional)", 
    "rock salt or sendha namak (or you can use common salt if not making during religious fasting)"
  ], 
  "Notes": "note: if making this kaddu sabzi for fasting or vrat then skip the fenugreek seeds, turmeric powder and garam masala. you can refer to this compiled list of ingredients allowed during navratri fast.", 
  "Summary": "kaddu ki sabzi recipe - easy to prepare delicious pumpkin recipe.", 
  "Preparation time": {
    "Prep Time": "20 mins", 
    "Cook Time": "15 mins", 
    "Total Time": "35 mins"
  }, 
  "Instructions": [
    "wash the pumpkin. peel and chop the pumpkin.", 
    "in a pressure cooker or pan heat oil.", 
    "add the fenugreek seeds and cumin seeds and fry for a minute on a low flame.", 
    "now add the red chilies and fry for some 15 seconds.", 
    "add the chopped pumpkin and all the dry spice powders except garam masala and dry mango powder.", 
    "add the sugar or jaggery.", 
    "mix the pumpkin with the rest of the spices and sugar/jaggery. add water and salt.", 
    "cover the cooker with a lid and pressure cook for 7-8 minutes.", 
    "if you do not have a pressure cooker then cover the pan with a lid and cook the pumpkin for some 15-20 minutes till they become soft and mushy.", 
    "now mash the cooked and soft pumpkin with a spoon and add the garam masala and dry mango powder.", 
    "stir the mashed pumpkin well and cook for minute or two.", 
    "if the sabzi still looks watery to you, then evaporate the water from the sabzi by cooking it without the lid.", 
    "the sabzi should not be dry nor watery, just in between.", 
    "garnish with coriander leaves and serve kaddu ki sabzi hot."
  ]
}