{
  "Recipe name": "kand pakora recipe | kand bhajiya recipe", 
  "Cuisine": "gujarati, Indian", 
  "Image ID": "aa6b0e65-8591-494a-b50a-0169bbbfe732", 
  "Ingredients": [
    "200 grams purple yam (kand) or 25 thin slices kand", 
    "3/4 cup besan (gram flour)", 
    "1/2 cup water or add as required", 
    "1/8 teaspoon turmeric powder (haldi)", 
    "1/4 teaspoon red chili powder (lal mirch powder)", 
    "1 pinch asafoetida (hing)", 
    "1 pinch baking soda (optional)", 
    "1/2 tablespoon hot oil", 
    "salt as required", 
    "oil for deep frying", 
    "1/2 tablespoon sabut dhania (coriander seeds) - crushed", 
    "1/2 tablespoon black pepper (sabut kali mirch) - crushed", 
    "1 to 1.5 teaspoon white sesame seeds (safed til)"
  ], 
  "Summary": "kand pakora recipe - crisp fritters made from purple yam. also known as kand na bhajiya or ratalu puri. yum snack recipe from gujarati cuisine.", 
  "Preparation time": {
    "Prep Time": "20 mins", 
    "Cook Time": "30 mins", 
    "Total Time": "50 mins"
  }, 
  "Instructions": [
    "rinsing, peel and slice the purple yam thinly.", 
    "soak them in salted water for 20 to 30 minutes. about 2 to 2.5 cups of water in which 1/2 tsp salt had been added.", 
    "later in a mixing bowl take the following ingredients - 3/4 cup gram flour/besan, 1/8 tsp turmeric powder, 1/4 tsp red chili powder, a pinch of asafoetida, a pinch of baking soda.", 
    "pour 1/2 cup water and mix into a smooth batter without lumps.", 
    "now coarsely crush 1/2 tbsp coriander seeds and 1/2 tbsp black pepper separately in a mortar-pestle. keep aside in a plate along with 1 to 1.5 tsp white sesame seeds.", 
    "keep oil for deep frying in a kadai or pan. when the oil becomes hot, take 1/2 tbsp of hot oil from it and add to the batter. this step is optional and you can even skip it. mix very well.", 
    "now drain the kand slices very well. add a few slices in the batter. coat them well with the batter.", 
    "sprinkle a pinch or two of the crushed coriander, black pepper and sesame seeds all over on top of the pakora.", 
    "gently slid in medium hot oil.", 
    "batter coat the remaining slices and sprinkle with the crushed coriander, black pepper and sesame seeds and add them to the oil.", 
    "flip the pakoras when one side is crisp, golden and fry the other side.", 
    "fry till they are evenly crisp and golden.", 
    "remove with a slotted spoon. drain kand pakoras on kitchen paper towels to remove excess oil.", 
    "serve these kand pakoras with coriander chutney, mint chutney or with tomato ketchup."
  ]
}