{
  "Recipe name": "kanda poha recipe | onion poha recipe", 
  "Cuisine": "Maharashtrian", 
  "Image ID": "224b4c13-3a01-4dee-ad3b-78f81ac5b9a5", 
  "Ingredients": [
    "1.5 cups thick poha - red or white beaten rice or flattened rice", 
    "1 large onion - finely chopped (kanda or pyaaz)", 
    "1/4 teaspoon turmeric powder (haldi)", 
    "1 teaspoon mustard seeds (rai)", 
    "2 or 2.5 tablespoon peanuts (moongphali)", 
    "10 to 12 curry leaves (kadi patta)", 
    "1 green chilli (hari mirch), chopped", 
    "1 teaspoon sugar or as required", 
    "1 or 1.5 tablespoon oil", 
    "salt as required"
  ], 
  "Summary": "kanda poha recipe - popular maharashtrian breakfast recipe made from red or white poha.", 
  "Preparation time": {
    "Prep Time": "15 mins", 
    "Cook Time": "15 mins", 
    "Total Time": "30 mins"
  }, 
  "Instructions": [
    "rinse the poha in water till they soften.", 
    "they should loose their crunchiness and when you break them between your finger, they should easily get crushed or mashed.", 
    "now add sugar, salt and turmeric powder to the poha and gently mix.", 
    "dry roast the peanuts in a pan till they become crunchy.", 
    "heat oil in the same pan.", 
    "crackle the mustard seeds first.", 
    "then add onions and saute them till they become translucent.", 
    "add curry leaves and green chilies. saute for half a minute.", 
    "add the roasted peanuts and stir.", 
    "add the poha and stir.", 
    "cover and steam the poha for 2-3 minutes on a low flame.", 
    "when cooking check after 1 or 1.5 minutes and give a stir again.", 
    "switch off the fire and let the kanda poha remain covered for 1-2 minutes.", 
    "remove the lid and sprinkle some lemon juice, coriander leaves and grated coconut.", 
    "give a gentle stir and serve onion poha hot with tea."
  ]
}