{
  "Recipe name": "khandvi recipe", 
  "Cuisine": "gujarati", 
  "Image ID": "2e25e881-24d4-4b15-896e-beaa3e8ce1d8", 
  "Ingredients": [
    "1 cup besan (gram flour) or 100 grams besan", 
    "3/4 cup sour curd, about 150 grams", 
    "2.25 cups water, to be mixed with the curd (alternatively you can also use 3 cups sour buttermilk or chaas)", 
    "1 teaspoon ginger + green chili paste, about 1/2 inch ginger (adrak) & 1 green chili (hari mirch) crushed in a mortar-pestle", 
    "1/4 teaspoon turmeric powder (haldi)", 
    "teaspoon salt or add as required", 
    "1 pinch asafoetida (hing)", 
    "2 tablespoons fresh grated coconut", 
    "2 tablespoons chopped coriander leaves (dhania patta)", 
    "1 tablespoon oil", 
    "8 to 10 curry leaves (kadi patta)", 
    "1 teaspoon mustard seeds (rai)", 
    "2 teaspoons white sesame seeds (safed til)", 
    "1 teaspoon green chili (hari mirch), chopped or 1/2 red chilli powder"
  ], 
  "Summary": "khandvi - soft, melt in the mouth, spiced and seasoned gram flour rolls. a favorite snack from the gujarati cuisine.", 
  "Preparation time": {
    "Prep Time": "20 mins", 
    "Cook Time": "20 mins", 
    "Total Time": "40 mins"
  }, 
  "Instructions": [
    "take the yogurt in a bowl. add water and stir well till smooth.", 
    "add ginger-green chili paste, turmeric powder, asafoetida and salt.", 
    "if using fresh yogurt, then to add the sourness, add about 1/2 tsp of lemon juice.", 
    "add the gram flour/besan. with a wired whisk, keep on stirring and mixing till all the lumps are dissolved and you get a smooth batter. there should be no lumps in the batter. you can also use a hand held beater to mix the batter.", 
    "spread oil on plates or boards or tray. large steel lids or thalis work very well. you can also use the back of a large baking tray or your kitchen counter top.", 
    "also mix the chopped coriander leaves and grated coconut. keep aside.", 
    "pour the batter in a sauce pan or a broad frying pan. switch on the stove top and keep the flame to the lowest. begin to stir.", 
    "keep on stirring when the khandvi batter is getting heated up. lumps begin to form and you have to continuously stir so that the lumps don't form.", 
    "the batter would thicken and keep on thickening. keep on stirring. best to use a wooden spatula or a heat proof silicon spatula.", 
    "the batter also should not be allowed to stick at the bottom. so you have to stir continuously.", 
    "do a plate test when the batter has thickened well.", 
    "spread a few teaspoons of the batter on a greased plate. let it cool a bit and then begin to roll. if you are unable to roll, then the batter needs to be cooked more.", 
    "the final consistency of the khandvi batter is shown in pic 17 above. it took me 17 minutes to get the correct consistency on a low flame. the timing will vary depending on the intensity of the flame, the thickness/thinness of the pan and the size of the pan. just do the plate test and when you can form the rolls, then the khandvi batter is ready. if the batter becomes too thick, then it becomes difficult to spread and you don't get thin layers in the rolls. in this case, still spread the batter. you will get thick slices, but still they taste good.", 
    "quickly pour about 1/2 to cup of batter on a large plate and spread thinly & evenly with a spatula. you have to be quick with the remaining batter too. since even a bit of cooling and the batter becomes likes blob, difficult to spread.", 
    "allow to cool and then sprinkle the coconut + coriander leaves mixture sparingly. you can also skip this stuffing part and directly garnish with the coconut and coriander once you temper the khandvi rolls.", 
    "cut into equal sized strips.", 
    "gently roll each strip tightly. then place them in a serving tray or plate.if the tray or plate is large, then you will get large rolls. in this case after you finish rolling half, just cut horizontally and make a second roll.", 
    "arrange the khandvi rolls next to each other or stack them up neatly in a plate or tray.", 
    "heat oil and crackle the mustard seeds.", 
    "then add curry leaves, green chilies and fry for a few seconds.", 
    "add the sesame seeds and when they change color & crackle, pour the hot tempering mixture along with the oil on the khandvi rolls evenly.", 
    "you can garnish khandvi with some more coconut and coriander leaves, if you prefer.", 
    "serve khandvi with", 
    "coriander chutney or coriander mint chutney."
  ]
}