{
  "Recipe name": "koorka stir fry recipe", 
  "Cuisine": "kerala, south indian", 
  "Image ID": "9f019826-3bc3-4967-b9f8-c052b1840435", 
  "Ingredients": [
    "250 grams chinese potatoes (kurka) - about 1.25 cups boiled and chopped kurka", 
    "1/4 teaspoon turmeric powder for steaming or boiling (haldi)", 
    "3/4 cup sliced or chopped pearl onions or sambar onions or shallots or 3/4 cup chopped onions", 
    "1 teaspoon mustard seeds (rai)", 
    "2 to 3 dry red chilies (sookhi lal mirch) - broken and deseeded", 
    "1 sprig curry leaf or 8 to 10 curry leaves (kadi patta)", 
    "1 pinch asafoetida (hing)", 
    "2 to 3 tablespoon grated coconut", 
    "2 tablespoon coconut oil, preferably or use any other oil"
  ], 
  "Summary": "koorka stir fry - easy and simple chinese potato stir fry.", 
  "Preparation time": {}, 
  "Instructions": [
    "steam or cook the chinese potatoes like the way you cook potatoes, in a pan or steamer till they are tender and cooked well. in a pan it takes about 10 to 12 minutes. in a pressure cooker, cook for about 2 whistles.", 
    "once they become warm or cool down, peel and chop them. keep aside.", 
    "in a pan, heat 2 tbsp coconut oil. add 1 tsp mustard seeds and saute till they crackle.", 
    "then add 3/4 cup sliced pearl onions/shallots or 3/4 cup chopped onions, 2 to 3 dry red chilies, 8 to 10 curry leaves and a pinch of asafoetida.", 
    "stir very well.", 
    "saute till the onions turn translucent.", 
    "then add the steamed and peeled kurka or chinese potatoes.", 
    "add salt. stir and saute for 2 to 3 minutes on a low flame.", 
    "lastly add fresh 2 to 3 tbsp grated coconut.", 
    "mix and saute for a minute.", 
    "serve kurka stir fry as a side dish with sambar-rice, dal-rice. you can also have with chapatis."
  ]
}