{
  "Recipe name": "lauki yakhni or al yakhni recipe", 
  "Cuisine": "Indian, kashmiri", 
  "Image ID": "c02f217d-a7c5-4cbc-98df-6554db2871a4", 
  "Ingredients": [
    "12 to 15 slices of lauki (bottle gourd or opo squash)", 
    "1 inch cinnamon (dalchini)", 
    "1 to 2 black cardamom (badi elaichi)", 
    "1/2 or 3/4 teaspoon shahjeera (caraway seeds)", 
    "1/2 teaspoon dry ginger powder (saunth)", 
    "1 teaspoon fennel powder (saunf powder)", 
    "1 pinch asafoetida (hing)", 
    "1 cup water", 
    "3/4 or 1 cup curd (yogurt or dahi - dairy or vegan) - whisked till smooth (i used cashew yogurt)", 
    "1 or 2 tablespoon oil for frying the lauki slices", 
    "1 tablespoon oil for the yogurt sauce", 
    "salt as required", 
    "few mint leaves for garnish (optional)"
  ], 
  "Summary": "lauki yakhni recipe - fried bottle gourd slices in a light and aromatic yogurt sauce.", 
  "Preparation time": {
    "Prep Time": "20 mins", 
    "Cook Time": "10 mins", 
    "Total Time": "30 mins"
  }, 
  "Instructions": [
    "heat oil in a flat pan. pan fry the lauki slices till they are browned and cooked well.", 
    "in the same pan or in another pan, heat oil. if there is leftover oil, then just add some extra oil to the same pan so that it becomes approx 1 tbsp oil.", 
    "add the whole spices - shahjeera, cinnamon,black cardamoms and fry till the oil becomes aromatic.", 
    "now switch off the fire and let the pan stand for 1-2 minutes if its very hot.", 
    "add water.", 
    "be careful when pouring the water as if the oil is very hot, the oil will splutter.", 
    "let the water come to a boil.", 
    "add the fried lauki slices, ginger powder, fennel powder, asafoetida and salt.", 
    "simmer for 2-3 mins. slowly add the whisked yogurt and continue to stir while adding.", 
    "simmer for 4-5 minutes or till the sauce thickens a bit.", 
    "serve the lauki yakhni with some steamed basmati rice or saffron rice or kashmiri pulav."
  ]
}