{
  "Recipe name": "mango chutney recipe", 
  "Cuisine": "Bengali", 
  "Image ID": "045b8707-d551-43a2-9114-e8165ede9260", 
  "Ingredients": [
    "2 medium sized juicy semi ripe mangoes", 
    "1/2 teaspoon panch phoran - equal mix of cumin, fennel, mustard, nigella & fenugreek seeds", 
    "2 tablespoon powdered jaggery or as required - adjust as per the sweetness of the mangoes", 
    "1 tablespoon peanut oil or any vegetable oil", 
    "1/2 inch ginger (adrak) - grated or finely chopped", 
    "1/4 teaspoon red chili powder (lal mirch powder)", 
    "1 pinch garam masala powder", 
    "1 pinch asafoetida (hing)", 
    "salt as required"
  ], 
  "Summary": "easy mango chutney recipe made withsemi ripe mangoes.", 
  "Preparation time": {
    "Prep Time": "5 mins", 
    "Cook Time": "15 mins", 
    "Total Time": "20 mins"
  }, 
  "Instructions": [
    "peel and finely chop the mangoes.", 
    "if the mangoes are very juicy and fibrous, you can just remove the pulp.", 
    "heat oil in the pan.", 
    "fry the panch phoran spices till fragrant.", 
    "now add the ginger and fry for some seconds till its raw aroma goes away.", 
    "add the finely chopped mango or mango pulp/puree.", 
    "add the red chili powder, garam masala powder and asafoetida.", 
    "stir.", 
    "simmer for 1-2 minutes.", 
    "add the powdered jaggery and salt.", 
    "stir and cook for 2-3 minutes.", 
    "don't overcook as the mixture will become thick.", 
    "remove the mango chutney in a bowl.", 
    "serve mango chutney warm or at room temperature as dip or spread.", 
    "mango chutney stays good for 2-3 days in the refrigerator."
  ]
}