{
  "Recipe name": "matar kachori recipe", 
  "Cuisine": "north indian", 
  "Image ID": "6d08c6da-dc05-4e1d-acf5-b2fa80978ba9", 
  "Ingredients": [
    "1 cup all purpose flour (maida), you can also use whole wheat flour or both the flours in half-half ratio", 
    "1 tablespoon oil or ghee, i used sunflower oil", 
    "1/4 cup warm water", 
    "1/4 teaspoon baking powder", 
    "1/4 teaspoon salt or add as required", 
    "1 cup peas, fresh or frozen", 
    "1/4 teaspoon red chili powder (lal mirch powder)", 
    "1/4 teaspoon turmeric powder (haldi)", 
    "1/2 teaspoon coriander powder (dhania powder)", 
    "1/2 teaspoon fennel powder (saunf powder)", 
    "1/2 teaspoon chaat masala or add as per taste", 
    "1/2 teaspoon amchur powder (dry mango powder) or add as per taste", 
    "1/2 teaspoon green chili-ginger paste or crushed or minced green chili & ginger - use about 1/2 inch of ginger and 1/2 or 1 green chili and then crush them in a mortar & pestle", 
    "1/4 teaspoon cumin seeds (jeera)", 
    "1 tablespoon besan or gram flour", 
    "2 teaspoons oil or ghee", 
    "salt as required", 
    "2 to 3 cups oil"
  ], 
  "Notes": "few tips for making matar kachori:", 
  "Summary": "matar kachori - flaky & crisp indian pastries stuffed with spiced & mashed peas. vegan recipe.", 
  "Preparation time": {
    "Prep Time": "30 mins", 
    "Cook Time": "30 mins", 
    "Total Time": "1 hrs"
  }, 
  "Instructions": [
    "sift the flour, salt and baking powder. add oil and form a bread crumb like mixture.", 
    "add water and form a tight dough. cover with a damp cloth and keep aside.", 
    "boil or steam the peas. mash them coarsely or semi-coarsely.", 
    "heat oil and fry the cumin. then add the crushed ginger and green chili.", 
    "fry for a minute. now add the dry spice powders and salt.", 
    "stir and add the gram flour. saute for 2-3 minutes.", 
    "check the seasoning and add some more of the spice powders or salt, if required.", 
    "make equal sized 5-6 balls from the dough. roll into 3-4 inch round on a dusted board.", 
    "add some of the stuffing in the center. brush some water on the edges.", 
    "bring together all the edges and pinch them. press the edges downwards below.", 
    "roll into a 4-5 inches kachori. prepare all matar kachoris like these. keep the kachoris covered with a wet cloth.", 
    "now heat oil. at low to low-medium flame, fry the kachoris till they become golden, flaky and crisp.", 
    "serve matar kachori hot with some coriander chutney or tamarind chutney."
  ]
}