{
  "Recipe name": "matar paneer toast sandwich recipe", 
  "Cuisine": "Indian", 
  "Image ID": "3bd7066f-4ec3-48fd-b5a4-ab9476c5f187", 
  "Ingredients": [
    "1.5 tablespoon butter or olive oil or sunflower oil", 
    "cup finely chopped onion or 1 medium sized onion, finely chopped", 
    "1 or 2 green chilies (hari mirch), finely chopped", 
    "1 teaspoon ginger (adrak), finely chopped", 
    "1/2 cup green peas (matar), boiled or steamed", 
    "1 teaspoon cumin powder (jeera)", 
    "1 teaspoon coriander powder (dhania powder)", 
    "1/2 teaspoon black pepper powder or crushed black pepper or add as per taste", 
    "3 tablespoons coriander leaves (dhania patta), chopped", 
    "1 teaspoon chat masala powder", 
    "1 cup chopped paneer cubes or 200 grams paneer (cottage cheese) chopped in small cubes", 
    "salt as required", 
    "10 to 12 slices of whole wheat bread or brown bread or white bread or multi grain bread", 
    "butter to apply on toast (optional)"
  ], 
  "Notes": "tips for making matar paneer sandwich recipe:1. you could toast the sandwich on an electric sandwich maker or toast them in a hand held stove top toaster.2. for the filling use any veggies you like mushrooms, cabbage, capsicum etc along with the other ingredients for the recipe.3. spice powders and green chilies can be adjusted as per your taste. if making for small kids then you can reduce the spice powders, ginger and skip the green chilies.4. instead of paneer you can also use tofu.", 
  "Summary": "matar paneer toast recipe - tasty toast sandwiches made with cottage cheese, green peas and spices.", 
  "Preparation time": {
    "Prep Time": "5 mins", 
    "Cook Time": "30 mins", 
    "Total Time": "35 mins"
  }, 
  "Instructions": [
    "heat butter or oil in a pan.", 
    "then add the finely chopped onions. also add the chopped ginger.", 
    "saute till the onions becomes translucent.", 
    "now add the chopped green chilies and stir again.", 
    "sprinkle salt and stir again.", 
    "now add the 1/2 cup of boiled green peas. stir well.", 
    "then add coriander powder, cumin powder and pepper powder. also add 3 tablespoons chopped coriander leaves.", 
    "stir and cook for another 2 to 3 mins on a low flame.", 
    "add chopped paneer cubes.", 
    "sprinkle chaat masala.", 
    "stir all and cook for another 1 to 2 mins on a low flame.", 
    "switch off the flame and allow the mixture to cool down. otherwise the toast sandwich would get soggy.", 
    "slice the edges of the bread, this step is optional.", 
    "apply some butter over the bread. i have skipped this process as we had used butter while frying the matar-paneer mixture. so it's optional. spread the paneer-matar filling on the bread slices.", 
    "top with another bread. repeat the same with other bread slices.", 
    "place in a preheated toaster or grill. you can also toast these sandwiches in a hand held stove top toaster.", 
    "toast the sandwiches till crisp and golden.", 
    "slice the paneer toast and serve them hot with green chutney or tomato ketchup."
  ]
}