{
  "Recipe name": "moong dal cheela recipe", 
  "Cuisine": "Indian", 
  "Image ID": "5284d092-ddf9-4fbd-9d88-fa85d2255650", 
  "Ingredients": [
    "1 cup moong dal (split & husked moong lentils)", 
    "2 to 3 cups water for soaking", 
    "1/4 cup water, for grinding or add as required", 
    "1/4 teaspoon turmeric powder (haldi)", 
    "1/4 teaspoon red chili powder (lal mirch powder)", 
    "1/2 teaspoon roasted cumin powder or cumin powder (bhuna jeera powder)", 
    "1 pinch hing (asafoetida)", 
    "1/4 cup chopped coriander leaves (dhania patta)", 
    "1/4 cup finely chopped onions", 
    "1 teaspoon grated or finely chopped ginger (adrak)", 
    "1 to 2 green chilies - finely chopped", 
    "1 teaspoon salt or add as required", 
    "1 to 2 tablespoon oil for cooking chillas or add as required"
  ], 
  "Notes": "tips for makingmoong dal cheela recipe:", 
  "Summary": "moong dal chilla recipe - healthy, nutritious and tasty chillas made with moong lentils.", 
  "Preparation time": {
    "Prep Time": "4 hr", 
    "Cook Time": "30 mins", 
    "Total Time": "4 hr 30 mins"
  }, 
  "Instructions": [
    "rinse the moong dal 3 to 4 times in water.", 
    "soak moong dal with 2 to 3 cups of water for 3 to 4 hours or over night.", 
    "the moong dal will swell or double up in size. discard the water.", 
    "in a grinder, grind soaked moong dal with 1/4 cup of water.", 
    "don't add too much water else they might not grind evenly. we need a smooth and lump free batter for moong dal chillas.", 
    "take the batter in a bowl. add 1/4 teaspoon turmeric powder, 1/4 teaspoon red chili powder, 1/2 teaspoon roasted cumin powder and 1 teaspoon salt or as required.", 
    "mix very well.", 
    "then add add 1/4 cup coriander leaves, 1/4 cup finely chopped onion, 1 teaspoon grated ginger, finely chopped green chilies and a pinch of hing.", 
    "again mix very well.", 
    "allow the batter to rest for 15 -20 mins.", 
    "the onions will leave some moisture.check the consistency of the batter. if its too thick, then add 1 to 2 tablespoons more water. adding too much water will not be good as it will not spread evenly on the tawa.", 
    "the consistency of the batter has to be of pouring consistency, neither too thick nor too thin.", 
    "heat the pan. this is important as the pan has to be hot before you make the cheelas.", 
    "add a scoopful of batter towards the center of the pan.", 
    "the batter will spread a little on its own.", 
    "just rotate the batter with the back of spatula giving a round and even shape.", 
    "drizzle few drops of oil around the edges of the chilla.", 
    "cook the chillas on medium heat. after a minute they will look crisp and brown.", 
    "flip the chillas and cook the other side for a minute.", 
    "once the moong dal chillas appear crisp and brown, remove and place aside.", 
    "similarly make all other chillas. you can stuff the chillas with some grated paneer if you want.", 
    "serve moong dal chillas with tomato ketchup or green chutney."
  ]
}