{
  "Recipe name": "mullangi sambar recipe", 
  "Cuisine": "south indian", 
  "Image ID": "d29057a0-2377-4491-ad46-916b8a50a059", 
  "Ingredients": [
    "1/2 cup arhar dal (tuvar dal or pigeon pea lentils)", 
    "1/4 teaspoon turmeric (haldi) add while cooking lentils", 
    "2 cups peeled and sliced white radish (mullangi or daikon or mooli)", 
    "1/4 cup tamarind pulp - 3/4 or 1 tablespoon tamarind soaked in 1/4 cup water for 20-25 minutes and then squeezed with the juice extracted and strained.", 
    "2 to 3 teaspoons sambar powder", 
    "1 teaspoon mustard (rai)", 
    "1/4 teaspoon fenugreek seeds (methi dana)", 
    "5 to 6 shallots or pearl onions (sliced or chopped)", 
    "1 to 2 dry red chilies - halved or kept whole (sookhi lal mirch)", 
    "1/4 teaspoon asafoetida (hing)", 
    "1/2 teaspoon urad dal (black gram) - optional", 
    "1 sprig curry leaves (kadi patta)", 
    "1 medium size tomatoes - chopped", 
    "1 or 1.5 cups water", 
    "2 tablespoon oil", 
    "salt as required", 
    "sugar or jaggery (optional)", 
    "1/4 teaspoon turmeric (haldi) - for adding in sambar"
  ], 
  "Summary": "radish sambar or mullangi sambar recipe - an easy & delicious sambar made with radish.", 
  "Preparation time": {
    "Prep Time": "20 mins", 
    "Cook Time": "20 mins", 
    "Total Time": "40 mins"
  }, 
  "Instructions": [
    "pick and rinse the dal well. pressure cook the dal with a pinch of turmeric in 2 or 2.5 cups water for 6 to 7 whistles on medium flame.", 
    "meanwhile as the dal is cooking, soak the tamarind in 1/4 cup water.", 
    "also chop all the veggies that are required like radish, shallots, tomatoes etc", 
    "once the pressure of the cooker drops down on its own, open the lid.", 
    "the dal would be cooked. if the dal is not cooked, then pressure cook again adding some water if required.", 
    "lightly mash the cooked dal with a wooden spoon and keep aside.", 
    "heat oil in another pan. add the mustard seeds and let them splutter.", 
    "now add methi seeds & urad dal. fry till the urad dal turns golden.", 
    "add the shallots or pearl onions. saut till the shallots become translucent.", 
    "then add 1 to 2 dry red chilies and 1/4 teaspoon of asafoetida (hing).", 
    "stir and saute for a minute on low flame.", 
    "add the tomatoes and curry leaves. saute till the tomatoes soften.", 
    "then add the radish and turmeric powder. stir and saute for a minute.", 
    "add water and salt. cover and cook over medium flame till the radish slices are cooked.", 
    "remove the lid. then add the mashed dal.", 
    "add the tamarind pulp and sambar powder. stir and add the cooked dal.", 
    "add sugar or jaggery if required. simmer till the whole mixture is blended well and the raw aroma of the tamarind disappears.", 
    "if the radish sambar appears thick, then add some more water and simmer for a few minutes. garnish with coriander leaves.", 
    "serve the mullangi sambar with steamed rice or idli or dosa."
  ]
}