{
  "Recipe name": "Mumbai Ragda Patties Recipe - Ragda Pattice Recipe", 
  "Cuisine": "Indian", 
  "Image ID": "84e7a7e0-da94-4b0b-abc4-bad014f8845b", 
  "Ingredients": [
    "4 potatoes", 
    "3 tablespoon cornflour", 
    "1/4 or 1/2 teaspoon red chilli powder (lal mirch powder)", 
    "salt as required", 
    "ghee or oil for frying the patties", 
    "2 cups Ragda", 
    "1/2 cup mint-coriander chutney (green chaat chutney)", 
    "1/2 cup sweet chaat chutney made from tamarind, jaggery and dates.", 
    "1/2 cup yogurt (curd or dahi) plain or in which some sugar is dissolved", 
    "1 onion, finely chopped", 
    "1/2 cup coriander leaves, finely chopped - (cilantro leaves or dhania patta)", 
    "1 tomato, finely chopped (optional)", 
    "1 cup fine sev", 
    "chaat masala as required", 
    "red chili powder as required", 
    "black salt as required", 
    "roasted cumin seeds powder (bhuna jeera powder)", 
    "lemon Juice as required (optional)", 
    "grated or finely chopped raw mango (optional and if available in season)"
  ], 
  "Summary": "Ragda Patties or Ragda Pattice is a popular bombay chaat recipe.", 
  "Preparation time": {
    "Prep Time": "30 mins", 
    "Cook Time": "20 mins", 
    "Total Time": "50 mins"
  }, 
  "Instructions": [
    "Wash the potatoes and then boil till they are cooked completely.", 
    "When the potatoes are still warm, peel them and thenMash the potatoes.", 
    "Add cornflour and salt to the mashed potatoes.", 
    "A tip", 
    "To mash the potatoes easily : Always mash the potatoes when they are hot or warm. They get mashed easily than mashing, when they become cool.", 
    "Mix the cornflour and salt well with the mashed potatoes.", 
    "Check the seasoning and add more salt if required. If within you, something tells you that the mixture is a little loose and needs more binding, add some more cornflour. Make medium sized balls of the mashed potato mixture. Flatten them, shape into round patties and keep aside.", 
    "Heat oil/ghee on a tava (griddle) or in a shallow frying pan. Keep the potato patties on the hot oil in the tava for frying.", 
    "Lift with the spatula and check to see if the base is light browned. Turn over the patties and fry the other side.", 
    "When this side gets a little browned, turn over again. Fry till the patties become golden brown and crisp from the first side.", 
    "Turn over again to make the second side crisp and golden brown.", 
    "Fry all the patties till they are done.", 
    "Alternatively, you could arrange the fried patties, at the sides of the circular tava and fry the fresh batch of patties in the center.", 
    "Keep everything ready for the topping and garnish before you assemble the ragda patties. The potato patties have to be hot or warm before you assemble, so keep everything ready before you fry the patties:", 
    "The ragda should be hot or warm", 
    "Both the green chutney and the sweet chaat chutney should be made a day ahead or before making the patties and kept aside. (You could also use ready made chaat chutneys)", 
    "The onions and coriander chopped and kept aside", 
    "The sev I used readymade sev and the only variety I got near my place was a slight thicker variety than the fine sev used in Mumbai.", 
    "All the dry powders chaat masala, cumin seed powder, rock salt/black salt kept at your kitchen table where you will assemble the ragda patties.", 
    "Take the two or three patties in a plate.", 
    "Top it up with generous amounts of ragda.", 
    "Add some chopped onions and sweet chaat chutney on the ragda", 
    "Then add the green mint coriander chutney.", 
    "Add some onions again.", 
    "Sprinkle the chaat masala, black salt and cumin seeds powder. At this stage, you could add a few drops of lemon juice or chopped/grated raw mango.", 
    "Top it with sev as much you want.", 
    "Garnish Ragda Patties with coriander leaves. the last touch.", 
    "Serve the Ragda Patties immediately to your loved ones."
  ]
}