{
  "Recipe name": "mumbai style cheese chilli toast recipe", 
  "Cuisine": "mumbai street food", 
  "Image ID": "47afab7c-50dd-4c7c-8532-99b41eb2bc45", 
  "Ingredients": [
    "1/2 cup tightly packed coriander leaves OR 1/4 cup EACH of mint leaves and coriander leaves", 
    "1/4 teaspoon chaat masala powder or add as required", 
    "1 green chili or add as required", 
    "salt as required", 
    "1 to 2 teaspoon of water for grinding (optional)", 
    "1/2 cup grated cheese - can use processed cheese or cheddar cheese", 
    "1 to 1.5 teaspoons finely chopped green chillies", 
    "2 tablespoons finely chopped capsicum (shimla mirch)", 
    "1 tablespoon chopped coriander leaves (dhania patta)", 
    "1/2 teaspoon chaat masala or add as required", 
    "pinch of black salt (optional)", 
    "8 to 10 bread slices - whole wheat bread or multi grain bread or white bread", 
    "salted butter as required"
  ], 
  "Notes": "tips for makingmumbai style cheese chilli toast recipe:", 
  "Summary": "mumbai cheese chilli toast sandwich recipe - tasty toast sandwiches made with cheese, green chilies, green chutney and spices+herbs.", 
  "Preparation time": {
    "Prep Time": "10 mins", 
    "Cook Time": "10 mins", 
    "Total Time": "20 mins"
  }, 
  "Instructions": [
    "rinse the coriander leaves very well in water.", 
    "then add all the ingredients mentioned under the list 'for green chutney' in a grinder or small blender.", 
    "do not add any water and grind to a smooth consistency. if required you can add 1 to 2 teaspoons of water.", 
    "remove the green chutney in a bowl. cover and keep aside.", 
    "grate cheese in a bowl or a plate. you will need 1/2 cup grated cheese.", 
    "add 1 to 1.5 teaspoons finely chopped green chillies, 2 tablespoons finely chopped capsicum and 1 tablespoon chopped coriander leaves.", 
    "then add 1/2 teaspoon chaat masala and a pinch of black salt (optional).", 
    "mix very well with a spoon. keep aside.", 
    "spread salted butter on all the bread slices. cover the whole surface with the butter.", 
    "you can slice of the edges if you want.", 
    "spread green chutney as required. i have mentioned the recipe to prepare green chutney in the recipe card.", 
    "now place the cheese mixture evenly on the bread slices.", 
    "cover the cheese topped slices with the remaining buttered slices.", 
    "in a pre heated sandwich maker, place the sandwich carefully.", 
    "spread some butter on the top of the sandwiches. do not press the top cover of the sandwich maker too much.", 
    "toast for 2 to 3 minutes or till the sandwiches are crisp and golden. remove in a plate.", 
    "spread some butter on the side where we did not apply butter first. this step is optional and you can skip it.", 
    "serve mumbai style cheese chilli toasts with green chutney and tomato ketchup."
  ]
}