{
  "Recipe name": "mushroom tikka masala recipe | mushroom tikka masala gravy", 
  "Cuisine": "north indian, Punjabi", 
  "Image ID": "1af15f03-9e6f-49f0-b25a-dce328c537eb", 
  "Ingredients": [
    "200 to 250 grams buttton mushrooms", 
    "4 tablespoon hung curd (thick curd) or hung curd made from 1/2 cup fresh curd (dahi or yogurt)", 
    "1/8 teaspoon turmeric powder OR 2 to 3 pinches of turmeric powder (haldi)", 
    "1/2 teaspoon garam masala powder", 
    "1/2 teaspoon kashmiri red chili powder OR deghi mirch", 
    "1/2 teaspoon chaat masala powder", 
    "1 to 1.5 teaspoon ginger-garlic paste (adrak lahsun ka paste) Or 3 to 4 garlic cloves and 1/2 inch ginger - crushed to a paste in mortar-pestle", 
    "1/2 teaspoon ajwain (carom seeds)", 
    "1/4 teaspoon lemon juice", 
    "1/2 tablespoon oil, to be used only if grilling or baking the mushrooms in the oven", 
    "1/2 tablespoon besan (gram flour)", 
    "3 to 4 tablespoon oil for sauteing mushrooms", 
    "black salt or rock salt or regular salt as required", 
    "some oil for brushing while grilling (optional)", 
    "200 grams tomatoes OR 3 medium to large tomatoes", 
    "8 to 10 cashews (kaju)", 
    "hot water as required", 
    "80 to 100 grams onion or 1 medium to large onion or about 1/2 cup finely chopped onion", 
    "1 teaspoon ginger-garlic paste or 2 to 3 garlic cloves and 1/2 inch ginger - crushed to a paste in mortar-pestle", 
    "1 small to medium capsicum (green bell pepper or shimla mirch) Or about 1/3 cup chopped capsicum", 
    "1 or 2 green chilies (hari mirch) - slit", 
    "1/4 teaspoon turmeric powder (haldi)", 
    "1/2 teaspoon kashmiri red chili powder", 
    "1/2 teaspoon cumin powder (jeera)", 
    "1/2 teaspoon coriander powder (dhania powder)", 
    "1/4 teaspoon garam masala powder", 
    "1 to 2 pinch grated nutmeg or nutmeg powder (jaiphal powder)", 
    "1 teaspoon kasuri methi (dry fenugreek leaves) - crushed", 
    "2 to 3 tablespoon low fat cream or whipping cream", 
    "1 to 2 tablespoon chopped coriander leaves (dhania patta)"
  ], 
  "Summary": "mushroom tikka masala recipe - restaurant style recipe of mushroom tikka masala gravy.", 
  "Preparation time": {
    "Prep Time": "1 hrs", 
    "Cook Time": "30 mins", 
    "Total Time": "1 hrs 30 mins"
  }, 
  "Instructions": [
    "we will need hung curd/yogurt or thick yogurt for this mushroom tikka masala.", 
    "i used 1/2 cup fresh curd and strained it in a muslin cloth with a light weight kept on it, overnight in the fridge. from 1/2 cup fresh curd, i got 4 tbsp hung curd. if using thick curd, then also use 4 tbsp of it.", 
    "now add 4 tbsp of the hung curd or thick curd in a bowl along with 1/8 tsp turmeric powder or 2 to 3 pinches of turmeric powder, 1/2 tsp garam masala powder, 1/2 tsp kashmiri red chili powder, 1/2 tsp chaat masala powder, 1 to 1.5 tsp ginger-garlic paste, 1/2 tsp carom seeds/ajwain, 1/4 tsp lemon juice and 1/2 tbsp besan or gram flour.", 
    "mix the marinade mixture very well.", 
    "you can also add 1/2 tbsp oil if grilling the mushroom tikka in oven or a tandoor grill. if pan frying or sauteing, then no need to add oil.", 
    "now add mushrooms to the marinade mixture.", 
    "with your hands, gently mix and coat the mushrooms with the marinade.", 
    "cover the bowl with a lid & allow the mushrooms to get marinated for 30 minutes at room temperature or in the fridge. you can also keep for a couple of hours in the fridge.", 
    "meanwhile add 2 large tomatoes and 8 to 10 cashews in a bowl containing hot water. cover and keep aside for 20 to 30 minutes.", 
    "the tomatoes will get blanched and the cashews will soften. you can heat the water on a stove top, in a microwave or in an electric heater.", 
    "after 20 to 30 minutes, chop the blanched tomatoes. you can also remove the peels if you want.", 
    "add the tomatoes along with its juices and the cashews to a grinder or blender jar. without adding any water grind to a smooth paste.", 
    "chop the onions and capsicum too. crush the ginger-garlic to a paste in mortar-pestle. slit the green chilies.", 
    "line the pan with an aluminium foil. thread the mushrooms on a skewer and bake/grill for 20 to 25 minutes in a preheated oven at 200 degrees celsius.", 
    "you can also brush oil on the mushrooms before baking and its optional.", 
    "heat 3 to 4 tbsp oil in a pan. add the marinated mushrooms.", 
    "let each side of the mushrooms get cooked a bit and then turn over.", 
    "use a well seasoned pan or non stick pan for sauteing the mushrooms, otherwise the marinade sticks to the pan. saute the mushrooms on a low to medium flame.", 
    "turn over and saute so that each side gets browned and cooked well.", 
    "a time will come when the mushrooms will begin to release water and the oil will begin to splutter.", 
    "just cover the pan with a lid half way and continue to cook the mushrooms.", 
    "saute till mushrooms are nice golden and crisp.", 
    "remove them with a slotted spoon and keep aside.", 
    "in the same oil, add 1/2 cup finely chopped onions. if you have grilled all the mushrooms, then just heat 2 tbsp oil.", 
    "stir very well and begin to saute the onions on a low to medium flame.", 
    "saute till the onions start turning golden.", 
    "next add 1 tsp ginger-garlic paste. stir and saute till the raw aroma of ginger-garlic goes away.", 
    "now add 1/3 cup chopped capsicum (green bell pepper) and slit 1 to 2 green chilies. green chilies give the dish some heat. skip if making for kids and if you cannot tolerate heat.", 
    "stir and saute for a minute.", 
    "now add all the dry spice powders - 1/2 tsp kashmiri red chili powder or deghi mirch, 1/2 tsp cumin powder, 1/2 tsp coriander powder.", 
    "stir the dry spice powders very well with the rest of the mixture.", 
    "add the tomato-cashew paste. stir again.", 
    "also add the leftover marinade. stir and saute for 4 to 5 minutes.", 
    "now add 1 cup water. stir so that the water gets evenly mixed with the rest of the masala.", 
    "add salt as required. add 1/4 to 1/2 tsp sugar or as required.", 
    "bring the curry or gravy to a simmer for 4 to 5 minutes.", 
    "add the sauteed or grilled mushrooms.", 
    "add 1/4 tsp garam masala powder, a pinch or two of grated nutmeg or nutmeg powder and 1 tsp kasuri methi (crushed).", 
    "add 2 to 3 tbsp low fat cream or whipping cream. substitute for fresh cream is 1 tbsp milk powder or 1 tbsp grated khoya. if using either, then add them after you add the tomato-cashew paste and saute.", 
    "stir very well and then switch off the flame.", 
    "check the taste of mushroom tikka masala gravy and add more salt or sugar if required.", 
    "lastly add 1 to 2 tbsp chopped coriander leaves.", 
    "stir and", 
    "serve mushroom tikka masala hot", 
    "with tandoori rotis, butter naan or chapatis or phulkas."
  ]
}