{
  "Recipe name": "namak pare recipe", 
  "Cuisine": "Indian", 
  "Image ID": "472b9ed5-44c6-4310-ab53-fcb0fead51f1", 
  "Ingredients": [
    "1 cup atta (wheat flour flour)", 
    "1 cup maida (white flour or all purpose flour)", 
    "1 teaspoon ajwain (carom seeds)", 
    "1 teaspoon crushed black pepper (kali mirch powder) - optional", 
    "1 teaspoon cumin seeds (jeera) - optional", 
    "1/4 teaspoon baking soda", 
    "2 to 3 tablespoon oil or ghee - i used sunflower oil", 
    "1/2 to 3/4 cup water", 
    "salt to taste", 
    "oil for frying"
  ], 
  "Summary": "namak pare is a savory and fried flour crispies and usually had with indian chai.", 
  "Preparation time": {
    "Prep Time": "35 mins", 
    "Cook Time": "30 mins", 
    "Total Time": "1 hrs 5 mins"
  }, 
  "Instructions": [
    "sieve the whole wheat flour (atta), white flour (maida), baking soda and salt together.", 
    "add the ajwain. mix the carom seeds with the rest of the sieved flours.", 
    "add the oil or ghee. add water and start to knead the dough.", 
    "the dough should not be soft, but firm.", 
    "take medium sized balls from the dough and roll them on a dusted flour.", 
    "roll into a disc neither too thin nor too thick.", 
    "with a serrated knife make criss cross patterns on the rolled dough.", 
    "remove the diamond shaped patterns and deep fry them in hot oil till crisp and golden browned.", 
    "drain the namak pare on paper napkins to remove excess oil.", 
    "once they cool down, then store namak pare in an airtight box.", 
    "you can serve namak para with tea or as a snack."
  ]
}