{
  "Recipe name": "namkeen sattu recipe | sattu ka ghol recipe", 
  "Cuisine": "bihar, north indian", 
  "Image ID": "e0f9e518-03d3-45cd-8cd6-a2c44e1db9cf", 
  "Ingredients": [
    "750 ml chilled water", 
    "4 tablespoon sattu (roasted black chickpea flour)", 
    "1/2 teaspoon black salt or add as required", 
    "1/2 teaspoon roasted cumin powder (bhuna jeera powder)", 
    "1/4 teaspoon black pepper powder (kali mirch powder) - optional", 
    "3 teaspoon lemon juice or juice of 1 small lemon or lime", 
    "2 teaspoon chopped coriander leaves (dhania patta)", 
    "2 teaspoon chopped mint leaves (pudina patta)"
  ], 
  "Notes": "recipe can be doubled or tripled.spices can be added as per your taste.", 
  "Summary": "sattu ka ghol - savory summer drink made with roasted black chickpeas flour, black salt, herbs & spices.", 
  "Preparation time": {
    "Prep Time": "5 mins", 
    "Total Time": "5 mins"
  }, 
  "Instructions": [
    "in a mug or pan, add 4 tbsp sattu.", 
    "add 1/2 tsp roasted cumin powder.", 
    "add 3 tsp lemon juice.", 
    "add 1/2 tsp black salt.", 
    "pour 750 ml chilled water.", 
    "with a spoon, stir and mix well. break small lumps if any with the spoon.", 
    "lastly add 2 tsp each of chopped mint and coriander leaves. you can skip one of them, if you do not have. you can also add green chilies and finely chopped onions if you prefer. you can also add black pepper powder.", 
    "pour in glasses and serve sattu drink. you can also keep in refrigerator and then serve later."
  ]
}