{
  "Recipe name": "palak pakora recipe for navratri fasting or vrat", 
  "Cuisine": "north indian", 
  "Image ID": "e0252010-9229-44ba-9caa-a1bb49926070", 
  "Ingredients": [
    "1 cup kuttu ka atta or buckwheat flour", 
    "1 cup chopped palak or spinach leaves - tightly packed", 
    "1 green chili (hari mirch) OR 1/4 teaspoon red chili powder (lal mirch powder)", 
    "2 tablespoon peanuts (moongphali)", 
    "rock salt or sendha namak as required", 
    "water as required"
  ], 
  "Summary": "vrat ke palak pakore recipe - spinach fritters made during fasting with buckwheat flour and spinach.", 
  "Preparation time": {
    "Prep Time": "5 mins", 
    "Cook Time": "25 mins", 
    "Total Time": "30 mins"
  }, 
  "Instructions": [
    "roast the peanuts in a small pan till they become crisp.", 
    "when they cool, coarsely crush them in a mortar-pestle.", 
    "rinse the spinach leaves and finely them.", 
    "in a bowl, mix everything including the coarsely powdered peanuts.", 
    "add very little water and make a thick batter.", 
    "heat oil for shallow or deep frying in kadai or pan.", 
    "drop spoonfuls of the batter in the hot oil and fry till crisp and golden on both sides.", 
    "serve the vrat palak pakora with coriander chutney, coconut chutney or homemade tomato sauce."
  ]
}