{
  "Recipe name": "paneer pulao recipe", 
  "Cuisine": "Indian", 
  "Image ID": "79fd7a63-ef97-4c7c-a74c-781f19d9ba18", 
  "Ingredients": [
    "1/2 teaspoon cumin seeds (jeera)", 
    "1/2 teaspoon caraway seeds (shah jeera)", 
    "1/4 teaspoon fennel seeds (saunf)", 
    "1 black cardamom (badi elaichi) - seeds removed and husks discarded", 
    "2 to 3 green cardamom (choti elaichi or hari elaichi) - kept whole or seeds removed", 
    "2 to 3 cloves (laung)", 
    "1 inch cinnamon (dalchini)", 
    "1 single strand of mace (javitri)", 
    "a small piece of stone flower (rock flower or pathar phool or dagad phool or kalpasi)", 
    "1.5 cups basmati rice or pulao rice", 
    "250 to 300 grams paneer (cottage cheese)", 
    "1 medium to large onion, thinly sliced", 
    "cup peas (matar) - optional", 
    "2 tablespoon ghee or oil for the pulao", 
    "2 to 3 teaspoon ghee or oil for pan frying the paneer", 
    "3 to 3.25 cups water", 
    "1/2 inch ginger (adrak) + 2 to 3 garlic cloves (lahsun) + 1 green chilli (hari mirch) - crushed in a mortar-pestle to a paste", 
    "1 tej patta (indian bay leaf)", 
    "1 to 1.25 teaspoon lemon juice", 
    "1.5 to 2 tablespoon chopped mint leaves (pudina patta)", 
    "salt as required"
  ], 
  "Notes": "for pressure cooking paneer pulao:", 
  "Summary": "paneer pulao recipe - fragrant and lightly spiced paneer pulao made with freshly ground pulao masala.nutrition info is per servingNutrition Factspaneer pulao recipe Amount Per Serving Calories 421 Calories from Fat 109 % Daily Value* Total Fat 12.1g 19% Saturated Fat 6.6g 33% Polyunsaturated Fat 0.6g Monounsaturated Fat 3.2g Cholesterol 32.5mg 11% Sodium 823.9mg 34% Potassium 263.5mg 8% Total Carbohydrates 64.6g 22% Dietary Fiber 2.9g 12% Sugars 3.9g Protein 13.3g 27% Vitamin A 12% Vitamin C 15% Calcium 11% Iron 22%* Percent Daily Values are based on a 2000 calorie diet.", 
  "Preparation time": {
    "Prep Time": "30 mins", 
    "Cook Time": "20 mins", 
    "Total Time": "50 mins"
  }, 
  "Instructions": [
    "in a small dry grinder or coffee grinder, add all the spices mentioned for the pulao masala.", 
    "grind to a semi fine to fine powder. keep aside.", 
    "rinse the basmati rice till the water becomes clear of the starch.", 
    "soaked the basmati rice in an enough water for 30 minutes. after 30 minutes drain and keep the rice aside.", 
    "slice the onions thinly. chop the mint leaves and keep aside.", 
    "crush the ginger, garlic and green chilli to a paste in a mortar-pestle.", 
    "heat ghee in a pot or a pan. add the bay leaf and saute for 2-3 seconds.", 
    "then add the thinly sliced onions and saute till the onions start to turn golden brown or caramelize.", 
    "then add the ginger, garlic and green chilli paste. saute till the raw aroma of ginger garlic goes away. (on a low flame, it will take approx 10-15 seconds).", 
    "add the chopped mint leaves and the ground pulao masala. stir for 5-8 seconds.", 
    "optional step - if you are adding peas then add now and saute for 2-3 minutes.", 
    "add the drained rice. stir gently and saute for a minute. add water, lemon juice and salt.", 
    "stir well. cover the pan tightly with a lid. make sure no steam escapes from the sides.", 
    "on a low to medium flame, simmer till the rice grains are cooked. if the water dries in the pan then add some more water.", 
    "when the rice is cooking, chop the paneer into cubes.", 
    "heat ghee on a tawa or a frying pan. use a non-stick pan or a well seasoned tawa/griddle to pan fry the paneer. otherwise the paneer cubes will stick to the pan.", 
    "add the paneer cubes and pan fry till light golden. don't over fry as then they will become dense and rubbery. keep the pan fried paneer cubes aside.", 
    "once the rice is cooked", 
    ", just allow the rice to sit for 5 minutes.", 
    "then add the pan fried paneer cubes and gently mix it with the rice.", 
    "cover the pan again with a lid and allow the paneer to be in the rice for another 5 minutes.", 
    "this makes the paneer soft and it also absorbs the aroma of the pulao.", 
    "serve paneer pulao hot", 
    "garnished with some mint leaves and pan fried paneer cubes.", 
    "you can serve raita or dal fry or dal tadka with the paneer pulao."
  ]
}