{
  "Recipe name": "paneer tikka masala recipe restaurant style", 
  "Cuisine": "north indian, Punjabi", 
  "Image ID": "c0a5499b-37ca-4df7-b795-43806ffe7a57", 
  "Ingredients": [
    "250 to 300 grams paneer (cottage cheese) - cut into cubes or squares", 
    "1 medium bell pepper (capsicum or shimla mirch - green, red, yellow) - diced", 
    "1 medium onion - halved and the layers removed", 
    "6 tablespoon thick curd (yogurt or dahi) or hung yogurt (hung curd)", 
    "1/2 inch ginger + 2 small garlic - crushed to a smooth paste in mortar-pestle. OR about 1/2 teaspoon ginger-garlic paste", 
    "1 teaspoon lime juice", 
    "1/2 teaspoon kashmiri red chili powder or deghi mirch or red chili powder", 
    "1/2 teaspoon garam masala powder or tandoori masala powder", 
    "1/4 teaspoon turmeric powder (haldi)", 
    "2 to 3 pinches of nutmeg powder or grated nutmeg (jaiphal powder)", 
    "a generous pinch of crushed saffron (kesar) or saffron powder - optional", 
    "1 tablespoon corn starch OR besan (gram flour)", 
    "1/2 to 1 teaspoon oil for brushing", 
    "1/2 teaspoon salt or as required", 
    "2 medium onions OR 1 large onion OR 100 grams onion - peeled and halved", 
    "3 medium tomatoes OR 200 grams tomatoes", 
    "3 to 4 garlic cloves+ 1/2 inch ginger - crushed in a mortar-pestle to a paste. OR about 1 teaspoon ginger-garlic paste", 
    "2 to 2.5 tablespoon fresh full fat curd (yogurt or dahi) - whisked well till smooth", 
    "1 teaspoon coriander powder (dhania powder)", 
    "1/2 teaspoon cumin powder (jeera powder) - optional", 
    "1/2 teaspoon garam masala powder", 
    "1/2 teaspoon red chili powder or kashmiri red chili powder or deghi mirch", 
    "1/4 teaspoon turmeric powder (haldi)", 
    "1/2 teaspoon crushed kasuri methi (dry fenugreek leaves)", 
    "1/2 cup water or add as required", 
    "3 to 4 tablespoon low fat cream - 25% to 35% low fat (i used amul cream)", 
    "2 tablespoon oil OR 2 tablespoon butter", 
    "1/2 to 1 teaspoon sugar (optional)", 
    "a few coriander leaves for garnishing", 
    "salt as required"
  ], 
  "Summary": "paneer tikka masala recipe - marinated grilled paneer cubes in onion-tomato yogurt based curry.", 
  "Preparation time": {
    "Prep Time": "1 hrs 30 mins", 
    "Cook Time": "30 mins", 
    "Total Time": "2 hr"
  }, 
  "Instructions": [
    "whisk the hung curd/yogurt till smooth in a large bowl. you can also use a really thick curd instead of hung curd.", 
    "add all the ginger-garlic paste, spice powders, corn starch or gram flour & salt. mix well.", 
    "add the paneer cubes, onions, bell pepper.", 
    "gently mix again so that the marination coats the paneer, onions and bell peppers evenly. cover the bowl & marinate for a minimum of 1 hour or overnight in the refrigerator.", 
    "line a baking tray or pan with aluminum foil. this method makes its easier to clean the pan later.", 
    "thread the paneer cubes on a bamboo or metal skewers and place them on the prepared pan. preheat the oven to 200 degrees celsius/390 degrees fahrenheit for at least 10 minutes before you grill the tikkas. for a regular oven, keep both the top and bottom elements on and keep the pan in the center rack. for a microwave oven use the convection mode and preheat at 180 degrees celsius/350 degrees fahrenheit.", 
    "brush about 1/2 tsp oil evenly on the paneer and bell pepper cubes.", 
    "grill the paneer in an preheated oven at 200 degrees C/390 degrees fahrenheit for 15-25 minutes (depending on the oven temperatures). i have a really slow oven, so it took 28 mins for the paneer cubes to be grilled and browned at the edges. just keep an eye when the paneer is getting grilled in the oven. for a microwave oven in the convection mode, use 180 degrees celsius/350 degrees fahrenheit for grilling the tikka.", 
    "heat about 1/2 tbsp oil in a pan. place the threaded paneer tikka with the skewers on the pan.", 
    "gently rotate the skewers, when one side is crisp and browned. keep on rotating till all the sides are browned. add more oil if required, while frying. keep the fried paneer tikka aside.", 
    "boil water with a pinch of salt. add halved onions and tomatoes to the boiling water. cook for one or two minutes. switch off. cover and keep aside for 15 to 20 minutes. you can also add cashews to the hot water. adding cashews gives a creamier consistency with a nice sweetness. later drain and chop the onions and tomatoes roughly. its not necessary to blanch, but blanching reduces the cooking time later.", 
    "later chop the onions roughly and make a smooth fine paste in a grinder or blender.", 
    "peel and roughly chop the tomatoes. make a smooth puree of the tomatoes in the grinder or blender. keep both the onion & tomato puree aside.", 
    "whisk or beat the yogurt till smooth and keep aside. there should be no lumps in the yogurt and it should be beaten well.", 
    "in the same pan, heat 2 tbsp oil and then add the onion paste.", 
    "stir often and saute till the onions paste turns golden.", 
    "add ginger garlic paste and saute till the raw aroma of ginger-garlic goes away.", 
    "add the tomato puree. stir well and saute till you see fat leaving sides of the masala.", 
    "now add all the dry spice powders - turmeric, red chili powder, coriander powder and garam masala/tandoori masala.", 
    "stir well so that the spices are incorporated in the masala paste evenly.", 
    "now remove the pan from the fire. add beaten fresh curd/yogurt. removing the pan from fire, won't allow the yogurt to curdle. use full fat and fresh curd.", 
    "stir well. add water and salt. stir again.", 
    "simmer for 5 to 6 minutes or till the gravy thickens and you see fat floating on the top. you can keep the consistency from medium to slightly thick. the consistency can be altered by adding more or less water.", 
    "add cream and kasuri methi (dry fenugreek leaves). stir well and simmer on a low flame for a minute. check the taste and add more salt or cream if you prefer. you can also about 1/2 to 1 tsp of sugar for a light sweet taste.", 
    "then add the paneer tikka along with the veggies. stir again and switch off the flame.", 
    "garnish with coriander leaves & serve paneer tikka masala with some naan, rotis or jeera rice."
  ]
}