{
  "Recipe name": "paneer ghee roast recipe", 
  "Cuisine": "", 
  "Image ID": "030d10b3-032a-402a-b2ae-1b7d3abdb69b", 
  "Ingredients": [
    "1 tablespoon ghee", 
    "2 teaspoons coriander seeds (sabut dhania)", 
    "1 teaspoon cumin seeds (jeera)", 
    "1/4 teaspoon fennel seeds (saunf)", 
    "1/4 teaspoon whole black pepper (sabut kali mirch)", 
    "20 fenugreek seeds (methi dana)", 
    "4 kashmiri red chillies or byadagi red chillies", 
    "2 guntur red chillies or hot red chillies", 
    "3 medium garlic cloves (lahsun)", 
    "1 teaspoon tightly packed tamarind (imli), seeds removed", 
    "6 tablespoons water for grinding", 
    "1 teaspoon lemon juice", 
    "2 tablespoons fresh curd (dahi or yogurt)", 
    "200 grams paneer (cottage cheese) - cut in cubes", 
    "salt as required", 
    "2 tablespoons ghee", 
    "cup chopped onion", 
    "10 to 12 curry leaves (kadi patta) - kept whole or roughly chopped", 
    "1/4 teaspoon turmeric powder (haldi)", 
    "1/4 cup water", 
    "1/2 teaspoon jaggery powder or add as required", 
    "salt as required"
  ], 
  "Notes": "tips for makingpaneer ghee roast recipe:", 
  "Summary": "paneer ghee roast recipe- simply delicious recipe of mangalorean style paneer ghee roast recipe.", 
  "Preparation time": {}, 
  "Instructions": [
    "heat 1 tablespoon ghee in a thick bottomed pan or kadai or a cast iron skillet. use a well seasoned pan.", 
    "once the ghee melts, add all the spices - 2 teaspoon coriander seeds, 1 teaspoon cumin seeds, 1/4 teaspoon fennel seeds, 1/4 teaspoon whole black pepper, 20 fenugreek seeds (methi dana), 4 kashmiri red chillies (or byadagi red chillies) and 2 guntur red chillies(or hot red chillies).", 
    "on a low flame stirring often roast the whole spices till they become aromatic.", 
    "once the spices are roasted well and aromatic, add 3 medium garlic cloves (lahsun) and 1 teaspoon tightly packed tamarind (imli). mix well and switch off the flame. let this spice mixture cool.", 
    "take all of the roasted spice mixture in a small grinder jar or chutney grinder.", 
    "add 6 tablespoons water and grind to a smooth paste. do not make the ground paste too thin. if you make the paste thin, then skip adding water later.", 
    "take all of the masala paste in a mixing bowl.", 
    "add 2 tablespoon fresh curd (dahi or yogurt), 1 teaspoon lemon juiceand salt as per taste.", 
    "add 200 grams paneer cubes. mix very well.", 
    "gently mix the paneer cubes with the masala so that the paneer cubes are well coated with the masala.", 
    "marinate paneer for 30 to 45 minutes. if keeping for a longer time, then refrigerate.", 
    "in the grinder jar, add 1/4 cup water and just swirl the jar, so that the masala paste which is stuck to the sides and bottom of the jar gets mixed with the water. you can also use a spatula or steel spoon to mix. keep aside.", 
    "heat 2 tablespoons ghee in the same pan.", 
    "add cup chopped onions.", 
    "next add 10 to 12 curry leaves (kadi patta) - kept whole or roughly chopped and 1/4 teaspoon turmeric powder (haldi).", 
    "mix very well and saut for 3 to 4 minutes or till the onions turn translucent on a low to medium-low flame.", 
    "now add all of the marinated paneer mixture. also add all the masala scraping the bowl.", 
    "mix very well.", 
    "add 1/2 teaspoon jaggery powder and mix again.", 
    "add 1/4 cup of masala mixed water or plain water.", 
    "mix again very well.", 
    "simmer for about 2 minutes on a low to medium-low flame. do not overcook the paneer as then the cubes will become dense and hard.", 
    "once done, then switch off the flame. the gravy will thicken and you will see specks of ghee on top.", 
    "serve paneer ghee roast hot garnish with some fried curry leaves or coriander leaves. you can also just serve paneer ghee roast without any garnish. accompany onion slices and lemon wedges."
  ]
}