{
  "Recipe name": "peshawari chole masala recipe", 
  "Cuisine": "asian, Punjabi", 
  "Image ID": "90ba7c82-5b51-4190-b171-9ff3dcf595fb", 
  "Ingredients": [
    "1 cup dried white chickpeas (chole or kabuli chana or safed chana)", 
    "2.5 cups water for pressure cooking", 
    "2 black cardamoms (badi elaichi)", 
    "1 inch cinnamon (dalchini)", 
    "2 to 3 cloves (lavang)", 
    "2 small or 1 medium to large tej patta (indian bay leaf)", 
    "3 to 4 pieces of dried amla Or 1 black tea bag", 
    "1/2 teaspoon salt or as required", 
    "70 grams onions Or 2/3 cup finely chopped onions - about 1 large onion, finely chopped", 
    "100 grams tomatoes Or 1 cup finely chopped tomatoes Or 3 medium to large tomatoes - finely chopped", 
    "1 to 1.5 teaspoon ginger garlic paste (adrak lahsun ka paste) Or 1/2 inch ginger + 4 to 5 garlic - crushed to a paste in a mortar-pestle", 
    "2 to 3 green chilies (hari mirch) - slit", 
    "1 teaspoon anardana powder (pomegranate seeds powder) Or 1 teaspoon amchur powder (dry mango powder). crush about 1/2 teaspoon dried roasted pomegranate seeds in a mortar-pestle or in a spice grinder. for more tang add 1 teaspoon more of anardana powder", 
    "1/2 teaspoon red chili powder (lal mirch powder)", 
    "1/2 teaspoon cumin powder (jeera powder)", 
    "1 teaspoon coriander powder (dhania powder)", 
    "1 teaspoon garam masala powder", 
    "1/2 cup stock or water", 
    "2 tablespoon chopped coriander leaves for garnish (dhania patta)", 
    "salt as required", 
    "1 medium onion, thinly sliced", 
    "1 medium lime or lemon, quartered or sliced"
  ], 
  "Notes": "substitutions you can make in peshawari chole masala recipe:", 
  "Summary": "peshawari chana masala recipe - spicy chana made peshawari style.", 
  "Preparation time": {
    "Prep Time": "20 mins", 
    "Cook Time": "25 mins", 
    "Total Time": "45 mins"
  }, 
  "Instructions": [
    "soak 1 cup dried white chickpeas overnight in water or for 8 to 9 hours. drain and rinse them.", 
    "in a cooker take the chickpeas, black cardamoms, cinnamon, cloves and tej patta along with dried amla. if you do not have dried amla, then either skip it completely or you can add 1 black tea bag.", 
    "add 2.5 cups water. pressure cook the chana for 10 to 12 whistles or till the chana have softened and completely cooked.", 
    "powder 1 tsp lightly roasted pomegranate seeds in a small grinder or mortar-pestle to a fine powder.", 
    "finely chop the onions and tomatoes. also crush the ginger and garlic to a paste in a mortar-pestle. slit the green chilies and chop the coriander leaves.", 
    "heat 2 tbsp oil + 1 tbsp ghee or 3 tbsp oil in a pan.", 
    "add 1 to 1.5 tsp ginger garlic paste and 2 to 3 slit green chilies. saute till the raw aroma of ginger-garlic goes away.", 
    "then add 2/3 cup chopped onions. stir and saute the onions on a low to medium flame till they turn golden.", 
    "then add 1 cup chopped tomatoes", 
    "add the spice powders - 1/2 tsp red chili powder, 1/2 tsp cumin powder, 1 tsp coriander powder.", 
    "mix very well and saute till the tomatoes become mushy and you see fat releasing from the sides of the masala.", 
    "now add the cooked chana. reserve the stock. stir very well.", 
    "add the pomengranate seeds powder. substitute 1 tsp dry mango powder if you do not have anaradana powder.", 
    "add 1/2 cup stock or water. i made a semi dry version, but you can have more gravy by adding 1 cup water.", 
    "season with salt. stir very well and simmer the chana masala till the gravy thickens.", 
    "mash a few chickpeas which helps in thickening the chana masala gravy.", 
    "simmer the gravy for about 12 to 14 minutes on a low to medium flame.", 
    "lastly add 1 tsp garam masala powder. stir and mix very well.", 
    "serve peshawari chole masala hot with some chapatis, naan, pooris or bhatura."
  ]
}