{
  "Recipe name": "pista ice cream recipe", 
  "Cuisine": "international", 
  "Image ID": "65e62695-46c4-40d2-befe-519e9927b230", 
  "Ingredients": [
    "1/2 cup chilled milk", 
    "1/2 cup sugar OR 75 grams sugar", 
    "2 to 2.25 cups chilled cream - 25 to 35 % fat or whipping cream", 
    "1/2 cup pista (pistachios) OR 60 grams pista, unsalted"
  ], 
  "Notes": "how to make pista ice cream without ice cream maker:", 
  "Summary": "pista ice cream recipe with step by step photos - easy pistachios ice cream made in an ice cream maker.", 
  "Preparation time": {
    "Prep Time": "20 mins"
  }, 
  "Instructions": [
    "take 1/4 cup of pistachios in a food chopper or grinder. grind the pista to a coarse powder. remove and keep aside.", 
    "now take another 1/4 cup of pistachios in the food chopper or grinder. just chop or grind them to small bits. remove and keep aside.", 
    "in a pan take, 1/2 cup chilled milk and 1/2 cup sugar.", 
    "mix very well till the sugar dissolves.", 
    "then add 2 to 2.25 cups chilled cream.", 
    "with a wired whisk mix the cream with the milk.", 
    "add the coarsely ground pista powder.", 
    "add a few drops of natural green food color. this is optional and you can skip it. mix.", 
    "now add this entire mixture in the ice cream maker. please follow the manufacturer's instructions before operating the ice cream maker.", 
    "churn the mixture till the ice cream is frozen and set.", 
    "lastly add the chopped pistachios and fold in the ice cream.", 
    "now you can remove the ice cream and serve directly or remove it in a box or container to be served later. there will be a bit of ice cream stuck to the walls of the ice cream maker bowl and it is difficult to scrape it. so wait for some 20 to 30 minutes. let the ice cream on the walls soften. then you can remove it.", 
    "serve pista ice cream just plain or as an after meal dessert."
  ]
}