{
  "Recipe name": "plain paratha recipe", 
  "Cuisine": "Indian", 
  "Image ID": "261418d2-7cfb-4742-9043-6f39747faf7a", 
  "Ingredients": [
    "2 cups whole wheat flour (atta)", 
    "1 to 2 teaspoon oil or ghee", 
    "1/2 teaspoon salt or add as required", 
    "water as required for kneading the dough", 
    "oil or ghee for roasting, add as required"
  ], 
  "Notes": "- the recipe can be doubled or tripled. - if the dough looks dry, then add some water. if the dough looks sticky and moist, then add some extra flour and knead again.", 
  "Summary": "plain paratha recipe - crisp as well as soft unleavened whole wheat flat indian bread. plain paratha are popular breakfast or tiffin recipe that can be served with pickle or any side veggie dish.", 
  "Preparation time": {
    "Prep Time": "35 mins", 
    "Cook Time": "30 mins", 
    "Total Time": "1 hrs 5 mins"
  }, 
  "Instructions": [
    "in a bowl take whole wheat flour. add salt, oil and water.", 
    "mix and then knead into a smooth soft dough.", 
    "add more water if required while kneading.", 
    "cover and keep the dough aside for 30 minutes.", 
    "pinch a medium sized ball from the dough. flatten and dust with some flour.", 
    "with a rolling pin, roll into a circle of about 4 inches diameter.", 
    "spread some ghee on the dough circle. fold in a half.", 
    "now spread some ghee on this half folded dough.", 
    "fold sideways and this time you will get a folded triangle.", 
    "dust some flour on the folded triangle. now begin to roll the folded triangle.", 
    "add some flour if required and roll into a circle of about 6 to 7 inches diameter.", 
    "roll a medium sized ball on a lightly dusted board to a circle of about 4 to 5 inches in diameter.", 
    "spread some ghee on the rolled dough.", 
    "bring one side of rolled dough towards the center and press lightly.", 
    "now spread again some ghee on the folded part.", 
    "fold the opposite side of the rolled dough on top of the folded part. press lightly.", 
    "again spread some ghee on this second folded part.", 
    "fold the right side and bring towards the center. spread some ghee on this fold too.", 
    "lastly fold the left side on top of the right fold.", 
    "sprinkle some flour on the folded paratha.", 
    "begin to roll. add some more flour if required while rolling. roll into a square paratha.", 
    "heat tava (griddle) and place the paratha on the tava. the tawa should be medium hot.", 
    "you will soon see the paratha puffing up from the base at some places.", 
    "flip the paratha when the base is 1/4 cooked. spread some ghee.", 
    "flip again when the second side is about 1/2 cooked. you will see brown spots now.", 
    "spread some ghee on this side now.", 
    "flip again a couple of times till you see more brown spots and the paratha is cooked evenly.", 
    "make all parathas this way. either serve them hot or stack them in a roti basket.", 
    "serve these plain parathas with any indian dal or vegetable curry or pickle."
  ]
}