{
  "Recipe name": "poha dosa recipe - atukula dosa recipe", 
  "Cuisine": "south indian", 
  "Image ID": "a85b0b85-5ea5-4b9d-88f5-ad63719d5c1a", 
  "Ingredients": [
    "1 cup idli rice OR parboiled rice OR regular rice like sona masuri rice, parmal rice", 
    "1/2 cup thick poha (flattened rice, parched rice)", 
    "2 tablespoons urad dal (husked black gram)", 
    "1/2 cup fresh curd", 
    "1 cup water for mixing with curd", 
    "1/4 teaspoon baking soda", 
    "1 teaspoon salt or add as per taste", 
    "oil as required"
  ], 
  "Summary": "poha dosa recipe - soft, spongy and porous dosa from andhra cuisine", 
  "Preparation time": {
    "Prep Time": "7 hr 20 mins", 
    "Cook Time": "30 mins", 
    "Total Time": "7 hr 50 mins"
  }, 
  "Instructions": [
    "in a bowl, take 1/2 cup fresh curd (dahi or yogurt) and 1 cup water. mix very well with a wired whisk to make buttermilk.", 
    "in an another bowl, take 1 cup idli rice OR parboiled rice OR regular rice like sona masuri rice, parmal rice. also add 1/2 cup thick poha (flattened rice) and 2 tablespoons urad dal (husked black gram).", 
    "rinse the rice, poha and urad dal a couple of times with water. then drain all the water.", 
    "now pour the prepared buttermilk (curd+water mixture) in the rinsed rice, poha and urad dal.", 
    "gently stir the mixture.", 
    "soak the rice, poha and urad dal in the buttermilk mixture for 2 to 3 hours.", 
    "drain and reserve the liquid. add the soaked rice, urad dal and poha in the blender jar.", 
    "grind to a smooth batter using all of the reserved liquid.", 
    "remove the batter in a bowl and add 1/4 teaspoon baking soda and 1 teaspoon salt. mix well.", 
    "ferment for 4 to 5 hours.", 
    "heat a tava or griddle. brush the pan with some oil.", 
    "take a ladle of batter.", 
    "spread in a circular motion with the back of a spoon.", 
    "make a slightly thick dosa.", 
    "drizzle oil around the edges and spread it.", 
    "cover the dosa with a lid.", 
    "cook poha dosa for 1 to 2 minutes or till the base is cooked and crisp and the top is soft and spongy.", 
    "flip the dosa and you can cook the other side if you want.", 
    "similarly make the rest of poha dosas.", 
    "serve poha dosa hot with coconut chutney or sambar."
  ]
}