{
  "Recipe name": "pomegranate raita recipe", 
  "Cuisine": "Indian", 
  "Image ID": "da81d86a-53a5-4294-b670-bddb41dfedca", 
  "Ingredients": [
    "1.5 cups chilled yogurt (curd or dahi) - dairy or vegan", 
    "3/4 cup fresh pomegranate arils (anardana)", 
    "1/2 teaspoon roasted cumin powder (bhuna jeera powder)", 
    "1/4 teaspoon black pepper powder (kali mirch powder)", 
    "1 pinch red chili powder (lal mirch powder), or as required", 
    "1/4 teaspoon chaat masala powder (optional)", 
    "1 pinch of black salt or rock salt. add rock salt if making for religious fasting or vrat", 
    "sugar as required", 
    "a few coriander leaves or mint leaves for garnish"
  ], 
  "Notes": "while making pomegranate raita for kids, skip the black pepper powder and red chili powder.if using cashew yogurt, then to get a sour taste in the yogurt (as cashew yogurt has a sweet taste) add 1/2 tsp lemon juice or as required.", 
  "Summary": "pomegranate raita recipe - sweet raita made with fresh pomegranates and spiced with roasted cumin powder, black pepper and chaat masala.", 
  "Preparation time": {
    "Prep Time": "10 mins", 
    "Total Time": "10 mins"
  }, 
  "Instructions": [
    "whisk the yogurt till smooth.", 
    "season with the spice powders, salt and and sugar.", 
    "stir till sugar is dissolved.", 
    "add the pomegranate arils and reserve a few for garnish.", 
    "stir and pour the raita in serving bowls and garnish with the pomegranate pearls and coriander or mint leaves.", 
    "you can also chill and serve the pomegranate raita later."
  ]
}