{
  "Recipe name": "potato raita | aloo raita recipe", 
  "Cuisine": "north indian", 
  "Image ID": "44f99f04-847c-4ba1-863a-3e2c3f5460e9", 
  "Ingredients": [
    "1 cup curd (dahi or yogurt) or 250 grams dahi", 
    "2 medium or 1 large potato Or to 3/4 cup chopped boiled potatoes or 125 to 150 grams potato", 
    "1/2 teaspoon roasted cumin powder (bhuna jeera powder)", 
    "1/4 teaspoon red chili powder (lal mirch powder) or as required", 
    "1/4 to 1/2 teaspoon chaat masala, add as required", 
    "1 tablespoon chopped coriander leaves (dhania patta)", 
    "1/2 tablespoon chopped mint leaves or 4 to 5 mint leaves (pudina patta) - chopped", 
    "salt as required"
  ], 
  "Notes": "substitutes:chaat masala - dry pomegranate seeds powder or dry mango powder/amchur.red chili powder - cayenne pepper or green chiliespotato - sweet potato", 
  "Summary": "aloo raita recipe - simple and easy potato raita for pulao and biryani dishes.", 
  "Preparation time": {
    "Prep Time": "5 mins", 
    "Cook Time": "15 mins", 
    "Total Time": "20 mins"
  }, 
  "Instructions": [
    "firstly boil 2 medium or 1 large potato in pressure cooker or steamer. peel and chop the potatoes.", 
    "in a bowl, whisk 1 cup fresh curd till smooth and keep aside.", 
    "add the chopped potatoes.", 
    "then add the dry spices - 1/2 tsp roasted cumin powder, 1/4 tsp red chili powder, 1/4 to 1/2 tsp chaat masala powder. also add salt as required. you can also use black salt.", 
    "stir very well.", 
    "then add 1 tbsp chopped coriander leaves and 1/2 tbsp chopped mint leaves.", 
    "stir again and serve aloo raita with a veg pulao or any flavored indian rice. if not serving immediately, then refrigerate the potato raita. garnish with coriander or mint sprigs while serving. you can also sprinkle some boondi or sev while serving the raita."
  ]
}