{
  "Recipe name": "potato peas kurma recipe", 
  "Cuisine": "south indian", 
  "Image ID": "c4a4f8d0-0810-4689-b3f0-35b6df654669", 
  "Ingredients": [
    "1 cup peas (matar) - fresh or frozen", 
    "1 extra large potato OR 2 medium potatoes - diced", 
    "1 medium size onion - finely chopped", 
    "1 teaspoon coriander powder (dhania powder)", 
    "2 teaspoon fennel powder (saunf powder) * check notes", 
    "1/2 teaspoon turmeric powder (haldi)", 
    "1 medium size tej patta (indian bay leaf)", 
    "2 to 3 cloves (lavang)", 
    "1 inch cinnamon stick (dalchini)", 
    "2 to 2.5 cups water", 
    "2 to 3 tablespoon oil", 
    "salt as required", 
    "few coriander leaves for garnishing", 
    "2 teaspoon poppy seeds (khus khus)", 
    "2 tablespoon fresh coconut or unsweetened desiccated coconut", 
    "1/2 inch ginger (adrak) - chopped", 
    "2 to 3 kashmiri red chilies OR 1 to 2 dry red chilies (sookhi lal mirch)", 
    "6 to 7 whole cashews (kaju)"
  ], 
  "Notes": "* if you don't have fennel powder, then lightly roast 1.5 tsp fennel seeds and grind them along with the coconut, poppy seeds etc.* for preparing the kurma in pan - follow the recipe till you add the veggies. add 2.5 to 3 cups water and salt. cover and let the veggies cook till done", 
  "Summary": "potato peas kurma recipe - a south indian style potato peas korma made with coconut, poppy seeds, cashews and red chilies.", 
  "Preparation time": {
    "Prep Time": "20 mins", 
    "Cook Time": "10 mins", 
    "Total Time": "30 mins"
  }, 
  "Instructions": [
    "heat some water and soak the red chilies and cashews in the water for 15-20 mins.", 
    "rinse the peas and keep aside. rinse, peel and dice the potatoes.", 
    "in a grinder or blender, grind cashews, coconut, poppy seeds, ginger and red chilies with little water to a smooth paste.", 
    "heat 3 tbsp oil in a pressure cooker. add all the whole spices - bay leaf, cloves, cinnamon and fry till fragrant.", 
    "add the onions and saute them till golden brown. add the ground paste.", 
    "saute for 3-4 minutes or till the fat leaves the sides of the masala paste.", 
    "now add the spice powders one by one - turmeric powder, coriander powder and fennel powder.", 
    "stir & saute for a minute. add the peas, potato and salt. pour about 2 to 2.5 cups water.", 
    "pressure cook for 3 whistles on a medium to high flame or till the potatoes and peas are cooked.", 
    "if the gravy looks watery, then simmer till the gravy thickens a bit.", 
    "if the gravy looks dry, then add some water and simmer for some more time without the cooker lid.", 
    "garnish with coriander leaves and serve the potato peas kurma hot with some rotis, chapatis, phulka, paratha or rice."
  ]
}