{
  "Recipe name": "rajma pulao recipe", 
  "Cuisine": "north indian", 
  "Image ID": "6f938b81-4e54-405a-974a-54ef634bd571", 
  "Ingredients": [
    "1/2 cup rajma (kidney beans) or 90 to 100 grams rajma", 
    "2 cups water for pressure cooking", 
    "1/4 teaspoon salt (optional)", 
    "1 small to medium tej patta (indian bay leaf)", 
    "3 cloves (lavang)", 
    "2 to 3 green cardamoms (hari elaichi or choti elaichi)", 
    "1 black cardamom (badi elaichi)", 
    "1/2 inch cinnamon (dalchini)", 
    "1/2 teaspoon cumin seeds (jeera) - shahjeera also can be added instead of cumin seeds", 
    "1 inch ginger or 8 grams ginger (adrak)", 
    "6 to 7 garlic cloves or 7 to 8 grams garlic cloves (lahsun)", 
    "1 or 2 green chilies, chopped (hari mirch)", 
    "3 tablespoon oil", 
    "1 medium onion, thinly sliced or cup thinly sliced onions or 60 grams onion, thinly sliced", 
    "1/4 cup chopped coriander leaves (dhania patta)", 
    "1/4 teaspoon turmeric powder (haldi)", 
    "1/2 teaspoon red chili powder (lal mirch powder)", 
    "1/2 teaspoon coriander powder (dhania powder)", 
    "1 cup heaped basmati rice or 200 grams basmati rice, soaked in enough water for 30 minutes", 
    "1.75 to 2 cups water (do add water depending on the quality of basmati rice)", 
    "1/2 teaspoon lemon juice", 
    "salt as required", 
    "1 to 2 tablespoon chopped coriander leaves for garnish (dhania patta)"
  ], 
  "Notes": "- for cooking kidney beans in a pot or pan:take a deep bottomed pan or pot. add 2.5 to 3 cups of water along with the kidney beans. cover the pan and on a medium to high flame cook the beans. if required add more hot water.- for cooking pulao in a pot.add 2 cups water. on a low to medium flame, cover and cook till rice is done.", 
  "Summary": "rajma pulao recipe - aromatic spiced rice pulao made with kidney beans.", 
  "Preparation time": {
    "Prep Time": "9 hr", 
    "Cook Time": "35 mins", 
    "Total Time": "9 hr 35 mins"
  }, 
  "Instructions": [
    "a night before or for 8 to 9 hours, rinse 1/2 cup rajma a couple of times and then soak in water.", 
    "the next day, discard the soaked water. then rinse the rajma beans again very well in running water. drain.", 
    "add the rinsed rajma to a pressure cooker along with 2 cups of water. you can also add 1/4 tsp salt if you want.", 
    "pressure cook rajma for 15 to 20 whistles or for 12 to 17 minutes. first i cooked rajma beans for 15 whistles and found that the beans were still uncooked from center. so i pressure cooked for 5 whistles more.", 
    "rajma has to be cooked very well. there should be no rawness or bite in the rajma. pressure cooking time will vary depending on quality of rajma.", 
    "when the pressure settles down in the cooker, then remove the lid. strain the rajma. keep aside.", 
    "before you keep the rajma for cooking, rinse 1 heaped cup basmati rice very well in water till the water runs clear of starch.", 
    "then soak the rice in enough water for 30 minutes. after 30 minutes strain the rice of all the water and keep aside.", 
    "in a mortar-pestle take 1 inch ginger (roughly chopped), 6 to 7 garlic cloves (roughly chopped) and 1 or 2 green chilies, chopped.", 
    "crush to a coarse paste. you can also use a small grinder to make this paste. keep aside.", 
    "thinly slice one medium onion. also chop coriander leaves and keep aside.", 
    "just rinse the same pressure cooker in which we cooked rajma beans, with water and then keep again on stove top. add 3 tbsp oil.", 
    "when the oil becomes hot, lower the flame and add these whole spices - 1 small to medium tej patta, 3 cloves, 2 to 3 green cardamoms, 1 black cardamom, 1/2 inch cinnamon and 1/2 tsp cumin seeds.", 
    "let the spices crackle.", 
    "now add 1/3 cup thinly sliced onions.", 
    "on a low to medium flame, begin sauteing the onions.", 
    "saute the onions till they start to become golden.", 
    "now add the crushed ginger+garlic+green chilli paste along with 1/4 cup chopped coriander leaves.", 
    "stir and saute till the raw aroma of ginger-garlic goes away. this takes a few seconds.", 
    "add the cooked rajma beans.", 
    "next add 1/4 tsp turmeric powder, 1/2 tsp red chili powder and 1/2 tsp coriander powder. mix well.", 
    "add the rice. season with salt.", 
    "gently stir and mix the rice and salt with the rest of the ingredients.", 
    "now add 2 cups water. you can add 1.75 cups to 2 cups of water. do add water depending on the quality of basmati rice.", 
    "lastly add 1/2 tsp lemon juice.", 
    "cover and pressure cook rajma pulao on a medium to high flame for 2 to 3 whistles or 8 to 9 minutes.", 
    "when the pressure comes down on its own, open the lid and gently fluff the rajma pulao.", 
    "garnish with some chopped coriander leaves and serve rajma pulao hot with your favorite raita or salad or pickle."
  ]
}