{
  "Recipe name": "rajma masala recipe restaurant style", 
  "Cuisine": "Punjabi", 
  "Image ID": "7370009c-4fc5-4fb4-b38f-30aa528e725b", 
  "Ingredients": [
    "1 cup rajma OR kidney beans (any variety)", 
    "1 large onion OR 150 grams onions OR about 3/4 to 1 cup finely chopped onions (pyaaz)", 
    "3 medium or 2 large tomatoes OR 250 grams tomatoes OR 1 cup finely chopped tomatoes (tamatar)", 
    "3 to 4 medium garlic + 1 inch ginger + 1 to 2 green chilies - crushed to a paste in a mortar-pestle OR about 1 tablespoon ginger + garlic + green chili paste.", 
    "1 teaspoon coriander powder (dhania powder)", 
    "1/4 to 1/2 teaspoon red chili powder (lal mirch powder)", 
    "1/4 teaspoon turmeric powder (haldi powder)", 
    "1 pinch asafoetida (hing) - optional", 
    "1/4 to 1/2 teaspoon garam masala powder", 
    "1/2 teaspoon cumin seeds (jeera)", 
    "1 teaspoon crushed kasuri methi (dry fenugreek leaves)", 
    "2 tablespoon butter + 1 tablespoon oil OR 3 tablespoon butter", 
    "2 to 3 tablespoon cream", 
    "3.5 to 4 cups water for pressure cooking", 
    "1.5 to 2 cups of rajma stock (the water which is used to cook the rajma) OR plain water for the gravy or curry", 
    "salt as required"
  ], 
  "Notes": "few tips for making rajma masala recipe:1. to make this dish gluten free, omit the asafoetida (hing) in the recipe.2. canned kidney beans can also be used. in this case, just make the curry or sauce first and then add the rajma beans and water.3. its very important to soak the rajma beans overnight. always use fresh rajma as old rajma takes a long time to cook.4. rajma beans should be cooked very well and have the melt in the mouth texture.5. spices in the rajma masala gravy can be adjusted as per your taste.if cooking rajma in a pot or pan:first soak the rajma as usual for 8-9 hours. drain them and rinse them with fresh water. then in a huge pot, boil enough water first. add the rajma and salt. cook covered for about 45 to 1 hour or more if required. it takes a long time to cook rajma without a pressure cooker.", 
  "Summary": "rajma masala restaurant style recipe - lightly spiced, creamy and a popular punjabi curry made with kidney beans.nutrition info is per servingNutrition Factsrajma masala recipe restaurant style Amount Per Serving Calories 231 Calories from Fat 88 % Daily Value* Total Fat 9.8g 15% Saturated Fat 4.5g 23% Trans Fat 0.2g Polyunsaturated Fat 1.5g Monounsaturated Fat 3.1g Cholesterol 18.9mg 6% Sodium 494.9mg 21% Potassium 712.2mg 20% Total Carbohydrates 28.3g 9% Dietary Fiber 10.8g 43% Sugars 3.6g Protein 10g 20% Vitamin A 9% Vitamin C 19% Calcium 9% Iron 21%* Percent Daily Values are based on a 2000 calorie diet.", 
  "Preparation time": {
    "Prep Time": "9 hr", 
    "Cook Time": "45 mins", 
    "Total Time": "9 hr 45 mins"
  }, 
  "Instructions": [
    "rinse and soak the rajma or kidney beans in enough water overnight or for 8-9 hours.", 
    "next day, discard the water and rinse the beans again in fresh water.", 
    "in a pressure cooker, take both the rajma and 4 cups water.", 
    "pressure cook on a medium to high flame for 15-20 minutes.", 
    "when the rajma is cooking, you can chop the onions, tomatoes etc.", 
    "when the pressure settles down on its own, open the lid,", 
    "check if the rajma is cooked or not by taking a bite or pressing a bean.", 
    "if they are not cooked completely, then pressure cook again adding some water if required for some minutes.", 
    "heat oil + butter in another pot or pan. add cumin first and let them crackle & get browned.", 
    "then add onions and saute them till they caramelized or golden browned.", 
    "take care not to burn them as this will impart bitter tones in the curry.", 
    "light browning the onions is also alright.", 
    "keep on stirring the onions while sauting them, for uniform cooking and also so that they don't get burnt.", 
    "add the ginger-garlic-chili paste. stir and saute for 5-10 seconds on a low flame.", 
    "add the tomatoes. saute for 2-3 minutes till the tomatoes become soft.", 
    "add all the spice powders one by one - turmeric powder, red chili powder, coriander powder, asafoetida/hing and garam masala powder.", 
    "stir and saute the whole masala mixture till the fat starts leaving the masala.", 
    "use a slotted spoon or a strainer and remove the beans and add them to the masala.", 
    "you can also strain the rajma first and keep it aside.", 
    "keep the stock also aside. stir and saute for a minute.", 
    "take 1.5 to 2 cups from the stock and add to the rajma.", 
    "add salt and stir the whole curry mixture.", 
    "simmer without a lid for 10-12 minutes or more till the curry thickens slightly. it should not be watery.", 
    "mash a few rajma beans with the spoon. this helps to thicken the curry.", 
    "when the rajma masala has thickened and comes to the right consistency which is neither too thick nor thin, then add the kasuri methi and cream.", 
    "stir & simmer rajma masala for 30 seconds to 1 minute. switch off the fire.", 
    "serve rajma masala restaurant style with steamed basmati rice, jeera rice or naan."
  ]
}