{
  "Recipe name": "red chutney for chaat recipes", 
  "Cuisine": "Indian", 
  "Image ID": "cc08577d-0bde-4f90-8386-0f1bb920d484", 
  "Ingredients": [
    "12 to 14 dry kashmiri red chilies", 
    "3/4 to 1 cup water for soaking red chilies", 
    "9 to 10 medium garlic (lahsun)", 
    "1/4 to 1/3 cup water or as required for grinding", 
    "salt as required"
  ], 
  "Summary": "spicy and hot red chutney for chaat snacks, made with just three ingredients - dry red chilies, garlic and salt. this chutney is versatile and can be added to chaat like sev puri, ragda patties, dahi sev batata puri, bhel puri and even to wraps, sandwiches or with pakoras (fritters). just a little is enough to spice up the dish.", 
  "Preparation time": {
    "Prep Time": "35 mins", 
    "Total Time": "35 mins"
  }, 
  "Instructions": [
    "break the chilies. deseed them if required.", 
    "soak the red chilies in hot water for about 30 mins. the water just needs to cover them.", 
    "peel and roughly chop the garlic.", 
    "drain the red chilies.", 
    "adding very little water grind both the red chilies and garlic in a chutney grinder or blender till smooth. the consistency of the chutney should be more towards thicker side or of medium consistency.", 
    "pour the red chutney in a small jar or bowl. cover and refrigerate.", 
    "when preparing chaat snacks, just add a small amount of red chili chutney while topping the chaat with other chutneys."
  ]
}