{
  "Recipe name": "restaurant style kadai paneer recipe", 
  "Cuisine": "Indian", 
  "Image ID": "849c52e5-6c78-44ca-863c-3c749caf9e2a", 
  "Ingredients": [
    "5 to 6 kashmiri red chilies", 
    "1.5 tablespoons coriander seeds (bhuna sabut dhania)", 
    "3 to 4 tablespoons oil", 
    "1 medium to large onion OR 90 grams onions - finely chopped or to 1/2 cup finely chopped onions", 
    "2 teaspoons ginger-garlic paste", 
    "5 to 6 medium tomatoes OR 400 grams tomatoes - finely chopped OR 2.5 to 3 cups finely chopped tomatoes", 
    "1 large capsicum - julienned or sliced OR 3/4 to 1 cup thinly sliced capsicum (bell peppers or shimla mirch)", 
    "1 or 2 green chilies - slit (hari mirch)", 
    "1/2 cup water OR add as required", 
    "1/2 teaspoon garam masala powder", 
    "250 grams paneer - cubed (cottage cheese)", 
    "1 teaspoon crushed kasuri methi (dry fenugreek leaves)", 
    "2 tablespoons chopped coriander leaves (cilantro leaves or dhania patta)", 
    "1 inch ginger, julienne", 
    "salt as required"
  ], 
  "Summary": "kadai paneer recipe - restaurant style semi dry curry made with cottage cheese, capsicum/green bell peppers and indian spices.", 
  "Preparation time": {
    "Prep Time": "5 mins", 
    "Cook Time": "25 mins", 
    "Total Time": "30 mins"
  }, 
  "Instructions": [
    "in a grinder or mortar-pestle take the coriander seeds and red chilies.", 
    "grind to a semi fine powder.", 
    "in a kadai heat 2 tbsp oil. add finely chopped onions and saute them till they turn translucent.", 
    "then add ginger-garlic paste. saute till the raw aroma of ginger-garlic goes away.", 
    "now add the finely chopped tomatoes. saute tomatoes for 3 to 4 mins.", 
    "then add the ground kadai masala to the tomatoes.", 
    "saute the tomatoes till the whole mixture become like a paste and starts to leave oil.", 
    "now add the capsicum julienne. saute the capsicum for some 3 to 4 minutes.", 
    "then add green chilies.add water.", 
    "mix very well and saute till the capsicum is half done.", 
    "then add salt and garam masala powder. mix these with the rest of the masala.", 
    "now add the paneer cubes. again mix very well.", 
    "lastly add kasuri methi, ginger julienne and coriander leaves. mix again.", 
    "serve the kadai paneer, hot with rotis or naans."
  ]
}