{
  "Recipe name": "sabudana bhel recipe", 
  "Cuisine": "Indian", 
  "Image ID": "42973835-fede-4f22-b2fb-58f734859289", 
  "Ingredients": [
    "1/2 cup sabudana (tapioca pearls)", 
    "1 medium sized potato, boiled and peeled", 
    "1 pinch red chili powder (lal mirch powder)", 
    "1 tablespoon peanuts (moongphali)", 
    "1 tablespoon cashews (kaju)", 
    "1 tablespoon chopped coriander leaves (dhania patta)", 
    "1/2 teaspoon chaat masala", 
    "2 teaspoon oil", 
    "few drops of lemon juice or as required", 
    "rock salt or sendha namak or upwas ka namak as required"
  ], 
  "Notes": "you can add some powdered sugar to sweeten the sabudana bhel if you prefer.", 
  "Summary": "", 
  "Preparation time": {
    "Prep Time": "4 hr", 
    "Cook Time": "15 mins", 
    "Total Time": "4 hr 15 mins"
  }, 
  "Instructions": [
    "rinse the sabudana well in water till the water runs clear.", 
    "soak the sabudana in enough water overnight or for 4-5 hours.", 
    "chop the potatoes and keep aside.", 
    "instead of using boiled potatoes, you can also fry the potatoes in oil.", 
    "drain and keep aside.", 
    "in a pan, dry roast the peanuts till they are browned and crisp.", 
    "remove and keep aside.", 
    "in the same pan, roast the cashews till golden.", 
    "remove and keep aside.", 
    "heat 2 tsp of oil in the same pan.", 
    "add the sabudana and continue to stir while sauting them.", 
    "stir and cook till the sabudana pearls become transparent, softened and completely cooked.", 
    "mix the chopped potatoes, peanuts, cashews, coriander leaves, lemon juice, rock salt, red chili powder, chaat masala.", 
    "garnish with a few coriander leaves. an optional step.", 
    "serve the sabudana bhel in bowls and serve immediately."
  ]
}