{
  "Recipe name": "sabudana pakora recipe", 
  "Cuisine": "north indian", 
  "Image ID": "1e9ff121-9f13-4817-89e0-f558942649d1", 
  "Ingredients": [
    "1/2 cup sabudana (tapioca pearls)", 
    "1 large potato (aloo)", 
    "3/4 teaspoon cumin seeds (jeera)", 
    "1/2 to 1 teaspoon sugar", 
    "1 green chili (hari mirch), chopped", 
    "2 tablespoon kuttu ka atta (buckwheat flour)", 
    "1/4 cup peanuts (moongphali)", 
    "rock salt or sendha namak as required"
  ], 
  "Notes": "if making for kids or folks who cannot tolerate chilies, then skip the green chili completely.", 
  "Summary": "sabudana pakora recipe - crisp, golden fritters made from tapioca pearls, mashed potatoes and roasted crushed peanuts.", 
  "Preparation time": {
    "Prep Time": "8 hr", 
    "Cook Time": "20 mins", 
    "Total Time": "8 hr 20 mins"
  }, 
  "Instructions": [
    "soak the sabudana or tapioca pearls in enough water overnight or for 4-5 hours.", 
    "drain and keep aside in a mixing bowl.", 
    "boil the potatoes, peel and chop roughly.", 
    "roast the peanuts in a pan till browned and crisp.", 
    "in a mortar-pestle, coarsely crush the roasted peanuts.", 
    "add all ingredients to the drained sabudana, including the chopped potatoes and peanuts.", 
    "mix well.", 
    "check the taste and add more salt or sugar if required.", 
    "heat oil in a kadai or pan.", 
    "make small balls with your hands or using a spoon drop the mixture in to medium hot oil.", 
    "let the pakoras become opaque and then turn them with a slotted spoon.", 
    "deep fry till the sabudana pakoras become light golden and crisp.", 
    "drain the pakoras on paper napkins to remove excess oil.", 
    "serve sabudana pakoras hot with tomato sauce or green chutney or coconut chutney. if you are making these sabudana pakoras for fasting then serve them with phalahari chutney."
  ]
}