{
  "Recipe name": "sabudana chiwda recipe", 
  "Cuisine": "Indian", 
  "Image ID": "bc4f94e0-c9e3-4c2b-93e8-82fc36335fe6", 
  "Ingredients": [
    "1/2 cup nylon sabudana large pearls", 
    "1/4 cup peanuts (moongphali)", 
    "1/4 cup raisins (kishmish)", 
    "1/4 cup cashews (kaju)", 
    "1/4 teaspoon red chili powder (lal mirch powder) Or 1 green chili (hari mirch) - chopped", 
    "1/2 teaspoon powdered sugar or as required", 
    "rock salt as required", 
    "oil for deep frying"
  ], 
  "Notes": "the recipe can be doubled or tripled. if using green chilies, then fry them in oil.", 
  "Summary": "sabudana chiwda recipe - fasting snack made from nylon sabudana & dry fruits for the navratri fasts.", 
  "Preparation time": {
    "Prep Time": "5 mins", 
    "Cook Time": "25 mins", 
    "Total Time": "30 mins"
  }, 
  "Instructions": [
    "in a metal frying strainer, take the nylon sabudana pearls.", 
    "heat oil for deep frying in a kadai/wok. heat as much quantity, in which the pearls can get immersed completely. place the metal frying strainer with 2 to 3 tbsp of the sabudana pearls in the oil. don't over crowd as then the frying is not even.", 
    "when the pearls come in contact with the hot oil, they will start puffing up.", 
    "with a spoon, keep on turning them around, so that they are fried evenly.", 
    "the pearls have to fried really well. even if they look, crisp and done from out, they will be hard from inside. to check for doneness, you can bite into a few pearls. if you feel they are not cooked from the center, then continue to fry them. if theyremove and drain the fried pearls on kitchen paper issues.", 
    "now fry raw peanuts the same way in the oil, till they change color and become crunchy. similarly fry the cashews and raisins. when frying the raisins, as soon as they puff up, remove them from oil", 
    "as soon as the dry fruits are fried and golden, drain them on paper napkins.", 
    "you can add rock salt, powdered sugar and red chili powder and mix everything together. or take all of the fried ingredients in a jar, once the chiwda mixture becomes cool. sprinkle, salt, powdered sugar and red chili powder.", 
    "cover the jar tightly and shake it, so as to mix the seasonings with the sabudana and dry fruits. store sabudana chiwda at room temperature.", 
    "serve sabudana chivda plain when required."
  ]
}