{
  "Recipe name": "saffron sooji halwa recipe", 
  "Cuisine": "north indian", 
  "Image ID": "ef83e4e8-1de6-41a5-8862-722851628d03", 
  "Ingredients": [
    "2 cups sooji (semolina or rava or rawa)", 
    "4 cups water or milk", 
    "a thick pinch of saffron, approx 30-40 strands of saffron dissolved in 2 tablespoon water", 
    "9 to 10 tablespoon ghee", 
    "1.5 cups sugar or as required", 
    "1/2 cup cashew nuts (kaju)", 
    "7 to 8 cardamom pods (hari elaichi) - crushed or 1 teaspoon cardamom powder (choti elaichi powder)"
  ], 
  "Summary": "saffron suji halwa recipe - semolina pudding flavored with saffron", 
  "Preparation time": {
    "Prep Time": "20 mins", 
    "Cook Time": "25 mins", 
    "Total Time": "45 mins"
  }, 
  "Instructions": [
    "heat a pan and roast the semolina for 10-11 mins on a low flame. keep on stirring in between so that the semolina does not burn and gets a uniform color. keep aside.", 
    "warm 2 tbsp water and add saffron to it.", 
    "in another pan take water and sugar and give it one rolling boil. close the fire. strain the water to remove the sugar impurities and keep aside.", 
    "in a kadai or pan, melt ghee. fry cashewnuts in the ghee till golden brown.", 
    "add the roasted semolina and mix it with the ghee.", 
    "mix everything well and after 2-3 minutes add the crushed cardamom.", 
    "roast the semolina, ghee, cardamom, cashew nuts mixture for 12-15 minutes on a low flame.", 
    "add the hot sugar water to the semolina slowly and gradually.", 
    "keep on stirring while adding the sugar solution. take care to see that no lumps are formed.", 
    "also add the saffron dissolved water to this.", 
    "stir the whole mixture very well and let the suji halwa cook for 5-6 minutes more.", 
    "serve saffron suji halwa hot."
  ]
}