{
  "Recipe name": "samvat rice kheer recipe | vrat ke chawal ki kheer", 
  "Cuisine": "north indian", 
  "Image ID": "2c0f4f86-51b9-4f77-95ff-0cbd9baf5b8c", 
  "Ingredients": [
    "1/3 cup samvat rice (sama ke chawal or barnyard millet) Or 60 grams sama ke chawal", 
    "3 cups full fat milk or 750 ml full fat milk", 
    "12 to 15 cashews (kaju) - halved or chopped", 
    "1 tablespoon golden raisins (kishmish)", 
    "4 to 5 tablespoon sugar", 
    "1/2 teaspoon green cardamom powder (choti elaichi powder) or 4 to 5 cardamoms - crushed in mortar-pestle", 
    "7 to 9 saffron strands (kesar)"
  ], 
  "Summary": "vrat ke chawal ka kheer - a creamy kheer made with samvat rice or barnyard millet.", 
  "Preparation time": {
    "Prep Time": "1 hrs", 
    "Cook Time": "30 mins", 
    "Total Time": "1 hrs 30 mins"
  }, 
  "Instructions": [
    "soak 1/3 cup barnyard millet or sama ke chawal in enough water for about an hour. later drain and keep aside.", 
    "in a thick bottomed saucepan/pan/kadai heat milk and bring to a gentle boil on a low to medium flame. then add the sama ke chawal. stir very well.", 
    "cover the pan with its lid and on a low flame simmer the kheer mixture till the barnyard millet gets cooked.", 
    "do stir at intervals. do use a thick bottomed pan, so that the milk or the millet do not get scorched from the base.", 
    "these tiny grains take about 18 to 20 minutes to cook on a low flame.", 
    "add 4 tbsp sugar. you can add more sugar if required. stir very well till the sugar dissolves.", 
    "then add 1/2 tsp cardamom powder and 7 to 9 saffron strands. saffron strands are optional and you can skip these if you do not have them. you can also add 1 tsp of rose water instead of saffron.", 
    "lastly add chopped cashews and golden raisins.", 
    "stir and simmer for a minute. sama chawal kheer has a creamy consistency. scrape off the dried milk solids from the pan and add it to the kheer.", 
    "serve the vrat ke chawal ka kheer hot or warm garnished with some rose petals or saffron threads or chopped cashews. you can also serve this kheer chilled."
  ]
}