{
  "Recipe name": "sooji kheer recipe | rava kheer recipe", 
  "Cuisine": "north indian", 
  "Image ID": "573a72e5-1297-4efe-b65a-06111a1fdc42", 
  "Ingredients": [
    "3 tablespoon sooji (rava or semolina)", 
    "3 cups milk or 750 ml milk", 
    "4 green cardamoms (choti elachi) - crushed to a powder in a mortar-pestle or small grinder, Or 1/4 teaspoon cardamom powder", 
    "2 tablespoon cashews (kaju)", 
    "1 tablespoon raisins (kishmish)", 
    "1 tablespoon chironji (charoli) - optional", 
    "4 to 4.5 tablespoon sugar or add as required", 
    "1 pinch edible camphor (optional)", 
    "1 tablespoon cow's ghee - reduce the amount of ghee to 1/2 or 1/4 tablespoon if you prefer"
  ], 
  "Summary": "sooji kheer recipe - quick and easy to prepare semolina pudding.", 
  "Preparation time": {
    "Prep Time": "2 mins", 
    "Cook Time": "18 mins", 
    "Total Time": "20 mins"
  }, 
  "Instructions": [
    "heat ghee in a pan. then add cashews and saute for about a minute on a low flame.", 
    "add sooji and fry till the sooji becomes fragrant.", 
    "stir continuously so that the sooji gets fried evenly. this takes about 3 to 4 minutes on a low flame. the cashews would also become golden by then.", 
    "add milk and stir.", 
    "add sugar. if using edible camphor, add now.", 
    "stir and bring the sooji kheer to a gentle simmer. you can thicken the kheer more if you prefer.", 
    "lastly add cardamom powder, raisins and seeds.", 
    "stir the sooji kheer and switch off the flame.", 
    "serve sooji kheer hot or warm or refrigerate. you can also have the kheer with pooris."
  ]
}