{
  "Recipe name": "south indian style onion pakoda recipe", 
  "Cuisine": "south indian", 
  "Image ID": "00bed1e4-0fde-4994-aa9b-03b7e0250f51", 
  "Ingredients": [
    "2 medium onions, thinly sliced or 1/2 cup tightly packed thinly sliced onions or 100 grams onions", 
    "1/2 cup besan (gram flour) or 56 grams besan", 
    "1/4 cup rice flour or 30 grams rice flour", 
    "2 tablespoon chopped coriander leaves (dhania patta)", 
    "1 teaspoon chopped curry leaves or 7 to 8 chopped curry leaves (kadi patta)", 
    "1/2 teaspoon fennel seeds (saunf)", 
    "1 pinch turmeric powder (haldi)", 
    "1/4 teaspoon red chili powder (lal mirch powder)", 
    "1 or 2 green chilies, chopped (hari mirch)", 
    "5 tablespoon water or add as required", 
    "salt as per taste", 
    "oil for frying (can use peanut oil or sunflower oil)"
  ], 
  "Summary": "onion pakoda recipe - crisp and crunchy south indian style pakoda recipe", 
  "Preparation time": {
    "Prep Time": "20 mins", 
    "Cook Time": "20 mins", 
    "Total Time": "40 mins"
  }, 
  "Instructions": [
    "take 1/2 cup besan and 1/4 cup rice flour in a mixing bowl.", 
    "add onions, spices, herbs and salt, except oil.", 
    "then sprinkle 3 tablespoon water all over.", 
    "mix well. cover and keep aside for 15 to 20 minutes.", 
    "the onions will release their juices and the batter will become more moist. then add 1 to 2 tablespoon more water and mix well again. i added 2 tablespoons water.", 
    "i usually keep the batter more moist than what is the norm for this recipe. as i feel some moisture helps in making these pakoras not too dense. the batter has to be of a thick dropping consistency.", 
    "heat oil for deep frying in a kadai or pan. when the oil becomes medium hot, drop spoonfuls of batter in the kadai.", 
    "flip each pakora when they become pale golden.", 
    "continue to fry till the pakoras are golden and crisp, turning over them as required.", 
    "once they are fried to perfection, then remove them with a slotted spoon.", 
    "keep onion pakodas on kitchen paper towels so that extra oil is absorbed. fry in batches this way.", 
    "serve onion pakoda hot with tomato chutney, coconut chutney, mint chutney or tomato ketchup."
  ]
}