{
  "Recipe name": "sweet raita recipe | meetha raita recipe", 
  "Cuisine": "Indian", 
  "Image ID": "70c10e3f-893e-4d13-96e1-52783f80904b", 
  "Ingredients": [
    "1.25 to 1.5 cup fresh chilled full fat curd (yogurt or dahi)", 
    "1 to 2 tablespoon coriander leaves (dhania patta)", 
    "1/2 to 3/4 tablespoon sugar or as required", 
    "1/2 teaspoon roasted cumin powder (bhuna jeera powder) or as required", 
    "1/2 teaspoon chaat masala (no need to add salt as chaat masala already has black salt in it)", 
    "1/4 teaspoon red chilli powder (lal mirch powder)", 
    "few coriander leaves for garnishing (dhania patta)", 
    "chopped mango or banana or pomegranate arils or grated beetroot (optional)"
  ], 
  "Summary": "sweet raita recipe - mildly spiced and sweet raita.", 
  "Preparation time": {
    "Prep Time": "10 mins", 
    "Total Time": "10 mins"
  }, 
  "Instructions": [
    "first whip the yogurt till smooth with a wired whisk.", 
    "then add the sugar and stir well, so that the sugar dissolves.", 
    "add all the other ingredients - roasted cumin powder, chaat masala powder, red chili powder and coriander leaves.", 
    "stir well and while serving the raita garnish with coriander leaves.", 
    "serve sweet raita with an indian meal or as a side dish with chapatis and vegetables dishes. you can also serve the raita with chaat snacks like aloo tikki or ragda pattice."
  ]
}