{
  "Recipe name": "sweet corn kheer recipe", 
  "Cuisine": "north indian", 
  "Image ID": "36a5475a-9728-44dc-beff-ff5781848a88", 
  "Ingredients": [
    "1 corn cob or 1 cup corn kernels (makai)", 
    "2 tablespoon milk for grinding corn kernels", 
    "2 cups milk", 
    "1/2 teaspoon cardamom powder (choti elaichi) or 4 to 5 cardamoms crushed to a powder in mortar-pestle", 
    "1/2 tablespoon ghee", 
    "3 to 4 tablespoon sugar or add as per taste", 
    "1 tablespoon unsalted pistachios or cashews or blanched almonds - sliced", 
    "15 to 16 saffron strands (kesar) dissolved in 1 tablespoon warm milk", 
    "a few sliced unsalted pistachios for garnishing (pista)"
  ], 
  "Summary": "sweet corn kheer recipe - easy recipe of kheer made with fresh corn or makai.", 
  "Preparation time": {
    "Prep Time": "5 mins", 
    "Cook Time": "20 mins", 
    "Total Time": "25 mins"
  }, 
  "Instructions": [
    "remove the corn kernels from 1 corn cob. remove them carefully with a knife. you will need 1 cup corn kernels. take the corn kernels in a grinder or blender jar.", 
    "add 2 tbsp milk and grind to a semi fine paste.", 
    "heat 1/2 tbsp ghee in a pan.", 
    "add the ground corn paste. stir well and saute for 4 to 5 minutes on a low to medium flame.", 
    "then add 2 cups milk. stir and mix the milk very well with the sauteed corn paste.", 
    "in a small bowl, 1 tbsp warm milk + 15 to 16 saffron strands. stir and keep aside.", 
    "simmer the kheer mixture for 7 to 8 minutes on a low to medium flame. do stir at intervals so that the bottom of the kheer does not scorch or burn.", 
    "add 3 to 4 tbsp sugar or as per taste.", 
    "simmer for some more minutes (3 to 4 minutes) till the kheer thickens a bit. then add 1/2 tsp cardamom powder and 1 tbsp pistachios (sliced). you can also add chopped cashews or sliced blanched almonds instead of pistachios.", 
    "mix very well. switch off the flame. if any milk solids are stuck at the sides of the pan, then scrape them and add to the milk.", 
    "serve corn kheer hot or warm. garnish with some sliced pistachios while serving. you can even refrigerate the kheer once it comes to a room temperature. do note that on cooling the kheer will thicken."
  ]
}