{
  "Recipe name": "sweet corn salsa recipe", 
  "Cuisine": "world", 
  "Image ID": "a46fbe3d-37d5-43bd-847f-b33af9173425", 
  "Ingredients": [
    "1 cup boiled corn OR 1 medium to large corn cob, boiled or steamed (makai or bhutta or sweet corn)", 
    "1/4 cup finely chopped onions OR spring onions", 
    "1 green chili - chopped", 
    "2 tablespoons chopped coriander leaves (dhania patta)", 
    "1/4 teaspoon cumin powder (jeera powder)", 
    "1/4 teaspoon red chili powder (lal mirch powder)", 
    "1/4 teaspoon black pepper powder (kali mirch powder)", 
    "salt as required", 
    "lemon juice as required"
  ], 
  "Summary": "corn salsa recipe - tasty, tangy and spicy salsa made with sweet corn.", 
  "Preparation time": {
    "Prep Time": "10 mins", 
    "Cook Time": "5 mins", 
    "Total Time": "15 mins"
  }, 
  "Instructions": [
    "in a pressure cooker, take 1 medium to large corn cob. add water almost covering the corn cob. pressure cook for 4 to 5 whistles or till the corn is steamed well. you can even steam the corn cob in a pan.", 
    "when the corn cob cools down, then carefully with a knife slice off the corn kernels. you will need 1 cup of steamed corn kernels.", 
    "now in a bowl take the corn kernels. also add 1/4 cup finely chopped onions or spring onions, 1 green chili (chopped) and 2 tablespoons chopped coriander leaves.", 
    "next add 1/4 teaspoon cumin powder, 1/4 teaspoon red chili powder, 1/4 teaspoon black pepper powder and salt as required.", 
    "squeeze some lemon juice.", 
    "mix very well.", 
    "serve corn salsa with nachos or crackers."
  ]
}