{
  "Recipe name": "tomato cucumber sandwich recipe", 
  "Cuisine": "world", 
  "Image ID": "3be3b65c-5bff-4f44-bbe8-a123412b2380", 
  "Ingredients": [
    "8 to 10 slices of whole wheat bread or brown or white sandwich bread or 1 sandwich loaf cut into slices", 
    "1 medium size tomato, thinly sliced", 
    "1 medium size cucumber, thinly sliced", 
    "freshly crushed black pepper or pepper powder as required", 
    "cumin powder as required (jeera powder) - optional", 
    "butter as required, salted or unsalted", 
    "salt optional"
  ], 
  "Notes": "measuring cup used for ingredients is: 1 cup = 250 ml.", 
  "Summary": "tomato cucumber sandwiches can also be made for breakfast or as an evening snack. its a quick, simple and easy, no fuss sandwich recipe.", 
  "Preparation time": {
    "Prep Time": "15 mins", 
    "Total Time": "15 mins"
  }, 
  "Instructions": [
    "finely slice the cucumber and tomatoes. keep aside.", 
    "trim the edges of the bread if you want. apply butter evenly on the breads and keep aside.", 
    "apply a slightly thick layer of butter on the bread, if you are making the sandwiches for picnics, tiffin or travel.", 
    "arrange slices of tomato and cucumber on the buttered bread.", 
    "sprinkle two to three pinches of pepper powder or freshly ground pepper, cumin powder and salt on the tomato-cucumber slices. if using salted butter, then you can skip salt.", 
    "also, if you are making these sandwiches to take during travel, picnic or for tiffin box, then avoid salt. as the tomatoes and cucumber will release water due to the presence of salt and thus the sandwiches will become soggy and moist.", 
    "cover with another slice of buttered bread.", 
    "while serving you can cut the tomato cucumber sandwich diagonally into 2 or 4 parts.", 
    "serve tomato cucumber sandwiches with potato wafers and tomato sauce. if making for tiffin box, then wrap the sandwiches in a cling film or aluminium foil and place it in the tiffin box."
  ]
}