{
  "Recipe name": "vangi bhaji recipe", 
  "Cuisine": "Maharashtrian", 
  "Image ID": "b6e1e174-c50d-4785-b464-e66a07aa6d89", 
  "Ingredients": [
    "300 grams eggplants (brinjals or baingan) - small or medium sized", 
    "1 teaspoon seedless tamarind soaked in 2 tablespoon warm water", 
    "2 teaspoon kala masala or goda masala", 
    "2 tablespoon peanuts", 
    "1 tablespoon grated coconut, fresh or frozen", 
    "1 tablespoon jaggery powder or grated jaggery or as required", 
    "1/4 to 1/2 teaspoon red chili powder (lal mirch powder) or adjust as per taste", 
    "few chopped coriander leaves for garnishing (dhania patta)", 
    "2 tablespoon oil", 
    "1/2 teaspoon mustard seeds (rai)", 
    "1/2 teaspoon turmeric powder (haldi)", 
    "1 pinch asafoetida (hing)"
  ], 
  "Summary": "vangi bhaji recipe - lightly spiced, sweet and tangy dry curry made with eggplants, spices and ground peanuts.", 
  "Preparation time": {
    "Prep Time": "20 mins", 
    "Cook Time": "20 mins", 
    "Total Time": "40 mins"
  }, 
  "Instructions": [
    "rinse and then quarter the eggplants if they are small or else chop them into medium sized pieces.", 
    "place them in salted water for 15-20 minutes.", 
    "warm 2 tbsp water and add 1 tsp tamarind in it.", 
    "soak the tamarind in the water for 20-25 minutes.", 
    "squeeze the tamarind pulp from the soaked tamarind and keep aside.", 
    "roast the peanuts on a pan till they become crisp and have a few black spots on them.", 
    "once they cool down, grind the peanuts to a powder in a coffee grinder or in a mortar-pestle and keep aside.", 
    "heat oil in a pan.", 
    "crackle the mustard seeds first.", 
    "add the asafoetida and turmeric powder.", 
    "stir and add the drained aubergines and tamarind pulp.", 
    "stir and then cover the pan.", 
    "simmer on a low flame for 4-5 minutes.", 
    "do check in between and stir.", 
    "remove the lid and add red chili powder, goda masala/black masala, jaggery and salt.", 
    "stir and then cover the pan and let the brinjals cook till soft.", 
    "do check in between and give a stir.", 
    "if the mixture looks dry, then sprinkle some water if required.", 
    "once the brinjals are cooked, add the peanut powder and saute for 1-2 minute.", 
    "check the taste and add more salt, red chili powder, goda masala or jaggery if required", 
    "lastly add grated coconut and coriander leaves.", 
    "give a final stir.", 
    "serve vangi bhaji hot with chapatis, phulkas or as a side dish with dal-rice"
  ]
}