{
  "Recipe name": "veg russian salad recipe", 
  "Cuisine": "russian", 
  "Image ID": "3cc65a31-99d5-414c-8181-4e09bbf31c4a", 
  "Ingredients": [
    "1 medium to large carrot (gajar)", 
    "1 small stick of celery, finely chopped", 
    "1 medium to large potato (aloo)", 
    "1/2 cup green peas (matar)", 
    "1/4 cup french beans, chopped", 
    "3/4 cup eggless mayonnaise", 
    "salt as required", 
    "black pepper as required, (optional)", 
    "lettuce leaves as required", 
    "some slices of tomato, cucumber or capsicum"
  ], 
  "Notes": "measuring cup used for ingredients is: 1 cup = 250 ml.", 
  "Summary": "veg russian salad recipe", 
  "Preparation time": {
    "Prep Time": "20 mins", 
    "Total Time": "20 mins"
  }, 
  "Instructions": [
    "boil the carrot, potato, peas and french beans. you could also microwave them till they are completely cooked.", 
    "when the veggies are cooked, peel the potato and then chop the potato with the rest of the veggies. alternatively, you can chop the veggies first and boil them later.", 
    "i usually avoid doing the latter as when we chop the veggies and then boil them, some water- soluble vitamins and minerals are lost in the process. it is better to first boil them whole and then chop them.", 
    "chop the celery. mix the chopped veggies, celery with the mayonnaise, salt and pepper.", 
    "garnish the salad with lettuce leaves, tomato, cucumber, or capsicum slices.", 
    "serve the russian salad with your regular meals or you can also have it plain any time of the day when you are feeling hungry."
  ]
}