{
  "Recipe name": "veg makhanwala recipe", 
  "Cuisine": "north indian, Punjabi", 
  "Image ID": "f7922515-0e01-47a2-b274-e7b88c11a074", 
  "Ingredients": [
    "100 grams cauliflower, chopped into medium florets Or about 3/4 cup chopped medium cauliflower florets (gobi)", 
    "100 grams potatoes Or 1 medium potato, diced or cubed or cut into batons Or to 1/2 cup chopped potatoes", 
    "8 to 10 french beans, chopped", 
    "80 to 100 grams carrots Or 2 medium carrots, chopped or cut into batons Or to 1/2 cup chopped carrots (gajar)", 
    "cup peas (matar) - fresh or frozen", 
    "200 grams ripe red tomatoes, chopped or about 1.25 cup chopped tomatoes", 
    "2 tablespoon cashews (kaju) or 20 to 22 cashews", 
    "1/2 inch ginger (adrak) - chopped", 
    "3 to 4 garlic (lahsun) - chopped", 
    "2 tablespoon butter", 
    "1 small to medium tej patta (indian bay leaf)", 
    "1/4 to 1/2 teaspoon garam masala powder", 
    "1 green chili (hari mirch) - slit", 
    "1/2 teaspoon kasuri methi (dry fenugreek leaves)", 
    "1/2 inch ginger julienne (optional)", 
    "teaspoon turmeric powder (haldi)", 
    "1/2 teaspoon red chili powder (lal mirch powder)", 
    "2 to 3 tablespoon low fat cream", 
    "1.25 to 1.5 cups water", 
    "1/2 teaspoon sugar or as required", 
    "salt as required", 
    "few coriander leaves for garnish (optional)", 
    "1/2 inch ginger julienne (optional)"
  ], 
  "Summary": "vegetable makhanwala - creamy & rich tomato based gravy with mix vegetables.", 
  "Preparation time": {
    "Prep Time": "30 mins", 
    "Cook Time": "40 mins", 
    "Total Time": "1 hrs 10 mins"
  }, 
  "Instructions": [
    "first heat 1/3 cup water and soak 20 to 22 cashews in hot water for 30 minutes. after 30 minutes drain the cashews.", 
    "meanwhile while the cashews are soaking, rinse & chop the veggies. you can also cut the veggies in batons. add about 2 to 2.5 cups of chopped mix vegetables like cauliflower, carrots, french beans, potatoes, capsicum and peas. you can also add mushrooms. if adding mushrooms then better to saute them instead of steaming them.", 
    "now you can steam or fry/saute the veggies.", 
    "for steaming, steam then in a pressure cooker, electric rice cooker or a pan. just add about 2 to 3 cups water in the cooker (pressure or electric). place the chopped vegetables in the pan/steamer pan and keep in the cooker. while pressure cooking, cook for 2 whistles.", 
    "for sauteing veggies, heat 3 tbsp oil in a pan. add the veggies in batches to the pan.", 
    "saute the veggies, till they are browned from the edges. remove them on a plate and keep aside. add more oil if required while sauteing.", 
    "in a grinder or blender jar, add 1.25 cups of chopped tomatoes, soaked cashews, ginger and garlic (1/2 inch ginger & 3 to 4 garlic, chopped).", 
    "without adding any water make a smooth paste in the grinder or blender. there should be no small pieces of cashews in the paste.", 
    "heat 2 tbsp butter in a pan. add tej patta or bay leaf and saute for a few seconds.", 
    "add the tomato cashew paste.", 
    "keep on stirring and sauteing the paste on a low flame.", 
    "saute and stir till you see fat leaving the sides and on the surface. the entire sauteing of the tomato-cashew paste takes about 9 to 10 minutes on a low flame.", 
    "add 1/4 tsp turmeric powder & 1/2 tsp red chili powder. stir and saute for a minute.", 
    "add 1.25 to 1.5 cups water. stir very well.", 
    "add 1 slit green chili. the green chilies give a bit of heat to the gravy. you can also skip the green chilies.", 
    "bring the gravy to simmer on a low to medium flame for 6 to 8 minutes. you should see some fat floating on top. the gravy will also thicken.", 
    "add the steamed or fried veggies. stir gently.", 
    "add 1/2 tsp sugar or as required. add salt.", 
    "add 1/2 tsp kasuri methi/dry fenugreek leaves. crush and then add the kasuri methi.", 
    "stir and then add 2 to 3 tbsp low fat cream.", 
    "stir so that the cream mixes very well with the gravy. switch off the flame.", 
    "lastly sprinkle some 1/4 tsp garam masala powder. if using homemade garam masala, then add 1/4 tsp and if using store brought, then add 1/2 tsp. you can even add ginger julienne at this step or garnish with them later.", 
    "stir again and veg makhanwala is ready to be served.", 
    "serve veg makhanwala with rotis or parathas or naan.", 
    "while serving you can garnish veg makhanwala with coriander leaves or ginger julienne."
  ]
}