{
  "Recipe name": "vrat ke chawal ka pulao or samvat pulao recipe", 
  "Cuisine": "north indian", 
  "Image ID": "f698c3e1-7fd1-459d-8146-74b3fe352f34", 
  "Ingredients": [
    "1 cup sama ke chawal or vrat ke chawal or samvat rice or barnyard millet", 
    "1 teaspoon cumin seeds (jeera)", 
    "1/2 inch cinnamon stick (dalchini)", 
    "2-3 cloves (lavang)", 
    "2 green cardamoms (choti elaichi)", 
    "3-4 whole black pepper (sabut kali mirch)", 
    "1/2 inch ginger + 1 green chili, crushed in a mortar-pestle", 
    "8-10 curry leaves (kadi patta)", 
    "1 tablespoon chopped coriander leaves (dhania patta)", 
    "2 tablespoon peanuts (moongphali)", 
    "2 medium potatoes, peeled and cubed (aloo)", 
    "8-10 whole cashews (kaju)", 
    "8-10 almonds (badam)", 
    "2 tablespoon oil or ghee", 
    "2.5 to 3 cups water", 
    "1 tablespoon chopped coriander leaves for garnish", 
    "rock salt as required (or sendha namak)", 
    "lemon juice as required", 
    "lemon wedges as required"
  ], 
  "Notes": "1. if you are not making the samvat pulao for fasting, then you can add peas, cauliflower, beans to the pulao.2. i wanted the millet grains to have a good soft texture so have added 3 cups water. please reduce the water to 2.5 cups for a more separate texture.", 
  "Summary": "vrat ke chawal ka pulao or samvat pulao recipe is a simple and easy pulao.", 
  "Preparation time": {
    "Prep Time": "30 mins", 
    "Cook Time": "15 mins", 
    "Total Time": "45 mins"
  }, 
  "Instructions": [
    "rinse the sama or barnyard millet a couple of times in water like the way we rinse rice.", 
    "soak in enough water for 20-30 minutes.", 
    "dry roast the peanuts on a pan or in the oven till they become crunchy.", 
    "coarsely powder them in a mortar-pestle or in a dry grinder.", 
    "heat oil or ghee.", 
    "add all the whole spices - cumin, cinnamon, cloves, cardamom and black pepper.", 
    "saute till the oil become fragrant and the cumin crackles.", 
    "add the crushed ginger-green chili and saute for half a minute on a low flame.", 
    "add the cubed potatoes & curry leaves, chopped coriander leaves and saute for 3-4 minutes on a low flame.", 
    "now add the peanuts powder and stir.", 
    "drain the sama rice and add to the sauted mixture.stir.", 
    "add water and salt as required. pressure cook for 4-5 whistles or till the water is absorbed and the millet grains are cooked.", 
    "when the pulao is cooking, you can dry roast the chopped cashews and almonds.", 
    "when serving the samvat pulao, garnish with the dry fruits and coriander leaves.", 
    "when serving also sprinkle some lemon juice in the pulao. you can also keep some lemon wedges by the side of the samvat pulao while serving."
  ]
}