{
  "Recipe name": "whole wheat sandwich bread recipe | 100% whole wheat sandwich bread", 
  "Cuisine": "international", 
  "Image ID": "58c2eb10-d185-4708-b47d-d19a33df2fe2", 
  "Ingredients": [
    "1 cup warm water, 250 ml or add as required", 
    "1/2 teaspoon instant yeast or 3/4 teaspoon dry active yeast or 1/2 tablespoon fresh yeast", 
    "1 tablespoon sugar", 
    "1.5 cups whole wheat flour (atta), 180 grams", 
    "1.5 cups whole wheat flour (atta), 180 grams", 
    "2 tablespoons oil - i added sunflower oil", 
    "1 teaspoon salt or add as required", 
    "1 tablespoon lemon juice, can also add vinegar or buttermilk or curd"
  ], 
  "Summary": "whole wheat sandwich bread recipe - a soft sandwich bread made from whole wheat flour or atta.nutrition info is per bread sliceNutrition Factswhole wheat sandwich bread recipe | 100% whole wheat sandwich bread Amount Per Serving Calories 127 Calories from Fat 28 % Daily Value* Total Fat 3.1g 5% Saturated Fat 0.3g 2% Polyunsaturated Fat 1g Monounsaturated Fat 1g Sodium 195.3mg 8% Potassium 111.8mg 3% Total Carbohydrates 22.8g 8% Dietary Fiber 3.3g 13% Sugars 1.2g Protein 4g 8% Vitamin C 1% Calcium 1% Iron 6%* Percent Daily Values are based on a 2000 calorie diet.", 
  "Preparation time": {
    "Prep Time": "2 hr", 
    "Cook Time": "35 mins", 
    "Total Time": "2 hr 35 mins"
  }, 
  "Instructions": [
    "add 1/2 teaspoon instant yeast & & 1 tablespoon sugar in 1 cup warm water. stir and mix very well.", 
    "then add 1.5 cups whole wheat flour.", 
    "mix the flour in the water+yeast solution very well. cover and let this mixture sit for 45 minutes to an hour.", 
    "when you stir the mixture, you will see that it has leavened very well. with small tiny air pockets in it.", 
    "now add 2 tablespoons oil and 1 teaspoon salt to this sponge mixture. mix again with a spoon.", 
    "add 1.5 cups whole wheat flour.", 
    "add 1 tablespoon lemon juice. if you do not have lemon juice, you can use 1 tablespoon vinegar or butter milk or curd. if using vinegar, then use regular white vinegar or apple cider vinegar.", 
    "begin to mix and then knead the dough for 8 to 10 minutes. you can also use a stand mixer for kneading the dough.", 
    "knead to a smooth soft dough. now flatten and keep the dough in the same bowl or in another bowl. cover with a lid and keep for the first rise for 45 minutes to 1 hour. the dough is slightly sticky. if the dough feels too sticky, then you can add some more flour and knead. i have not added any water later. in case the dough looks dry and stiff, then you can add some water.", 
    "lightly knead the dough again.", 
    "make into a log shape.", 
    "place the log shaped dough in a well greased loaf pan. allow for the second rise for 30 to 45 minutes.", 
    "make a diagonal slit on the dough.", 
    "sprinkle some sesame seeds and gently press them so that they stick on the dough loaf.", 
    "bake the loaf in a preheated oven at 200 degrees celsius with only bottom heating element on. the preheating time is 20 minutes. keep the loaf in center rack.", 
    "bake for 30 to 40 mins or till the tops and sides are golden. also on tapping the bread, it should sound hollow. in my oven it took 38 minutes for the bread to bake.", 
    "after 5 to 6 minutes, gently remove the bread loaf from the pan.", 
    "keep the sandwich loaf on a wired rack for it to cool down at room temperature. if not using the bread immediately, then once its cooled, you can keep it in a bread box or in an air tight container. if living in warm and humid climate, then i suggest to refrigerated or freeze the loaf.", 
    "slice the bread and you can make sandwiches. or use it for your regular toasts with butter or jam or any spread or dip. i made guacamole sandwiches with the whole wheat sandwich loaf."
  ]
}