{
  "Recipe name": "whole wheat flour appam recipe", 
  "Cuisine": "south indian", 
  "Image ID": "f0269848-13a1-4913-b9d3-509b25d0b969", 
  "Ingredients": [
    "1 cup whole wheat flour (atta)", 
    "1/4 cup rice flour", 
    "1/2 cup powdered or grated jaggery (gur)", 
    "1/4 teaspoon cardamom powder (choti elaichi powder)", 
    "1/4 teaspoon dry ginger powder or saunth (optional)", 
    "1/4 cup fresh grated coconut (optional)", 
    "200 grams ripe banana or 2 medium sized bananas, chopped", 
    "1 pinch of baking soda", 
    "1/2 cup water for mixing or blending", 
    "1/2 to 1 teaspoon coconut oil in each mould or add as required"
  ], 
  "Notes": "few tips for atta appam recipe:1. you can add ghee or sunflower oil instead of coconut oil.2. ginger powder can be skipped, if you do not have it. 3. instead of grinding grated coconut in the batter, you can also add it directly to the batter.", 
  "Summary": "whole wheat flour appam recipe - instant appams made with whole wheat flour, jaggery and bananas.", 
  "Preparation time": {
    "Prep Time": "15 mins", 
    "Cook Time": "20 mins", 
    "Total Time": "35 mins"
  }, 
  "Instructions": [
    "in a mixer or blender, take all the ingredients except coconut oil.", 
    "blend till smooth. you just need to blend till you get a smooth consistency. don't over do.", 
    "now pour the appam batter in a bowl and allow to rest for 15 minutes.", 
    "heat a paniyaram chatti or appe pan bleskiver pan. add 1/2 to 1 teaspoon coconut oil in each mould. instead of coconut oil you can also use ghee.", 
    "with a spoon, pour the batter till 3/4 or more than 3/4 in each mould. keep the flame to low or medium and cook the appams. if you want you can cover the pan with a lid.", 
    "with a wooden/bamboo stick or skewer, turn over the appams which have become golden.", 
    "do this for the appams which have become golden.", 
    "when the rest of the appams are golden, turn them over too and cook all of them till crisp and golden.", 
    "you can even flip them once or twice back in the same mould for even cooking.", 
    "once done remove and place them in a casserole. in the casserole they stay warm for some time. same way prepare the remaining appams. the recipe makes for 40 whole wheat appams. you can store them in an air-tight box or container in the fridge.", 
    "serve the instant whole wheat appams, hot or warm or at room temperature."
  ]
}